Run #1,Run #1,Run #1,Run #1,Run #1
Date and Time,Time (s),Position (m),Velocity (m/s),Acceleration (m/s²)
05/05/2019 10:55:48 am,0.000,0.13892,,
05/05/2019 10:55:48 am,0.100,0.15248,0.16071,
05/05/2019 10:55:48 am,0.200,0.17106,0.14448,-0.39963
05/05/2019 10:55:48 am,0.300,0.18677,0.08078,-0.73693
05/05/2019 10:55:48 am,0.400,0.19132,-0.02189,-0.82318
05/05/2019 10:55:48 am,0.500,0.18069,-0.11508,-0.54924
05/05/2019 10:55:48 am,0.600,0.16401,-0.15357,-0.01490
05/05/2019 10:55:48 am,0.700,0.14504,-0.11709,0.51862
05/05/2019 10:55:48 am,0.800,0.13483,-0.02882,0.80355
05/05/2019 10:55:48 am,0.900,0.13961,0.07135,0.71945
05/05/2019 10:55:49 am,1.000,0.15214,0.14012,0.30606
05/05/2019 10:55:49 am,1.100,0.17054,0.14564,-0.26528
05/05/2019 10:55:49 am,1.200,0.18798,0.08052,-0.72138
05/05/2019 10:55:49 am,1.300,0.19116,-0.02821,-0.82094
05/05/2019 10:55:49 am,1.400,0.17983,-0.11885,-0.52010
05/05/2019 10:55:49 am,1.500,0.16175,-0.14755,0.01483
05/05/2019 10:55:49 am,1.600,0.14607,-0.11220,0.53061
05/05/2019 10:55:49 am,1.700,0.13639,-0.02597,0.81170
05/05/2019 10:55:49 am,1.800,0.13788,0.07793,0.72297
05/05/2019 10:55:49 am,1.900,0.15436,0.14934,0.26893
05/05/2019 10:55:50 am,2.000,0.17485,0.14628,-0.33463
05/05/2019 10:55:50 am,2.100,0.18902,0.06705,-0.77513
05/05/2019 10:55:50 am,2.200,0.19099,-0.04055,-0.82403
05/05/2019 10:55:50 am,2.300,0.17845,-0.12891,-0.47528
05/05/2019 10:55:50 am,2.400,0.16108,-0.15218,0.08126
05/05/2019 10:55:50 am,2.500,0.14158,-0.10649,0.59433
05/05/2019 10:55:50 am,2.600,0.13656,-0.01422,0.83485
05/05/2019 10:55:50 am,2.700,0.13908,0.08972,0.69633
05/05/2019 10:55:50 am,2.800,0.15505,0.15251,0.21927
05/05/2019 10:55:50 am,2.900,0.17692,0.14457,-0.38441
05/05/2019 10:55:51 am,3.000,0.19023,0.06249,-0.80254
05/05/2019 10:55:51 am,3.100,0.19064,-0.05090,-0.81802
05/05/2019 10:55:51 am,3.200,0.17882,-0.13353,-0.42953
05/05/2019 10:55:51 am,3.300,0.15779,-0.15021,0.15161
05/05/2019 10:55:51 am,3.400,0.14296,-0.09591,0.64092
05/05/2019 10:55:51 am,3.500,0.13637,0.00244,0.82606
05/05/2019 10:55:51 am,3.600,0.14269,0.09836,0.62145
05/05/2019 10:55:51 am,3.700,0.15953,0.15115,0.12117
05/05/2019 10:55:51 am,3.800,0.17882,0.12824,-0.44249
05/05/2019 10:55:51 am,3.900,0.19094,0.04526,-0.80229
05/05/2019 10:55:52 am,4.000,0.18823,-0.06124,-0.77554
05/05/2019 10:55:52 am,4.100,0.17727,-0.14073,-0.38027
05/05/2019 10:55:52 am,4.200,0.15574,-0.15109,0.19705
05/05/2019 10:55:52 am,4.300,0.13899,-0.09306,0.68112
05/05/2019 10:55:52 am,4.400,0.13586,0.00931,0.85048
05/05/2019 10:55:52 am,4.500,0.14131,0.10754,0.63019
05/05/2019 10:55:52 am,4.600,0.15900,0.15860,0.09839
05/05/2019 10:55:52 am,4.700,0.18037,0.13576,-0.49554
05/05/2019 10:55:52 am,4.800,0.19196,0.04012,-0.85363
05/05/2019 10:55:52 am,4.900,0.18981,-0.07130,-0.78583
05/05/2019 10:55:53 am,5.000,0.17364,-0.14651,-0.34016
05/05/2019 10:55:53 am,5.100,0.15591,-0.14910,0.24590
05/05/2019 10:55:53 am,5.200,0.13795,-0.08617,0.71184
05/05/2019 10:55:53 am,5.300,0.13603,0.01590,0.85157
05/05/2019 10:55:53 am,5.400,0.14182,0.11559,0.59971
05/05/2019 10:55:53 am,5.500,0.16159,0.16007,0.04630
05/05/2019 10:55:53 am,5.600,0.18175,0.12948,-0.54160
05/05/2019 10:55:53 am,5.700,0.19214,0.02979,-0.85625
05/05/2019 10:55:53 am,5.800,0.18895,-0.07909,-0.74294
05/05/2019 10:55:53 am,5.900,0.17226,-0.14511,-0.27462
05/05/2019 10:55:54 am,6.000,0.15418,-0.14139,0.29536
05/05/2019 10:55:54 am,6.100,0.13985,-0.07268,0.70681
05/05/2019 10:55:54 am,6.200,0.13653,0.02570,0.79334
05/05/2019 10:55:54 am,6.300,0.14630,0.11189,0.52551
05/05/2019 10:55:54 am,6.400,0.16315,0.15005,0.00980
05/05/2019 10:55:54 am,6.500,0.18036,0.11828,-0.53116
05/05/2019 10:55:54 am,6.600,0.19249,0.02520,-0.83142
05/05/2019 10:55:54 am,6.700,0.18792,-0.08196,-0.71952
05/05/2019 10:55:54 am,6.800,0.17071,-0.14857,-0.25598
05/05/2019 10:55:54 am,6.900,0.15297,-0.13967,0.31636
05/05/2019 10:55:55 am,7.000,0.13829,-0.07068,0.73694
05/05/2019 10:55:55 am,7.100,0.13654,0.02997,0.81789
05/05/2019 10:55:55 am,7.200,0.14474,0.12396,0.51286
05/05/2019 10:55:55 am,7.300,0.16451,0.15643,-0.05991
05/05/2019 10:55:55 am,7.400,0.18470,0.11058,-0.61650
05/05/2019 10:55:55 am,7.500,0.19043,0.00740,-0.86091
05/05/2019 10:55:55 am,7.600,0.18516,-0.09692,-0.67766
05/05/2019 10:55:55 am,7.700,0.16849,-0.15262,-0.16521
05/05/2019 10:55:55 am,7.800,0.14849,-0.13599,0.42073
05/05/2019 10:55:55 am,7.900,0.13553,-0.05265,0.79561
05/05/2019 10:55:56 am,8.000,0.13652,0.05555,0.78285
05/05/2019 10:55:56 am,8.100,0.14887,0.13320,0.39958
05/05/2019 10:55:56 am,8.200,0.16849,0.14786,-0.16012
05/05/2019 10:55:56 am,8.300,0.18349,0.09479,-0.63161
05/05/2019 10:55:56 am,8.400,0.19062,-0.00211,-0.80935
05/05/2019 10:55:56 am,8.500,0.18361,-0.09580,-0.62157
05/05/2019 10:55:56 am,8.600,0.16710,-0.14716,-0.15354
05/05/2019 10:55:56 am,8.700,0.14952,-0.13309,0.39297
05/05/2019 10:55:56 am,8.800,0.13640,-0.05694,0.78442
05/05/2019 10:55:56 am,8.900,0.13445,0.04976,0.81766
05/05/2019 10:55:57 am,9.000,0.14801,0.14064,0.44663
05/05/2019 10:55:57 am,9.100,0.16778,0.15992,-0.16266
05/05/2019 10:55:57 am,9.200,0.18746,0.10087,-0.70468
05/05/2019 10:55:57 am,9.300,0.19095,-0.00807,-0.89135
05/05/2019 10:55:57 am,9.400,0.18535,-0.11418,-0.64351
05/05/2019 10:55:57 am,9.500,0.16504,-0.15984,-0.08304
05/05/2019 10:55:57 am,9.600,0.14486,-0.13346,0.50834
05/05/2019 10:55:57 am,9.700,0.13554,-0.03860,0.85077
05/05/2019 10:55:57 am,9.800,0.13478,0.06959,0.79029
05/05/2019 10:55:57 am,9.900,0.15197,0.14757,0.34631
05/05/2019 10:55:58 am,10.000,0.17019,0.15454,-0.25945
05/05/2019 10:55:58 am,10.100,0.18867,0.08424,-0.73658
05/05/2019 10:55:58 am,10.200,0.19080,-0.02275,-0.84857
05/05/2019 10:55:58 am,10.300,0.18190,-0.11710,-0.55786
05/05/2019 10:55:58 am,10.400,0.16331,-0.15327,-0.01924
05/05/2019 10:55:58 am,10.500,0.14590,-0.11996,0.52426
05/05/2019 10:55:58 am,10.600,0.13483,-0.03143,0.83316
05/05/2019 10:55:58 am,10.700,0.13841,0.07562,0.75450
05/05/2019 10:55:58 am,10.800,0.15195,0.15105,0.30242
05/05/2019 10:55:58 am,10.900,0.17416,0.15027,-0.31254
05/05/2019 10:55:59 am,11.000,0.18971,0.07537,-0.77735
05/05/2019 10:55:59 am,11.100,0.19081,-0.03623,-0.86215
05/05/2019 10:55:59 am,11.200,0.18053,-0.12886,-0.53274
05/05/2019 10:55:59 am,11.300,0.16160,-0.16278,0.05239
05/05/2019 10:55:59 am,11.400,0.14159,-0.11772,0.60950
05/05/2019 10:55:59 am,11.500,0.13207,-0.01594,0.87502
05/05/2019 10:55:59 am,11.600,0.13943,0.08999,0.72404
05/05/2019 10:55:59 am,11.700,0.15420,0.15452,0.24309
05/05/2019 10:55:59 am,11.800,0.17346,0.14625,-0.34658
05/05/2019 10:55:59 am,11.900,0.19075,0.07366,-0.77837
05/05/2019 10:56:00 am,12.000,0.19063,-0.03709,-0.85066
05/05/2019 10:56:00 am,12.100,0.18122,-0.12916,-0.53079
05/05/2019 10:56:00 am,12.200,0.16073,-0.16133,0.04424
05/05/2019 10:56:00 am,12.300,0.14315,-0.12058,0.61177
05/05/2019 10:56:00 am,12.400,0.13190,-0.01913,0.90652
05/05/2019 10:56:00 am,12.500,0.13770,0.09570,0.76347
05/05/2019 10:56:00 am,12.600,0.15470,0.16630,0.22761
05/05/2019 10:56:00 am,12.700,0.17778,0.15207,-0.42546
05/05/2019 10:56:00 am,12.800,0.19161,0.06107,-0.84898
05/05/2019 10:56:00 am,12.900,0.19204,-0.05435,-0.84579
05/05/2019 10:56:01 am,13.000,0.17708,-0.13668,-0.44626
05/05/2019 10:56:01 am,13.100,0.15970,-0.15767,0.14246
05/05/2019 10:56:01 am,13.200,0.14194,-0.10337,0.65515
05/05/2019 10:56:01 am,13.300,0.13257,-0.00217,0.86375
05/05/2019 10:56:01 am,13.400,0.14218,0.10092,0.66351
05/05/2019 10:56:01 am,13.500,0.15815,0.15629,0.15332
05/05/2019 10:56:01 am,13.600,0.17691,0.13627,-0.43752
05/05/2019 10:56:01 am,13.700,0.19161,0.05447,-0.83277
05/05/2019 10:56:01 am,13.800,0.19048,-0.05977,-0.82393
05/05/2019 10:56:01 am,13.900,0.17727,-0.14733,-0.40294
05/05/2019 10:56:02 am,14.000,0.15539,-0.15628,0.21563
05/05/2019 10:56:02 am,14.100,0.13830,-0.09078,0.70990
05/05/2019 10:56:02 am,14.200,0.13568,0.01305,0.85493
05/05/2019 10:56:02 am,14.300,0.14252,0.10927,0.60490
05/05/2019 10:56:02 am,14.400,0.15900,0.15663,0.06866
05/05/2019 10:56:02 am,14.500,0.18054,0.12859,-0.50383
05/05/2019 10:56:02 am,14.600,0.19163,0.03493,-0.83029
05/05/2019 10:56:02 am,14.700,0.18704,-0.07133,-0.74849
05/05/2019 10:56:02 am,14.800,0.17346,-0.14163,-0.31186
05/05/2019 10:56:02 am,14.900,0.15591,-0.14394,0.25745
05/05/2019 10:56:03 am,15.000,0.13778,-0.07957,0.70188
05/05/2019 10:56:03 am,15.100,0.13636,0.02108,0.81771
05/05/2019 10:56:03 am,15.200,0.14527,0.11447,0.54950
05/05/2019 10:56:03 am,15.300,0.16107,0.15264,0.01081
05/05/2019 10:56:03 am,15.400,0.18175,0.11857,-0.54559
05/05/2019 10:56:03 am,15.500,0.19147,0.02347,-0.82960
05/05/2019 10:56:03 am,15.600,0.18601,-0.08371,-0.69893
05/05/2019 10:56:03 am,15.700,0.17089,-0.14284,-0.24055
05/05/2019 10:56:03 am,15.800,0.15210,-0.13448,0.30504
05/05/2019 10:56:03 am,15.900,0.13968,-0.07009,0.69439
05/05/2019 10:56:04 am,16.000,0.13654,0.02657,0.78187
05/05/2019 10:56:04 am,16.100,0.14440,0.11275,0.51457
05/05/2019 10:56:04 am,16.200,0.16332,0.15180,-0.01605
05/05/2019 10:56:04 am,16.300,0.18054,0.11342,-0.55288
05/05/2019 10:56:04 am,16.400,0.19148,0.01627,-0.81438
05/05/2019 10:56:04 am,16.500,0.18429,-0.08344,-0.67023
05/05/2019 10:56:04 am,16.600,0.16933,-0.13997,-0.21423
05/05/2019 10:56:04 am,16.700,0.15262,-0.13249,0.32985
05/05/2019 10:56:04 am,16.800,0.13916,-0.06323,0.72742
05/05/2019 10:56:04 am,16.900,0.13496,0.03773,0.79212
05/05/2019 10:56:05 am,17.000,0.14905,0.12627,0.47174
05/05/2019 10:56:05 am,17.100,0.16537,0.15328,-0.09103
05/05/2019 10:56:05 am,17.200,0.18452,0.10426,-0.62515
05/05/2019 10:56:05 am,17.300,0.19147,0.00512,-0.85665
05/05/2019 10:56:05 am,17.400,0.18551,-0.10065,-0.66957
05/05/2019 10:56:05 am,17.500,0.16745,-0.15579,-0.15711
05/05/2019 10:56:05 am,17.600,0.14815,-0.13657,0.43269
05/05/2019 10:56:05 am,17.700,0.13536,-0.05323,0.80851
05/05/2019 10:56:05 am,17.800,0.13566,0.05640,0.79817
05/05/2019 10:56:05 am,17.900,0.14800,0.13635,0.40778
05/05/2019 10:56:06 am,18.000,0.16935,0.15275,-0.17106
05/05/2019 10:56:06 am,18.100,0.18348,0.09509,-0.65409
05/05/2019 10:56:06 am,18.200,0.19183,-0.00497,-0.82907
05/05/2019 10:56:06 am,18.300,0.18257,-0.09838,-0.61360
05/05/2019 10:56:06 am,18.400,0.16727,-0.15122,-0.10822
05/05/2019 10:56:06 am,18.500,0.14901,-0.12682,0.45239
05/05/2019 10:56:06 am,18.600,0.13466,-0.04146,0.79860
05/05/2019 10:56:06 am,18.700,0.13909,0.06330,0.75239
05/05/2019 10:56:06 am,18.800,0.15232,0.13782,0.34617
05/05/2019 10:56:06 am,18.900,0.16933,0.14533,-0.22270
05/05/2019 10:56:07 am,19.000,0.18711,0.08421,-0.68916
05/05/2019 10:56:07 am,19.100,0.19150,-0.01672,-0.82979
05/05/2019 10:56:07 am,19.200,0.18068,-0.11363,-0.57076
05/05/2019 10:56:07 am,19.300,0.16574,-0.15471,-0.03125
05/05/2019 10:56:07 am,19.400,0.14469,-0.12025,0.52430
05/05/2019 10:56:07 am,19.500,0.13466,-0.02884,0.81935
05/05/2019 10:56:07 am,19.600,0.13961,0.07508,0.72479
05/05/2019 10:56:07 am,19.700,0.15352,0.14157,0.29271
05/05/2019 10:56:07 am,19.800,0.17088,0.14421,-0.28251
05/05/2019 10:56:07 am,19.900,0.18832,0.07765,-0.72860
05/05/2019 10:56:08 am,20.000,0.19133,-0.03051,-0.81716
05/05/2019 10:56:08 am,20.100,0.17966,-0.12087,-0.50866
05/05/2019 10:56:08 am,20.200,0.16124,-0.14756,0.00272
05/05/2019 10:56:08 am,20.300,0.14590,-0.11049,
05/05/2019 10:56:08 am,20.400,0.13656,-0.03926,
05/05/2019 10:56:08 am,20.500,0.13804,,
