Run #1,Run #1,Run #1,Run #1,Run #1
Date and Time,Time (s),Position (m),Velocity (m/s),Acceleration (m/s²)
05/05/2019 10:40:50 am,0.000,0.17064,,
05/05/2019 10:40:50 am,0.100,0.16720,-0.03783,
05/05/2019 10:40:50 am,0.200,0.16308,-0.03559,0.05406
05/05/2019 10:40:50 am,0.300,0.15893,-0.02702,0.10919
05/05/2019 10:40:50 am,0.400,0.15756,-0.01269,0.14999
05/05/2019 10:40:50 am,0.500,0.15651,0.00479,0.15788
05/05/2019 10:40:50 am,0.600,0.15788,0.02260,0.11176
05/05/2019 10:40:50 am,0.700,0.16149,0.03242,0.01721
05/05/2019 10:40:50 am,0.800,0.16614,0.02673,-0.08570
05/05/2019 10:40:50 am,0.900,0.16770,0.01098,-0.14906
05/05/2019 10:40:51 am,1.000,0.16771,-0.00738,-0.15075
05/05/2019 10:40:51 am,1.100,0.16651,-0.02290,-0.09789
05/05/2019 10:40:51 am,1.200,0.16290,-0.02984,-0.01046
05/05/2019 10:40:51 am,1.300,0.15876,-0.02529,0.07951
05/05/2019 10:40:51 am,1.400,0.15756,-0.01126,0.13995
05/05/2019 10:40:51 am,1.500,0.15668,0.00623,0.15025
05/05/2019 10:40:51 am,1.600,0.15822,0.02261,0.10171
05/05/2019 10:40:51 am,1.700,0.16183,0.03099,0.01000
05/05/2019 10:40:51 am,1.800,0.16597,0.02501,-0.08478
05/05/2019 10:40:51 am,1.900,0.16753,0.00983,-0.13954
05/05/2019 10:40:52 am,2.000,0.16753,-0.00710,-0.13356
05/05/2019 10:40:52 am,2.100,0.16617,-0.02062,-0.07919
05/05/2019 10:40:52 am,2.200,0.16307,-0.02468,-0.00604
05/05/2019 10:40:52 am,2.300,0.15962,-0.02011,0.05857
05/05/2019 10:40:52 am,2.400,0.15928,-0.01124,0.10215
05/05/2019 10:40:52 am,2.500,0.15790,0.00108,0.12430
05/05/2019 10:40:52 am,2.600,0.15805,0.01542,0.10687
05/05/2019 10:40:52 am,2.700,0.16149,0.02781,0.03629
05/05/2019 10:40:52 am,2.800,0.16493,0.02615,-0.06128
05/05/2019 10:40:52 am,2.900,0.16770,0.01213,-0.13469
05/05/2019 10:40:53 am,3.000,0.16753,-0.00566,-0.14404
05/05/2019 10:40:53 am,3.100,0.16617,-0.02119,-0.09593
05/05/2019 10:40:53 am,3.200,0.16307,-0.02696,-0.01711
05/05/2019 10:40:53 am,3.300,0.15945,-0.02413,0.06423
05/05/2019 10:40:53 am,3.400,0.15807,-0.01298,0.12413
05/05/2019 10:40:53 am,3.500,0.15669,0.00336,0.14541
05/05/2019 10:40:53 am,3.600,0.15805,0.02002,0.10978
05/05/2019 10:40:53 am,3.700,0.16149,0.03012,0.03006
05/05/2019 10:40:53 am,3.800,0.16528,0.02614,-0.06224
05/05/2019 10:40:53 am,3.900,0.16753,0.01528,-0.13414
05/05/2019 10:40:54 am,4.000,0.16770,-0.00249,-0.15832
05/05/2019 10:40:54 am,4.100,0.16824,-0.02174,-0.12181
05/05/2019 10:40:54 am,4.200,0.16307,-0.03184,-0.02868
05/05/2019 10:40:54 am,4.300,0.15911,-0.02845,0.07470
05/05/2019 10:40:54 am,4.400,0.15773,-0.01298,0.14328
05/05/2019 10:40:54 am,4.500,0.15651,0.00422,0.15740
05/05/2019 10:40:54 am,4.600,0.15788,0.02145,0.11222
05/05/2019 10:40:54 am,4.700,0.16149,0.03155,0.02245
05/05/2019 10:40:54 am,4.800,0.16563,0.02702,-0.07898
05/05/2019 10:40:54 am,4.900,0.16770,0.01213,-0.14713
05/05/2019 10:40:55 am,5.000,0.16788,-0.00651,-0.15124
05/05/2019 10:40:55 am,5.100,0.16651,-0.02320,-0.09692
05/05/2019 10:40:55 am,5.200,0.16290,-0.02840,-0.01138
05/05/2019 10:40:55 am,5.300,0.15876,-0.02414,0.07188
05/05/2019 10:40:55 am,5.400,0.15859,-0.01240,0.12939
05/05/2019 10:40:55 am,5.500,0.15634,0.00393,0.15019
05/05/2019 10:40:55 am,5.600,0.15788,0.02116,0.11318
05/05/2019 10:40:55 am,5.700,0.16183,0.03242,0.02200
05/05/2019 10:40:55 am,5.800,0.16580,0.02702,-0.08327
05/05/2019 10:40:55 am,5.900,0.16787,0.01127,-0.15380
05/05/2019 10:40:56 am,6.000,0.16805,-0.00766,-0.16222
05/05/2019 10:40:56 am,6.100,0.16634,-0.02519,-0.10988
05/05/2019 10:40:56 am,6.200,0.16273,-0.03385,-0.01198
05/05/2019 10:40:56 am,6.300,0.15808,-0.02846,0.09762
05/05/2019 10:40:56 am,6.400,0.15600,-0.01157,0.16961
05/05/2019 10:40:56 am,6.500,0.15600,0.01110,0.17136
05/05/2019 10:40:56 am,6.600,0.15787,0.02835,0.10227
05/05/2019 10:40:56 am,6.700,0.16287,0.03444,-0.00622
05/05/2019 10:40:56 am,6.800,0.16614,0.02645,-0.10483
05/05/2019 10:40:56 am,6.900,0.16839,0.00926,-0.16196
05/05/2019 10:40:57 am,7.000,0.16823,-0.00938,-0.16320
05/05/2019 10:40:57 am,7.100,0.16634,-0.02691,-0.10703
05/05/2019 10:40:57 am,7.200,0.16256,-0.03529,-0.00580
05/05/2019 10:40:57 am,7.300,0.15791,-0.02904,0.11048
05/05/2019 10:40:57 am,7.400,0.15549,-0.01072,0.19017
05/05/2019 10:40:57 am,7.500,0.15599,0.01481,0.18771
05/05/2019 10:40:57 am,7.600,0.15804,0.03496,0.09665
05/05/2019 10:40:57 am,7.700,0.16424,0.03790,-0.03679
05/05/2019 10:40:57 am,7.800,0.16821,0.02418,-0.13839
05/05/2019 10:40:57 am,7.900,0.16856,0.00352,-0.17258
05/05/2019 10:40:58 am,8.000,0.16823,-0.01369,-0.15080
05/05/2019 10:40:58 am,8.100,0.16634,-0.02777,-0.08788
05/05/2019 10:40:58 am,8.200,0.16222,-0.03501,0.00620
05/05/2019 10:40:58 am,8.300,0.15791,-0.02789,0.11197
05/05/2019 10:40:58 am,8.400,0.15566,-0.00986,0.17970
05/05/2019 10:40:58 am,8.500,0.15617,0.01426,0.16904
05/05/2019 10:40:58 am,8.600,0.15804,0.03066,0.08556
05/05/2019 10:40:58 am,8.700,0.16408,0.03301,-0.02636
05/05/2019 10:40:58 am,8.800,0.16614,0.02272,-0.11018
05/05/2019 10:40:58 am,8.900,0.16787,0.00638,-0.14862
05/05/2019 10:40:59 am,9.000,0.16788,-0.00881,-0.14026
05/05/2019 10:40:59 am,9.100,0.16617,-0.02463,-0.08499
05/05/2019 10:40:59 am,9.200,0.16256,-0.03042,0.00291
05/05/2019 10:40:59 am,9.300,0.15842,-0.02300,0.09579
05/05/2019 10:40:59 am,9.400,0.15738,-0.00869,0.15005
05/05/2019 10:40:59 am,9.500,0.15755,0.01111,0.14506
05/05/2019 10:40:59 am,9.600,0.15821,0.02549,0.08215
05/05/2019 10:40:59 am,9.700,0.16425,0.02985,-0.01442
05/05/2019 10:40:59 am,9.800,0.16597,0.02186,-0.09629
05/05/2019 10:40:59 am,9.900,0.16770,0.00609,-0.14096
05/05/2019 10:41:00 am,10.000,0.16788,-0.00852,-0.13642
05/05/2019 10:41:00 am,10.100,0.16600,-0.02434,-0.08449
05/05/2019 10:41:00 am,10.200,0.16256,-0.02956,-8.80785E-4
05/05/2019 10:41:00 am,10.300,0.15842,-0.02357,0.08481
05/05/2019 10:41:00 am,10.400,0.15773,-0.00982,0.13614
05/05/2019 10:41:00 am,10.500,0.15668,0.00681,0.14211
05/05/2019 10:41:00 am,10.600,0.15840,0.02175,0.09691
05/05/2019 10:41:00 am,10.700,0.16183,0.03012,0.01190
05/05/2019 10:41:00 am,10.800,0.16563,0.02501,-0.08045
05/05/2019 10:41:00 am,10.900,0.16753,0.01069,-0.14139
05/05/2019 10:41:01 am,11.000,0.16771,-0.00709,-0.14787
05/05/2019 10:41:01 am,11.100,0.16617,-0.02261,-0.09980
05/05/2019 10:41:01 am,11.200,0.16273,-0.03041,-0.01239
05/05/2019 10:41:01 am,11.300,0.15894,-0.02587,0.08142
05/05/2019 10:41:01 am,11.400,0.15669,-0.01127,0.14331
05/05/2019 10:41:01 am,11.500,0.15668,0.00709,0.14930
05/05/2019 10:41:01 am,11.600,0.15822,0.02261,0.09883
05/05/2019 10:41:01 am,11.700,0.16166,0.02983,0.01189
05/05/2019 10:41:01 am,11.800,0.16528,0.02529,-0.07759
05/05/2019 10:41:01 am,11.900,0.16753,0.01155,-0.13660
05/05/2019 10:41:02 am,12.000,0.16753,-0.00566,-0.14593
05/05/2019 10:41:02 am,12.100,0.16634,-0.02117,-0.10312
05/05/2019 10:41:02 am,12.200,0.16307,-0.02954,-0.02050
05/05/2019 10:41:02 am,12.300,0.15928,-0.02644,0.07232
05/05/2019 10:41:02 am,12.400,0.15686,-0.01270,0.13850
05/05/2019 10:41:02 am,12.500,0.15669,0.00537,0.15166
05/05/2019 10:41:02 am,12.600,0.15805,0.02175,0.10694
05/05/2019 10:41:02 am,12.700,0.16132,0.03011,0.02096
05/05/2019 10:41:02 am,12.800,0.16528,0.02672,-0.06806
05/05/2019 10:41:02 am,12.900,0.16753,0.01297,-0.12226
05/05/2019 10:41:03 am,13.000,0.16788,-0.00195,-0.13246
05/05/2019 10:41:03 am,13.100,0.16650,-0.01457,-0.10777
05/05/2019 10:41:03 am,13.200,0.16514,-0.02521,-0.05249
05/05/2019 10:41:03 am,13.300,0.16153,-0.02842,0.03446
05/05/2019 10:41:03 am,13.400,0.15773,-0.01959,0.12499
05/05/2019 10:41:03 am,13.500,0.15686,4.78509E-4,0.16597
05/05/2019 10:41:03 am,13.600,0.15805,0.02088,0.12755
05/05/2019 10:41:03 am,13.700,0.16149,0.03069,0.02916
05/05/2019 10:41:03 am,13.800,0.16563,0.02673,-0.07612
05/05/2019 10:41:03 am,13.900,0.16770,0.01213,-0.14423
05/05/2019 10:41:04 am,14.000,0.16788,-0.00623,-0.15598
05/05/2019 10:41:04 am,14.100,0.16651,-0.02289,-0.10889
05/05/2019 10:41:04 am,14.200,0.16308,-0.03184,-0.01768
05/05/2019 10:41:04 am,14.300,0.15877,-0.02759,0.08330
05/05/2019 10:41:04 am,14.400,0.15652,-0.01213,0.15142
05/05/2019 10:41:04 am,14.500,0.15651,0.00738,0.15935
05/05/2019 10:41:04 am,14.600,0.15805,0.02404,0.10602
05/05/2019 10:41:04 am,14.700,0.16166,0.03184,0.01285
05/05/2019 10:41:04 am,14.800,0.16580,0.02702,-0.07807
05/05/2019 10:41:04 am,14.900,0.16787,0.01211,-0.13705
05/05/2019 10:41:05 am,15.000,0.16805,-0.00307,-0.15114
05/05/2019 10:41:05 am,15.100,0.16668,-0.02030,-0.11744
05/05/2019 10:41:05 am,15.200,0.16515,-0.03125,-0.03778
05/05/2019 10:41:05 am,15.300,0.15859,-0.03017,0.06935
05/05/2019 10:41:05 am,15.400,0.15738,-0.01587,0.15565
05/05/2019 10:41:05 am,15.500,0.15634,0.00593,0.17944
05/05/2019 10:41:05 am,15.600,0.15788,0.02604,0.12094
05/05/2019 10:41:05 am,15.700,0.16165,0.03559,0.00578
05/05/2019 10:41:05 am,15.800,0.16770,0.02703,-0.10580
05/05/2019 10:41:05 am,15.900,0.16787,0.00840,-0.16154
05/05/2019 10:41:06 am,16.000,0.16788,-0.01025,-0.15079
05/05/2019 10:41:06 am,16.100,0.16651,-0.02405,-0.08929
05/05/2019 10:41:06 am,16.200,0.16291,-0.03099,6.94791E-5
05/05/2019 10:41:06 am,16.300,0.15842,-0.02444,0.08669
05/05/2019 10:41:06 am,16.400,0.15738,-0.00982,0.14520
05/05/2019 10:41:06 am,16.500,0.15738,0.00680,0.15503
05/05/2019 10:41:06 am,16.600,0.15805,0.02490,0.10559
05/05/2019 10:41:06 am,16.700,0.16182,0.03386,0.00385
05/05/2019 10:41:06 am,16.800,0.16787,0.02646,-0.10389
05/05/2019 10:41:06 am,16.900,0.16787,0.00754,-0.16010
05/05/2019 10:41:07 am,17.000,0.16788,-0.01112,-0.14983
05/05/2019 10:41:07 am,17.100,0.16634,-0.02462,-0.08929
05/05/2019 10:41:07 am,17.200,0.16273,-0.03127,-0.00186
05/05/2019 10:41:07 am,17.300,0.15824,-0.02587,0.08856
05/05/2019 10:41:07 am,17.400,0.15721,-0.01098,0.15570
05/05/2019 10:41:07 am,17.500,0.15634,0.00822,0.16846
05/05/2019 10:41:07 am,17.600,0.15805,0.02806,0.10848
05/05/2019 10:41:07 am,17.700,0.16234,0.03617,-4.62422E-4
05/05/2019 10:41:07 am,17.800,0.16804,0.02616,-0.10532
05/05/2019 10:41:07 am,17.900,0.16804,0.00984,-0.16147
05/05/2019 10:41:08 am,18.000,0.16804,-0.00881,-0.16461
05/05/2019 10:41:08 am,18.100,0.16824,-0.02575,-0.11279
05/05/2019 10:41:08 am,18.200,0.16256,-0.03702,-0.00722
05/05/2019 10:41:08 am,18.300,0.15808,-0.02962,0.10622
05/05/2019 10:41:08 am,18.400,0.15600,-0.00926,0.17632
05/05/2019 10:41:08 am,18.500,0.15703,0.01023,0.17280
05/05/2019 10:41:08 am,18.600,0.15805,0.02892,0.10371
05/05/2019 10:41:08 am,18.700,0.16217,0.03587,-0.00523
05/05/2019 10:41:08 am,18.800,0.16822,0.02732,-0.11201
05/05/2019 10:41:08 am,18.900,0.16839,0.00869,-0.16820
05/05/2019 10:41:09 am,19.000,0.16822,-0.01111,-0.16370
05/05/2019 10:41:09 am,19.100,0.16738,-0.02662,-0.10131
05/05/2019 10:41:09 am,19.200,0.16256,-0.03559,0.00190
05/05/2019 10:41:09 am,19.300,0.15808,-0.02761,0.10580
05/05/2019 10:41:09 am,19.400,0.15617,-0.00898,0.16440
05/05/2019 10:41:09 am,19.500,0.15720,0.01025,0.15604
05/05/2019 10:41:09 am,19.600,0.15805,0.02519,0.09503
05/05/2019 10:41:09 am,19.700,0.16235,0.03184,0.00141
05/05/2019 10:41:09 am,19.800,0.16614,0.02645,-0.09382
05/05/2019 10:41:09 am,19.900,0.16822,0.00984,-0.15575
05/05/2019 10:41:10 am,20.000,0.16805,-0.00909,-0.15748
05/05/2019 10:41:10 am,20.100,0.16634,-0.02606,-0.09793
05/05/2019 10:41:10 am,20.200,0.16256,-0.03214,-0.00188
05/05/2019 10:41:10 am,20.300,0.15807,-0.02587,0.09386
05/05/2019 10:41:10 am,20.400,0.15704,-0.01041,0.15239
05/05/2019 10:41:10 am,20.500,0.15634,0.00852,0.15744
05/05/2019 10:41:10 am,20.600,0.15805,0.02490,0.10316
05/05/2019 10:41:10 am,20.700,0.16218,0.03328,0.00763
05/05/2019 10:41:10 am,20.800,0.16614,0.02673,-0.09142
05/05/2019 10:41:10 am,20.900,0.16822,0.01127,-0.15668
05/05/2019 10:41:11 am,21.000,0.16805,-0.00794,-0.16178
05/05/2019 10:41:11 am,21.100,0.16703,-0.02605,-0.10226
05/05/2019 10:41:11 am,21.200,0.16256,-0.03301,4.92399E-4
05/05/2019 10:41:11 am,21.300,0.15807,-0.02502,0.09864
05/05/2019 10:41:11 am,21.400,0.15721,-0.00868,0.15575
05/05/2019 10:41:11 am,21.500,0.15738,0.00880,0.15794
05/05/2019 10:41:11 am,21.600,0.15805,0.02662,0.09987
05/05/2019 10:41:11 am,21.700,0.16251,0.03444,-0.00667
05/05/2019 10:41:11 am,21.800,0.16804,0.02561,-0.11251
05/05/2019 10:41:11 am,21.900,0.16804,0.00582,-0.16299
05/05/2019 10:41:12 am,22.000,0.16788,-0.01226,-0.14747
05/05/2019 10:41:12 am,22.100,0.16617,-0.02549,-0.08213
05/05/2019 10:41:12 am,22.200,0.16256,-0.03157,0.00769
05/05/2019 10:41:12 am,22.300,0.15807,-0.02415,0.09912
05/05/2019 10:41:12 am,22.400,0.15704,-0.00898,0.15578
05/05/2019 10:41:12 am,22.500,0.15720,0.01140,0.15175
05/05/2019 10:41:12 am,22.600,0.15804,0.02635,0.08789
05/05/2019 10:41:12 am,22.700,0.16391,0.03157,-0.01153
05/05/2019 10:41:12 am,22.800,0.16614,0.02358,-0.09913
05/05/2019 10:41:12 am,22.900,0.16804,0.00724,-0.14956
05/05/2019 10:41:13 am,23.000,0.16805,-0.00881,-0.14456
05/05/2019 10:41:13 am,23.100,0.16634,-0.02578,-0.08738
05/05/2019 10:41:13 am,23.200,0.16256,-0.03013,5.47311E-4
05/05/2019 10:41:13 am,23.300,0.15807,-0.02386,0.08719
05/05/2019 10:41:13 am,23.400,0.15825,-0.01040,0.13994
05/05/2019 10:41:13 am,23.500,0.15634,0.00680,0.15119
05/05/2019 10:41:13 am,23.600,0.15805,0.02317,0.10508
05/05/2019 10:41:13 am,23.700,0.16235,0.03329,0.00909
05/05/2019 10:41:13 am,23.800,0.16614,0.02617,-0.09477
05/05/2019 10:41:13 am,23.900,0.16822,0.00926,-0.15818
05/05/2019 10:41:14 am,24.000,0.16788,-0.00967,-0.15034
05/05/2019 10:41:14 am,24.100,0.16617,-0.02579,-0.08358
05/05/2019 10:41:14 am,24.200,0.16239,-0.02899,0.00871
05/05/2019 10:41:14 am,24.300,0.15824,-0.02156,0.08677
05/05/2019 10:41:14 am,24.400,0.15842,-0.00867,0.12849
05/05/2019 10:41:14 am,24.500,0.15720,0.00595,0.14927
05/05/2019 10:41:14 am,24.600,0.15822,0.02059,
05/05/2019 10:41:14 am,24.700,0.16201,0.03874,
05/05/2019 10:41:14 am,24.800,0.16597,,
