Run #1,Run #1,Run #1,Run #1,Run #1
Date and Time,Time (s),Position (m),Velocity (m/s),Acceleration (m/s²)
04/14/2019 11:37:37 am,0.000,0.2487397,,
04/14/2019 11:37:37 am,0.025,0.2538872,0.10,
04/14/2019 11:37:37 am,0.050,0.2535030,-0.09,-6.95
04/14/2019 11:37:37 am,0.075,0.2486067,-0.25,-4.36
04/14/2019 11:37:37 am,0.100,0.2404246,-0.34,-1.02
04/14/2019 11:37:37 am,0.125,0.2291061,-0.31,2.68
04/14/2019 11:37:37 am,0.150,0.2224627,-0.18,5.37
04/14/2019 11:37:37 am,0.175,0.2197501,0.00,6.17
04/14/2019 11:37:37 am,0.200,0.2222227,0.16,4.99
04/14/2019 11:37:37 am,0.225,0.2288797,0.27,2.37
04/14/2019 11:37:37 am,0.250,0.2373184,0.29,-0.87
04/14/2019 11:37:37 am,0.275,0.2451445,0.22,-3.80
04/14/2019 11:37:37 am,0.300,0.2497540,0.08,-5.51
04/14/2019 11:37:37 am,0.325,0.2495397,-0.09,-5.44
04/14/2019 11:37:37 am,0.350,0.2448092,-0.23,-3.62
04/14/2019 11:37:37 am,0.375,0.2368994,-0.29,-0.64
04/14/2019 11:37:37 am,0.400,0.2285806,-0.26,2.51
04/14/2019 11:37:37 am,0.425,0.2222729,-0.15,4.83
04/14/2019 11:37:37 am,0.450,0.2202615,0.01,5.59
04/14/2019 11:37:37 am,0.475,0.2229146,0.16,4.56
04/14/2019 11:37:37 am,0.500,0.2293998,0.26,2.09
04/14/2019 11:37:37 am,0.525,0.2376716,0.28,-1.02
04/14/2019 11:37:37 am,0.550,0.2451592,0.21,-3.79
04/14/2019 11:37:37 am,0.575,0.2492430,0.07,-5.33
04/14/2019 11:37:37 am,0.600,0.2488514,-0.09,-5.17
04/14/2019 11:37:37 am,0.625,0.2441108,-0.22,-3.36
04/14/2019 11:37:37 am,0.650,0.2365504,-0.28,-0.49
04/14/2019 11:37:37 am,0.675,0.2283947,-0.25,2.51
04/14/2019 11:37:37 am,0.700,0.2226125,-0.14,4.69
04/14/2019 11:37:37 am,0.725,0.2207774,0.01,5.34
04/14/2019 11:37:37 am,0.750,0.2234347,0.16,4.30
04/14/2019 11:37:37 am,0.775,0.2297526,0.25,1.91
04/14/2019 11:37:37 am,0.800,0.2376859,0.27,-1.05
04/14/2019 11:37:37 am,0.825,0.2446484,0.20,-3.67
04/14/2019 11:37:37 am,0.850,0.2485549,0.06,-5.10
04/14/2019 11:37:37 am,0.875,0.2481630,-0.09,-4.91
04/14/2019 11:37:37 am,0.900,0.2434125,-0.21,-3.16
04/14/2019 11:37:37 am,0.925,0.2361918,-0.27,-0.41
04/14/2019 11:37:37 am,0.950,0.2285623,-0.24,2.45
04/14/2019 11:37:37 am,0.975,0.2229521,-0.13,4.51
04/14/2019 11:37:38 am,1.000,0.2212932,0.02,5.13
04/14/2019 11:37:38 am,1.025,0.2239548,0.16,4.12
04/14/2019 11:37:38 am,1.050,0.2301055,0.25,1.83
04/14/2019 11:37:38 am,1.075,0.2376906,0.26,-1.03
04/14/2019 11:37:38 am,1.100,0.2444764,0.19,-3.57
04/14/2019 11:37:38 am,1.125,0.2483879,0.06,-4.97
04/14/2019 11:37:38 am,1.150,0.2478138,-0.09,-4.78
04/14/2019 11:37:38 am,1.175,0.2432355,-0.21,-3.06
04/14/2019 11:37:38 am,1.200,0.2361871,-0.26,-0.36
04/14/2019 11:37:38 am,1.225,0.2287298,-0.23,2.46
04/14/2019 11:37:38 am,1.250,0.2232917,-0.12,4.48
04/14/2019 11:37:38 am,1.275,0.2218046,0.02,5.03
04/14/2019 11:37:38 am,1.300,0.2246423,0.16,3.94
04/14/2019 11:37:38 am,1.325,0.2307975,0.24,1.62
04/14/2019 11:37:38 am,1.350,0.2382157,0.25,-1.18
04/14/2019 11:37:38 am,1.375,0.2446630,0.18,-3.59
04/14/2019 11:37:38 am,1.400,0.2480438,0.05,-4.89
04/14/2019 11:37:38 am,1.425,0.2474746,-0.10,-4.64
04/14/2019 11:37:38 am,1.450,0.2427239,-0.21,-2.86
04/14/2019 11:37:38 am,1.475,0.2354938,-0.26,-0.13
04/14/2019 11:37:38 am,1.500,0.2281998,-0.22,2.62
04/14/2019 11:37:38 am,1.525,0.2232828,-0.11,4.47
04/14/2019 11:37:38 am,1.550,0.2221440,0.03,4.86
04/14/2019 11:37:38 am,1.575,0.2251624,0.16,3.71
04/14/2019 11:37:38 am,1.600,0.2311412,0.24,1.41
04/14/2019 11:37:38 am,1.625,0.2385690,0.24,-1.33
04/14/2019 11:37:38 am,1.650,0.2446728,0.17,-3.63
04/14/2019 11:37:38 am,1.675,0.2477097,0.04,-4.77
04/14/2019 11:37:38 am,1.700,0.2467862,-0.10,-4.39
04/14/2019 11:37:38 am,1.725,0.2420256,-0.21,-2.60
04/14/2019 11:37:38 am,1.750,0.2351401,-0.25,0.01
04/14/2019 11:37:38 am,1.775,0.2281952,-0.21,2.62
04/14/2019 11:37:38 am,1.800,0.2234459,-0.10,4.37
04/14/2019 11:37:38 am,1.825,0.2226598,0.04,4.68
04/14/2019 11:37:38 am,1.850,0.2256780,0.16,3.49
04/14/2019 11:37:38 am,1.875,0.2316660,0.23,1.20
04/14/2019 11:37:38 am,1.900,0.2387504,0.23,-1.46
04/14/2019 11:37:38 am,1.925,0.2445106,0.15,-3.65
04/14/2019 11:37:38 am,1.950,0.2472036,0.02,-4.66
04/14/2019 11:37:38 am,1.975,0.2459306,-0.11,-4.15
04/14/2019 11:37:39 am,2.000,0.2409880,-0.21,-2.30
04/14/2019 11:37:39 am,2.025,0.2342700,-0.24,0.27
04/14/2019 11:37:39 am,2.050,0.2276653,-0.19,2.74
04/14/2019 11:37:39 am,2.075,0.2234369,-0.08,4.29
04/14/2019 11:37:39 am,2.100,0.2229993,0.05,4.44
04/14/2019 11:37:39 am,2.125,0.2261937,0.16,3.18
04/14/2019 11:37:39 am,2.150,0.2321955,0.22,0.94
04/14/2019 11:37:39 am,2.175,0.2387600,0.22,-1.56
04/14/2019 11:37:39 am,2.200,0.2441765,0.14,-3.54
04/14/2019 11:37:39 am,2.225,0.2465204,0.02,-4.38
04/14/2019 11:37:39 am,2.250,0.2450603,-0.11,-3.83
04/14/2019 11:37:39 am,2.275,0.2404619,-0.20,-2.08
04/14/2019 11:37:39 am,2.300,0.2340839,-0.22,0.31
04/14/2019 11:37:39 am,2.325,0.2280003,-0.18,2.58
04/14/2019 11:37:39 am,2.350,0.2241294,-0.08,4.05
04/14/2019 11:37:39 am,2.375,0.2235151,0.05,4.26
04/14/2019 11:37:39 am,2.400,0.2267184,0.16,3.10
04/14/2019 11:37:39 am,2.425,0.2323628,0.22,0.91
04/14/2019 11:37:39 am,2.450,0.2391085,0.21,-1.60
04/14/2019 11:37:39 am,2.475,0.2443582,0.13,-3.56
04/14/2019 11:37:39 am,2.500,0.2463533,0.01,-4.31
04/14/2019 11:37:39 am,2.525,0.2447161,-0.11,-3.67
04/14/2019 11:37:39 am,2.550,0.2401129,-0.19,-1.90
04/14/2019 11:37:39 am,2.575,0.2339071,-0.22,0.45
04/14/2019 11:37:39 am,2.600,0.2279958,-0.17,2.65
04/14/2019 11:37:39 am,2.625,0.2242880,-0.07,4.00
04/14/2019 11:37:39 am,2.650,0.2242028,0.05,4.05
04/14/2019 11:37:39 am,2.675,0.2274059,0.16,2.82
04/14/2019 11:37:39 am,2.700,0.2330689,0.21,0.73
04/14/2019 11:37:39 am,2.725,0.2391181,0.20,-1.57
04/14/2019 11:37:39 am,2.750,0.2440094,0.12,-3.39
04/14/2019 11:37:39 am,2.775,0.2461812,0.01,-4.15
04/14/2019 11:37:39 am,2.800,0.2445441,-0.11,-3.59
04/14/2019 11:37:39 am,2.825,0.2399360,-0.19,-1.87
04/14/2019 11:37:39 am,2.850,0.2339071,-0.21,0.45
04/14/2019 11:37:39 am,2.875,0.2279912,-0.17,2.63
04/14/2019 11:37:39 am,2.900,0.2244600,-0.07,3.94
04/14/2019 11:37:39 am,2.925,0.2243747,0.05,3.97
04/14/2019 11:37:39 am,2.950,0.2275823,0.16,2.73
04/14/2019 11:37:39 am,2.975,0.2330689,0.21,0.64
04/14/2019 11:37:40 am,3.000,0.2391229,0.19,-1.64
04/14/2019 11:37:40 am,3.025,0.2438521,0.11,-3.38
04/14/2019 11:37:40 am,3.050,0.2454931,0.00,-4.02
04/14/2019 11:37:40 am,3.075,0.2438508,-0.11,-3.37
04/14/2019 11:37:40 am,3.100,0.2394196,-0.19,-1.66
04/14/2019 11:37:40 am,3.125,0.2333767,-0.20,0.57
04/14/2019 11:37:40 am,3.150,0.2279821,-0.15,2.59
04/14/2019 11:37:40 am,3.175,0.2247995,-0.06,3.76
04/14/2019 11:37:40 am,3.200,0.2248950,0.06,3.72
04/14/2019 11:37:40 am,3.225,0.2279307,0.15,2.52
04/14/2019 11:37:40 am,3.250,0.2332501,0.20,0.54
04/14/2019 11:37:40 am,3.275,0.2389605,0.18,-1.61
04/14/2019 11:37:40 am,3.300,0.2433362,0.11,-3.25
04/14/2019 11:37:40 am,3.325,0.2449819,0.00,-3.83
04/14/2019 11:37:40 am,3.350,0.2431576,-0.11,-3.17
04/14/2019 11:37:40 am,3.375,0.2388937,-0.18,-1.51
04/14/2019 11:37:40 am,3.400,0.2331953,-0.19,0.60
04/14/2019 11:37:40 am,3.425,0.2281496,-0.14,2.49
04/14/2019 11:37:40 am,3.450,0.2251435,-0.05,3.57
04/14/2019 11:37:40 am,3.475,0.2252389,0.05,3.54
04/14/2019 11:37:40 am,3.500,0.2282836,0.14,2.41
04/14/2019 11:37:40 am,3.525,0.2332547,0.19,0.53
04/14/2019 11:37:40 am,3.550,0.2387886,0.18,-1.55
04/14/2019 11:37:40 am,3.575,0.2431691,0.10,-3.15
04/14/2019 11:37:40 am,3.600,0.2446329,0.00,-3.73
04/14/2019 11:37:40 am,3.625,0.2429855,-0.11,-3.08
04/14/2019 11:37:40 am,3.650,0.2387168,-0.17,-1.46
04/14/2019 11:37:40 am,3.675,0.2331906,-0.19,0.59
04/14/2019 11:37:40 am,3.700,0.2283171,-0.14,2.39
04/14/2019 11:37:40 am,3.725,0.2254920,-0.05,3.43
04/14/2019 11:37:40 am,3.750,0.2254154,0.05,3.41
04/14/2019 11:37:40 am,3.775,0.2282882,0.14,2.33
04/14/2019 11:37:40 am,3.800,0.2330875,0.18,0.52
04/14/2019 11:37:40 am,3.825,0.2384543,0.17,-1.46
04/14/2019 11:37:40 am,3.850,0.2424812,0.10,-2.95
04/14/2019 11:37:40 am,3.875,0.2439399,0.00,-3.49
04/14/2019 11:37:40 am,3.900,0.2424547,-0.10,-2.94
04/14/2019 11:37:40 am,3.925,0.2387120,-0.16,-1.46
04/14/2019 11:37:40 am,3.950,0.2333580,-0.18,0.49
04/14/2019 11:37:40 am,3.975,0.2286612,-0.14,2.30
04/14/2019 11:37:41 am,4.000,0.2258315,-0.05,3.36
04/14/2019 11:37:41 am,4.025,0.2259312,0.05,3.34
04/14/2019 11:37:41 am,4.050,0.2288039,0.14,2.26
04/14/2019 11:37:41 am,4.075,0.2336078,0.18,0.57
04/14/2019 11:37:41 am,4.100,0.2387982,0.16,-1.16
04/14/2019 11:37:41 am,4.125,0.2428251,0.11,-2.53
04/14/2019 11:37:41 am,4.150,0.2442205,0.03,-3.37
04/14/2019 11:37:41 am,4.175,0.2450407,-0.07,-3.41
04/14/2019 11:37:41 am,4.200,0.2411167,-0.16,-2.23
04/14/2019 11:37:41 am,4.225,0.2360055,-0.21,0.03
04/14/2019 11:37:41 am,4.250,0.2288241,-0.16,2.42
04/14/2019 11:37:41 am,4.275,0.2263520,-0.06,3.74
04/14/2019 11:37:41 am,4.300,0.2262705,0.06,3.55
04/14/2019 11:37:41 am,4.325,0.2293196,0.14,2.18
04/14/2019 11:37:41 am,4.350,0.2341329,0.17,0.24
04/14/2019 11:37:41 am,4.375,0.2389892,0.15,-1.61
04/14/2019 11:37:41 am,4.400,0.2423189,0.08,-2.88
04/14/2019 11:37:41 am,4.425,0.2434336,-0.01,-3.21
04/14/2019 11:37:41 am,4.450,0.2415943,-0.10,-2.55
04/14/2019 11:37:41 am,4.475,0.2378372,-0.15,-1.10
04/14/2019 11:37:41 am,4.500,0.2329998,-0.16,0.71
04/14/2019 11:37:41 am,4.525,0.2288195,-0.12,2.30
04/14/2019 11:37:41 am,4.550,0.2265104,-0.03,3.14
04/14/2019 11:37:41 am,4.575,0.2269583,0.06,2.96
04/14/2019 11:37:41 am,4.600,0.2300164,0.13,1.82
04/14/2019 11:37:41 am,4.625,0.2344861,0.16,0.12
04/14/2019 11:37:41 am,4.650,0.2389892,0.14,-1.61
04/14/2019 11:37:41 am,4.675,0.2423286,0.07,-2.82
04/14/2019 11:37:41 am,4.700,0.2430895,-0.02,-3.12
04/14/2019 11:37:41 am,4.725,0.2412550,-0.10,-2.39
04/14/2019 11:37:41 am,4.750,0.2373162,-0.15,-0.88
04/14/2019 11:37:41 am,4.775,0.2326464,-0.15,0.87
04/14/2019 11:37:41 am,4.800,0.2288058,-0.10,2.28
04/14/2019 11:37:41 am,4.825,0.2270218,-0.02,2.94
04/14/2019 11:37:41 am,4.850,0.2276552,0.06,2.70
04/14/2019 11:37:41 am,4.875,0.2303648,0.13,1.64
04/14/2019 11:37:41 am,4.900,0.2346627,0.15,0.07
04/14/2019 11:37:41 am,4.925,0.2389987,0.13,-1.54
04/14/2019 11:37:41 am,4.950,0.2419846,0.07,-2.65
04/14/2019 11:37:41 am,4.975,0.2427454,-0.02,-2.88
04/14/2019 11:37:42 am,5.000,0.2409012,-0.10,-2.16
04/14/2019 11:37:42 am,5.025,0.2373019,-0.14,-0.79
04/14/2019 11:37:42 am,5.050,0.2331533,-0.14,0.77
04/14/2019 11:37:42 am,5.075,0.2296659,-0.09,2.04
04/14/2019 11:37:42 am,5.100,0.2278863,-0.02,2.67
04/14/2019 11:37:42 am,5.125,0.2283475,0.05,2.47
04/14/2019 11:37:42 am,5.150,0.2308944,0.11,1.52
04/14/2019 11:37:42 am,5.175,0.2346721,0.14,0.10
04/14/2019 11:37:42 am,5.200,0.2386644,0.12,-1.37
04/14/2019 11:37:42 am,5.225,0.2412919,0.06,-2.43
04/14/2019 11:37:42 am,5.250,0.2422244,-0.02,-2.72
04/14/2019 11:37:42 am,5.275,0.2405570,-0.09,-2.09
04/14/2019 11:37:42 am,5.300,0.2369530,-0.13,-0.76
04/14/2019 11:37:42 am,5.325,0.2329765,-0.13,0.78
04/14/2019 11:37:42 am,5.350,0.2296613,-0.09,2.03
04/14/2019 11:37:42 am,5.375,0.2280583,-0.02,2.62
04/14/2019 11:37:42 am,5.400,0.2285149,0.06,2.40
04/14/2019 11:37:42 am,5.425,0.2312383,0.12,1.43
04/14/2019 11:37:42 am,5.450,0.2350206,0.14,0.10
04/14/2019 11:37:42 am,5.475,0.2388363,0.11,-1.11
04/14/2019 11:37:42 am,5.500,0.2414735,0.07,-1.96
04/14/2019 11:37:42 am,5.525,0.2419846,0.01,-2.47
04/14/2019 11:37:42 am,5.550,0.2427843,-0.06,-2.50
04/14/2019 11:37:42 am,5.575,0.2395342,-0.13,-1.59
04/14/2019 11:37:42 am,5.600,0.2356188,-0.16,0.18
04/14/2019 11:37:42 am,5.625,0.2300100,-0.12,2.06
04/14/2019 11:37:42 am,5.650,0.2282257,-0.04,2.99
04/14/2019 11:37:42 am,5.675,0.2288633,0.06,2.65
04/14/2019 11:37:42 am,5.700,0.2314102,0.11,1.43
04/14/2019 11:37:42 am,5.725,0.2352019,0.13,-0.08
04/14/2019 11:37:42 am,5.750,0.2386739,0.11,-1.41
04/14/2019 11:37:42 am,5.775,0.2409575,0.05,-2.26
04/14/2019 11:37:42 am,5.800,0.2415363,-0.02,-2.40
04/14/2019 11:37:42 am,5.825,0.2398543,-0.08,-1.79
04/14/2019 11:37:42 am,5.850,0.2367714,-0.12,-0.61
04/14/2019 11:37:42 am,5.875,0.2331393,-0.12,0.77
04/14/2019 11:37:42 am,5.900,0.2301728,-0.08,1.89
04/14/2019 11:37:42 am,5.925,0.2287371,-0.01,2.39
04/14/2019 11:37:42 am,5.950,0.2295557,0.06,2.10
04/14/2019 11:37:42 am,5.975,0.2319306,0.11,1.11
04/14/2019 11:37:43 am,6.000,0.2355552,0.12,-0.21
04/14/2019 11:37:43 am,6.025,0.2386835,0.09,-1.42
04/14/2019 11:37:43 am,6.050,0.2406232,0.04,-2.15
04/14/2019 11:37:43 am,6.075,0.2408482,-0.03,-2.20
04/14/2019 11:37:43 am,6.100,0.2391661,-0.08,-1.55
04/14/2019 11:37:43 am,6.125,0.2360737,-0.11,-0.41
04/14/2019 11:37:43 am,6.150,0.2327858,-0.11,0.85
04/14/2019 11:37:43 am,6.175,0.2301636,-0.07,1.83
04/14/2019 11:37:43 am,6.200,0.2290811,0.00,2.22
04/14/2019 11:37:43 am,6.225,0.2298950,0.06,1.89
04/14/2019 11:37:43 am,6.250,0.2324603,0.10,0.96
04/14/2019 11:37:43 am,6.275,0.2355552,0.11,-0.26
04/14/2019 11:37:43 am,6.300,0.2386883,0.09,-1.37
04/14/2019 11:37:43 am,6.325,0.2404560,0.03,-2.03
04/14/2019 11:37:43 am,6.350,0.2404993,-0.03,-2.05
04/14/2019 11:37:43 am,6.375,0.2389893,-0.08,-1.42
04/14/2019 11:37:43 am,6.400,0.2360690,-0.11,-0.33
04/14/2019 11:37:43 am,6.425,0.2329532,-0.10,0.86
04/14/2019 11:37:43 am,6.450,0.2304984,-0.06,1.74
04/14/2019 11:37:43 am,6.475,0.2297690,-3.39E-4,2.02
04/14/2019 11:37:43 am,6.500,0.2305920,0.06,1.67
04/14/2019 11:37:43 am,6.525,0.2328088,0.09,0.82
04/14/2019 11:37:43 am,6.550,0.2357413,0.10,-0.27
04/14/2019 11:37:43 am,6.575,0.2383443,0.08,-1.28
04/14/2019 11:37:43 am,6.600,0.2401168,0.03,-1.89
04/14/2019 11:37:43 am,6.625,0.2399832,-0.03,-1.90
04/14/2019 11:37:43 am,6.650,0.2384683,-0.08,-1.30
04/14/2019 11:37:43 am,6.675,0.2357201,-0.10,-0.27
04/14/2019 11:37:43 am,6.700,0.2327765,-0.09,0.83
04/14/2019 11:37:43 am,6.725,0.2304984,-0.05,1.64
04/14/2019 11:37:43 am,6.750,0.2297690,-2.76E-4,1.93
04/14/2019 11:37:43 am,6.775,0.2305967,0.05,1.61
04/14/2019 11:37:43 am,6.800,0.2326369,0.09,0.82
04/14/2019 11:37:43 am,6.825,0.2355693,0.10,-0.20
04/14/2019 11:37:43 am,6.850,0.2381771,0.08,-1.18
04/14/2019 11:37:43 am,6.875,0.2397584,0.03,-1.81
04/14/2019 11:37:43 am,6.900,0.2401552,-0.02,-1.90
04/14/2019 11:37:43 am,6.925,0.2386404,-0.07,-1.36
04/14/2019 11:37:43 am,6.950,0.2358875,-0.10,-0.35
04/14/2019 11:37:43 am,6.975,0.2331253,-0.09,0.78
04/14/2019 11:37:44 am,7.000,0.2306705,-0.06,1.64
04/14/2019 11:37:44 am,7.025,0.2299410,-3.09E-4,1.94
04/14/2019 11:37:44 am,7.050,0.2307640,0.05,1.61
04/14/2019 11:37:44 am,7.075,0.2329854,0.09,0.76
04/14/2019 11:37:44 am,7.100,0.2357413,0.10,-0.33
04/14/2019 11:37:44 am,7.125,0.2383539,0.07,-1.28
04/14/2019 11:37:44 am,7.150,0.2397728,0.02,-1.79
04/14/2019 11:37:44 am,7.175,0.2396439,-0.03,-1.73
04/14/2019 11:37:44 am,7.200,0.2379379,-0.07,-1.15
04/14/2019 11:37:44 am,7.225,0.2357154,-0.09,-0.23
04/14/2019 11:37:44 am,7.250,0.2329486,-0.09,0.78
04/14/2019 11:37:44 am,7.275,0.2306658,-0.05,1.58
04/14/2019 11:37:44 am,7.300,0.2301130,0.00,1.87
04/14/2019 11:37:44 am,7.325,0.2309360,0.06,1.52
04/14/2019 11:37:44 am,7.350,0.2331574,0.09,0.66
04/14/2019 11:37:44 am,7.375,0.2359179,0.09,-0.40
04/14/2019 11:37:44 am,7.400,0.2383586,0.07,-1.30
04/14/2019 11:37:44 am,7.425,0.2396056,0.02,-1.77
04/14/2019 11:37:44 am,7.450,0.2392951,-0.03,-1.66
04/14/2019 11:37:44 am,7.475,0.2377753,-0.07,-1.04
04/14/2019 11:37:44 am,7.500,0.2351946,-0.09,-0.09
04/14/2019 11:37:44 am,7.525,0.2325905,-0.08,0.88
04/14/2019 11:37:44 am,7.550,0.2308379,-0.04,1.55
04/14/2019 11:37:44 am,7.575,0.2302804,0.01,1.72
04/14/2019 11:37:44 am,7.600,0.2312845,0.05,1.36
04/14/2019 11:37:44 am,7.625,0.2333340,0.08,0.58
04/14/2019 11:37:44 am,7.650,0.2359227,0.09,-0.40
04/14/2019 11:37:44 am,7.675,0.2381867,0.06,-1.26
04/14/2019 11:37:44 am,7.700,0.2394336,0.02,-1.71
04/14/2019 11:37:44 am,7.725,0.2391278,-0.03,-1.59
04/14/2019 11:37:44 am,7.750,0.2374265,-0.07,-0.96
04/14/2019 11:37:44 am,7.775,0.2350178,-0.09,-0.04
04/14/2019 11:37:44 am,7.800,0.2325905,-0.07,0.86
04/14/2019 11:37:44 am,7.825,0.2308332,-0.04,1.49
04/14/2019 11:37:44 am,7.850,0.2304570,0.01,1.66
04/14/2019 11:37:44 am,7.875,0.2312845,0.05,1.33
04/14/2019 11:37:44 am,7.900,0.2333340,0.08,0.56
04/14/2019 11:37:44 am,7.925,0.2359227,0.09,-0.41
04/14/2019 11:37:44 am,7.950,0.2381914,0.06,-1.26
04/14/2019 11:37:44 am,7.975,0.2392616,0.01,-1.67
04/14/2019 11:37:45 am,8.000,0.2389558,-0.03,-1.53
04/14/2019 11:37:45 am,8.025,0.2372497,-0.07,-0.92
04/14/2019 11:37:45 am,8.050,0.2350178,-0.09,-0.03
04/14/2019 11:37:45 am,8.075,0.2325905,-0.07,0.88
04/14/2019 11:37:45 am,8.100,0.2308332,-0.04,1.52
04/14/2019 11:37:45 am,8.125,0.2304477,0.01,1.65
04/14/2019 11:37:45 am,8.150,0.2316284,0.06,1.22
04/14/2019 11:37:45 am,8.175,0.2336826,0.08,0.41
04/14/2019 11:37:45 am,8.200,0.2361041,0.08,-0.49
04/14/2019 11:37:45 am,8.225,0.2380194,0.05,-1.23
04/14/2019 11:37:45 am,8.250,0.2390943,0.01,-1.59
04/14/2019 11:37:45 am,8.275,0.2386069,-0.04,-1.44
04/14/2019 11:37:45 am,8.300,0.2370824,-0.07,-0.82
04/14/2019 11:37:45 am,8.325,0.2346690,-0.08,0.07
04/14/2019 11:37:45 am,8.350,0.2324092,-0.07,0.92
04/14/2019 11:37:45 am,8.375,0.2310006,-0.03,1.46
04/14/2019 11:37:45 am,8.400,0.2307963,0.01,1.54
04/14/2019 11:37:45 am,8.425,0.2318004,0.06,1.14
04/14/2019 11:37:45 am,8.450,0.2338545,0.08,0.37
04/14/2019 11:37:45 am,8.475,0.2362760,0.08,-0.52
04/14/2019 11:37:45 am,8.500,0.2382009,0.05,-1.22
04/14/2019 11:37:45 am,8.525,0.2389176,0.01,-1.53
04/14/2019 11:37:45 am,8.550,0.2386069,-0.04,-1.37
04/14/2019 11:37:45 am,8.575,0.2370824,-0.07,-0.77
04/14/2019 11:37:45 am,8.600,0.2346643,-0.08,0.08
04/14/2019 11:37:45 am,8.625,0.2325812,-0.06,0.90
04/14/2019 11:37:45 am,8.650,0.2311726,-0.03,1.42
04/14/2019 11:37:45 am,8.675,0.2309683,0.01,1.49
04/14/2019 11:37:45 am,8.700,0.2319723,0.05,1.08
04/14/2019 11:37:45 am,8.725,0.2340312,0.08,0.34
04/14/2019 11:37:45 am,8.750,0.2362807,0.07,-0.51
04/14/2019 11:37:45 am,8.775,0.2380242,0.05,-1.18
04/14/2019 11:37:45 am,8.800,0.2389223,0.01,-1.49
04/14/2019 11:37:45 am,8.825,0.2384349,-0.04,-1.32
04/14/2019 11:37:45 am,8.850,0.2369056,-0.07,-0.72
04/14/2019 11:37:45 am,8.875,0.2346643,-0.08,0.11
04/14/2019 11:37:45 am,8.900,0.2325766,-0.06,0.88
04/14/2019 11:37:45 am,8.925,0.2313446,-0.03,1.35
04/14/2019 11:37:45 am,8.950,0.2311403,0.02,1.39
04/14/2019 11:37:45 am,8.975,0.2321489,0.05,1.01
04/14/2019 11:37:46 am,9.000,0.2340358,0.07,0.33
04/14/2019 11:37:46 am,9.025,0.2361088,0.07,-0.46
04/14/2019 11:37:46 am,9.050,0.2378522,0.05,-1.10
04/14/2019 11:37:46 am,9.075,0.2387503,0.01,-1.40
04/14/2019 11:37:46 am,9.100,0.2382581,-0.03,-1.26
04/14/2019 11:37:46 am,9.125,0.2369009,-0.06,-0.72
04/14/2019 11:37:46 am,9.150,0.2348364,-0.07,0.07
04/14/2019 11:37:46 am,9.175,0.2327486,-0.06,0.84
04/14/2019 11:37:46 am,9.200,0.2315166,-0.03,1.34
04/14/2019 11:37:46 am,9.225,0.2313076,0.02,1.39
04/14/2019 11:37:46 am,9.250,0.2324975,0.05,0.98
04/14/2019 11:37:46 am,9.275,0.2342031,0.07,0.27
04/14/2019 11:37:46 am,9.300,0.2364574,0.07,-0.52
04/14/2019 11:37:46 am,9.325,0.2380290,0.04,-1.14
04/14/2019 11:37:46 am,9.350,0.2387503,0.00,-1.40
04/14/2019 11:37:46 am,9.375,0.2382629,-0.04,-1.20
04/14/2019 11:37:46 am,9.400,0.2367288,-0.06,-0.61
04/14/2019 11:37:46 am,9.425,0.2346596,-0.07,0.17
04/14/2019 11:37:46 am,9.450,0.2327439,-0.05,0.88
04/14/2019 11:37:46 am,9.475,0.2316840,-0.02,1.27
04/14/2019 11:37:46 am,9.500,0.2316562,0.02,1.26
04/14/2019 11:37:46 am,9.525,0.2326695,0.05,0.87
04/14/2019 11:37:46 am,9.550,0.2343844,0.07,0.24
04/14/2019 11:37:46 am,9.575,0.2362855,0.06,-0.47
04/14/2019 11:37:46 am,9.600,0.2378570,0.04,-1.04
04/14/2019 11:37:46 am,9.625,0.2385783,0.00,-1.30
04/14/2019 11:37:46 am,9.650,0.2380861,-0.03,-1.14
04/14/2019 11:37:46 am,9.675,0.2367241,-0.06,-0.61
04/14/2019 11:37:46 am,9.700,0.2348317,-0.07,0.13
04/14/2019 11:37:46 am,9.725,0.2329159,-0.05,0.82
04/14/2019 11:37:46 am,9.750,0.2318560,-0.02,1.23
04/14/2019 11:37:46 am,9.775,0.2318282,0.02,1.22
04/14/2019 11:37:46 am,9.800,0.2328414,0.05,0.81
04/14/2019 11:37:46 am,9.825,0.2345611,0.06,0.18
04/14/2019 11:37:46 am,9.850,0.2362902,0.06,-0.48
04/14/2019 11:37:46 am,9.875,0.2376897,0.04,-0.98
04/14/2019 11:37:46 am,9.900,0.2382295,0.00,-1.20
04/14/2019 11:37:46 am,9.925,0.2379141,-0.03,-1.07
04/14/2019 11:37:46 am,9.950,0.2365520,-0.06,-0.58
04/14/2019 11:37:46 am,9.975,0.2346549,-0.06,0.13
04/14/2019 11:37:47 am,10.000,0.2329159,-0.05,0.79
04/14/2019 11:37:47 am,10.025,0.2318560,-0.02,1.19
04/14/2019 11:37:47 am,10.050,0.2318282,0.02,1.19
04/14/2019 11:37:47 am,10.075,0.2328461,0.05,0.81
04/14/2019 11:37:47 am,10.100,0.2343844,0.06,0.19
04/14/2019 11:37:47 am,10.125,0.2362902,0.06,-0.49
04/14/2019 11:37:47 am,10.150,0.2376945,0.03,-1.00
04/14/2019 11:37:47 am,10.175,0.2380575,8.84E-4,-1.17
04/14/2019 11:37:47 am,10.200,0.2377420,-0.03,-0.99
04/14/2019 11:37:47 am,10.225,0.2363753,-0.05,-0.50
04/14/2019 11:37:47 am,10.250,0.2346502,-0.06,0.15
04/14/2019 11:37:47 am,10.275,0.2330880,-0.05,0.76
04/14/2019 11:37:47 am,10.300,0.2320234,-0.02,1.13
04/14/2019 11:37:47 am,10.325,0.2321768,0.02,1.13
04/14/2019 11:37:47 am,10.350,0.2330134,0.05,0.75
04/14/2019 11:37:47 am,10.375,0.2347331,0.06,0.12
04/14/2019 11:37:47 am,10.400,0.2364669,0.05,-0.53
04/14/2019 11:37:47 am,10.425,0.2376945,0.03,-1.00
04/14/2019 11:37:47 am,10.450,0.2380623,0.00,-1.14
04/14/2019 11:37:47 am,10.475,0.2375700,-0.03,-0.92
04/14/2019 11:37:47 am,10.500,0.2362032,-0.05,-0.41
04/14/2019 11:37:47 am,10.525,0.2344735,-0.06,0.23
04/14/2019 11:37:47 am,10.550,0.2330833,-0.04,0.79
04/14/2019 11:37:47 am,10.575,0.2321954,-0.01,1.09
04/14/2019 11:37:47 am,10.600,0.2323441,0.02,1.03
04/14/2019 11:37:47 am,10.625,0.2333620,0.05,0.63
04/14/2019 11:37:47 am,10.650,0.2349097,0.06,0.05
04/14/2019 11:37:47 am,10.675,0.2364716,0.05,-0.52
04/14/2019 11:37:47 am,10.700,0.2375225,0.03,-0.93
04/14/2019 11:37:47 am,10.725,0.2378903,0.00,-1.05
04/14/2019 11:37:47 am,10.750,0.2373980,-0.03,-0.85
04/14/2019 11:37:47 am,10.775,0.2360265,-0.05,-0.36
04/14/2019 11:37:47 am,10.800,0.2344735,-0.05,0.25
04/14/2019 11:37:47 am,10.825,0.2330786,-0.04,0.77
04/14/2019 11:37:47 am,10.850,0.2323674,-0.01,1.02
04/14/2019 11:37:47 am,10.875,0.2325161,0.02,0.94
04/14/2019 11:37:47 am,10.900,0.2335386,0.04,0.56
04/14/2019 11:37:47 am,10.925,0.2349144,0.05,0.04
04/14/2019 11:37:47 am,10.950,0.2362996,0.04,-0.49
04/14/2019 11:37:47 am,10.975,0.2373505,0.02,-0.86
04/14/2019 11:37:48 am,11.000,0.2377230,0.00,-0.97
04/14/2019 11:37:48 am,11.025,0.2370444,-0.03,-0.77
04/14/2019 11:37:48 am,11.050,0.2360265,-0.05,-0.33
04/14/2019 11:37:48 am,11.075,0.2344688,-0.05,0.22
04/14/2019 11:37:48 am,11.100,0.2332507,-0.04,0.69
04/14/2019 11:37:48 am,11.125,0.2325393,-0.01,0.94
04/14/2019 11:37:48 am,11.150,0.2326927,0.02,0.90
04/14/2019 11:37:48 am,11.175,0.2335386,0.04,0.56
04/14/2019 11:37:48 am,11.200,0.2349144,0.05,0.05
04/14/2019 11:37:48 am,11.225,0.2362996,0.04,-0.48
04/14/2019 11:37:48 am,11.250,0.2373553,0.02,-0.85
04/14/2019 11:37:48 am,11.275,0.2375463,-0.01,-0.95
04/14/2019 11:37:48 am,11.300,0.2370492,-0.03,-0.73
04/14/2019 11:37:48 am,11.325,0.2358497,-0.05,-0.28
04/14/2019 11:37:48 am,11.350,0.2344688,-0.05,0.25
04/14/2019 11:37:48 am,11.375,0.2332460,-0.03,0.68
04/14/2019 11:37:48 am,11.400,0.2327113,-0.01,0.89
04/14/2019 11:37:48 am,11.425,0.2328647,0.02,0.82
04/14/2019 11:37:48 am,11.450,0.2337153,0.04,0.50
04/14/2019 11:37:48 am,11.475,0.2349144,0.05,0.03
04/14/2019 11:37:48 am,11.500,0.2363044,0.04,-0.46
04/14/2019 11:37:48 am,11.525,0.2371833,0.02,-0.81
04/14/2019 11:37:48 am,11.550,0.2373742,-0.01,-0.89
04/14/2019 11:37:48 am,11.575,0.2368772,-0.03,-0.67
04/14/2019 11:37:48 am,11.600,0.2356730,-0.04,-0.24
04/14/2019 11:37:48 am,11.625,0.2344688,-0.04,0.26
04/14/2019 11:37:48 am,11.650,0.2332413,-0.03,0.67
04/14/2019 11:37:48 am,11.675,0.2328833,-0.01,0.84
04/14/2019 11:37:48 am,11.700,0.2330367,0.02,0.73
04/14/2019 11:37:48 am,11.725,0.2338873,0.04,0.42
04/14/2019 11:37:48 am,11.750,0.2350958,0.04,-0.01
04/14/2019 11:37:48 am,11.775,0.2361324,0.03,-0.43
04/14/2019 11:37:48 am,11.800,0.2370113,0.02,-0.72
04/14/2019 11:37:48 am,11.825,0.2372022,-0.01,-0.80
04/14/2019 11:37:48 am,11.850,0.2367004,-0.03,-0.61
04/14/2019 11:37:48 am,11.875,0.2356730,-0.04,-0.22
04/14/2019 11:37:48 am,11.900,0.2344641,-0.04,0.25
04/14/2019 11:37:48 am,11.925,0.2334133,-0.03,0.62
04/14/2019 11:37:48 am,11.950,0.2330553,0.00,0.78
04/14/2019 11:37:48 am,11.975,0.2332087,0.02,0.67
04/14/2019 11:37:49 am,12.000,0.2340639,0.03,0.37
04/14/2019 11:37:49 am,12.025,0.2350958,0.04,-0.03
04/14/2019 11:37:49 am,12.050,0.2361371,0.03,-0.41
04/14/2019 11:37:49 am,12.075,0.2368393,0.02,-0.68
04/14/2019 11:37:49 am,12.100,0.2370302,-0.01,-0.74
04/14/2019 11:37:49 am,12.125,0.2365284,-0.03,-0.56
04/14/2019 11:37:49 am,12.150,0.2354963,-0.04,-0.19
04/14/2019 11:37:49 am,12.175,0.2344641,-0.04,0.25
04/14/2019 11:37:49 am,12.200,0.2334133,-0.02,0.60
04/14/2019 11:37:49 am,12.225,0.2330507,0.00,0.74
04/14/2019 11:37:49 am,12.250,0.2333853,0.02,0.63
04/14/2019 11:37:49 am,12.275,0.2340639,0.03,0.33
04/14/2019 11:37:49 am,12.300,0.2350958,0.04,-0.05
04/14/2019 11:37:49 am,12.325,0.2361418,0.03,-0.41
04/14/2019 11:37:49 am,12.350,0.2366673,0.01,-0.66
04/14/2019 11:37:49 am,12.375,0.2368582,-0.01,-0.69
04/14/2019 11:37:49 am,12.400,0.2363564,-0.03,-0.49
04/14/2019 11:37:49 am,12.425,0.2353242,-0.04,-0.12
04/14/2019 11:37:49 am,12.450,0.2342827,-0.03,0.28
04/14/2019 11:37:49 am,12.475,0.2335853,-0.02,0.56
04/14/2019 11:37:49 am,12.500,0.2332227,-4.68E-4,0.65
04/14/2019 11:37:49 am,12.525,0.2335573,0.02,0.55
04/14/2019 11:37:49 am,12.550,0.2342406,0.03,0.29
04/14/2019 11:37:49 am,12.575,0.2350958,0.03,-0.06
04/14/2019 11:37:49 am,12.600,0.2361418,0.03,-0.41
04/14/2019 11:37:49 am,12.625,0.2366720,0.01,-0.62
04/14/2019 11:37:49 am,12.650,0.2366862,-0.01,-0.62
04/14/2019 11:37:49 am,12.675,0.2361796,-0.02,-0.41
04/14/2019 11:37:49 am,12.700,0.2353195,-0.03,-0.08
04/14/2019 11:37:49 am,12.725,0.2344548,-0.03,0.25
04/14/2019 11:37:49 am,12.750,0.2337527,-0.02,0.49
04/14/2019 11:37:49 am,12.775,0.2335713,-4.37E-4,0.58
04/14/2019 11:37:49 am,12.800,0.2337293,0.02,0.50
04/14/2019 11:37:49 am,12.825,0.2344126,0.03,0.27
04/14/2019 11:37:49 am,12.850,0.2352725,0.03,-0.06
04/14/2019 11:37:49 am,12.875,0.2361418,0.02,-0.38
04/14/2019 11:37:49 am,12.900,0.2366720,0.01,-0.59
04/14/2019 11:37:49 am,12.925,0.2366862,-0.01,-0.59
04/14/2019 11:37:49 am,12.950,0.2361796,-0.02,-0.38
04/14/2019 11:37:49 am,12.975,0.2353195,-0.03,-0.05
04/14/2019 11:37:50 am,13.000,0.2344501,-0.03,0.27
04/14/2019 11:37:50 am,13.025,0.2339247,-0.01,0.47
04/14/2019 11:37:50 am,13.050,0.2337433,7.72E-4,0.52
04/14/2019 11:37:50 am,13.075,0.2339013,0.01,0.43
04/14/2019 11:37:50 am,13.100,0.2345892,0.02,0.21
04/14/2019 11:37:50 am,13.125,0.2352772,0.03,-0.06
04/14/2019 11:37:50 am,13.150,0.2359698,0.02,-0.33
04/14/2019 11:37:50 am,13.175,0.2365000,0.01,-0.51
04/14/2019 11:37:50 am,13.200,0.2365142,-0.01,-0.52
04/14/2019 11:37:50 am,13.225,0.2360029,-0.02,-0.35
04/14/2019 11:37:50 am,13.250,0.2353195,-0.03,-0.05
04/14/2019 11:37:50 am,13.275,0.2344501,-0.02,0.25
04/14/2019 11:37:50 am,13.300,0.2339247,-0.01,0.46
04/14/2019 11:37:50 am,13.325,0.2337387,0.00,0.50
04/14/2019 11:37:50 am,13.350,0.2340780,0.01,0.39
04/14/2019 11:37:50 am,13.375,0.2345892,0.02,0.17
04/14/2019 11:37:50 am,13.400,0.2352772,0.02,-0.10
04/14/2019 11:37:50 am,13.425,0.2359746,0.02,-0.34
04/14/2019 11:37:50 am,13.450,0.2363327,0.00,-0.46
04/14/2019 11:37:50 am,13.475,0.2361654,-0.01,-0.42
04/14/2019 11:37:50 am,13.500,0.2358309,-0.02,-0.25
04/14/2019 11:37:50 am,13.525,0.2351381,-0.02,-0.02
04/14/2019 11:37:50 am,13.550,0.2346221,-0.02,0.21
04/14/2019 11:37:50 am,13.575,0.2340967,-0.01,0.39
04/14/2019 11:37:50 am,13.600,0.2339106,0.00,0.45
04/14/2019 11:37:50 am,13.625,0.2342499,0.01,0.34
04/14/2019 11:37:50 am,13.650,0.2347612,0.02,0.12
04/14/2019 11:37:50 am,13.675,0.2354539,0.02,-0.12
04/14/2019 11:37:50 am,13.700,0.2359793,0.01,-0.31
04/14/2019 11:37:50 am,13.725,0.2361560,0.00,-0.40
04/14/2019 11:37:50 am,13.750,0.2361654,-0.01,-0.37
04/14/2019 11:37:50 am,13.775,0.2358309,-0.02,-0.23
04/14/2019 11:37:50 am,13.800,0.2351381,-0.02,-0.01
04/14/2019 11:37:50 am,13.825,0.2346174,-0.02,0.20
04/14/2019 11:37:50 am,13.850,0.2342687,-0.01,0.34
04/14/2019 11:37:50 am,13.875,0.2340873,8.65E-4,0.38
04/14/2019 11:37:50 am,13.900,0.2342499,0.01,0.30
04/14/2019 11:37:50 am,13.925,0.2347659,0.02,0.13
04/14/2019 11:37:50 am,13.950,0.2352819,0.02,-0.09
04/14/2019 11:37:50 am,13.975,0.2358073,0.01,-0.29
04/14/2019 11:37:51 am,14.000,0.2359840,0.00,-0.38
04/14/2019 11:37:51 am,14.025,0.2359982,-0.01,-0.35
04/14/2019 11:37:51 am,14.050,0.2354821,-0.02,-0.19
04/14/2019 11:37:51 am,14.075,0.2349661,-0.02,0.03
04/14/2019 11:37:51 am,14.100,0.2344454,-0.02,0.21
04/14/2019 11:37:51 am,14.125,0.2340920,-0.01,0.31
04/14/2019 11:37:51 am,14.150,0.2340873,0.00,0.32
04/14/2019 11:37:51 am,14.175,0.2342546,0.01,0.26
04/14/2019 11:37:51 am,14.200,0.2345939,0.02,0.11
04/14/2019 11:37:51 am,14.225,0.2351099,0.02,-0.08
04/14/2019 11:37:51 am,14.250,0.2356353,0.01,-0.25
04/14/2019 11:37:51 am,14.275,0.2358167,0.00,-0.32
04/14/2019 11:37:51 am,14.300,0.2356447,-0.01,-0.28
04/14/2019 11:37:51 am,14.325,0.2354821,-0.01,-0.16
04/14/2019 11:37:51 am,14.350,0.2349614,-0.01,0.00
04/14/2019 11:37:51 am,14.375,0.2346174,-0.01,0.16
04/14/2019 11:37:51 am,14.400,0.2342640,-0.01,0.27
04/14/2019 11:37:51 am,14.425,0.2342593,0.00,0.29
04/14/2019 11:37:51 am,14.450,0.2344266,0.01,0.20
04/14/2019 11:37:51 am,14.475,0.2347659,0.01,0.06
04/14/2019 11:37:51 am,14.500,0.2352913,0.01,-0.10
04/14/2019 11:37:51 am,14.525,0.2354633,0.01,-0.21
04/14/2019 11:37:51 am,14.550,0.2356400,0.00,-0.25
04/14/2019 11:37:51 am,14.575,0.2356494,-0.01,-0.22
04/14/2019 11:37:51 am,14.600,0.2353054,-0.01,-0.12
04/14/2019 11:37:51 am,14.625,0.2349614,-0.01,0.03
04/14/2019 11:37:51 am,14.650,0.2346127,-0.01,0.16
04/14/2019 11:37:51 am,14.675,0.2344360,0.00,0.23
04/14/2019 11:37:51 am,14.700,0.2344313,0.00,0.22
04/14/2019 11:37:51 am,14.725,0.2345986,0.01,0.15
04/14/2019 11:37:51 am,14.750,0.2349426,0.01,0.03
04/14/2019 11:37:51 am,14.775,0.2352913,0.01,-0.08
04/14/2019 11:37:51 am,14.800,0.2354633,0.01,-0.17
04/14/2019 11:37:51 am,14.825,0.2356400,0.00,-0.21
04/14/2019 11:37:51 am,14.850,0.2356494,0.00,-0.19
04/14/2019 11:37:51 am,14.875,0.2353007,-0.01,-0.10
04/14/2019 11:37:51 am,14.900,0.2351334,-0.01,0.01
04/14/2019 11:37:51 am,14.925,0.2347847,-0.01,0.13
04/14/2019 11:37:51 am,14.950,0.2346080,0.00,0.20
04/14/2019 11:37:51 am,14.975,0.2346033,0.00,0.19
04/14/2019 11:37:52 am,15.000,0.2347706,0.01,0.12
04/14/2019 11:37:52 am,15.025,0.2351193,0.01,0.01
04/14/2019 11:37:52 am,15.050,0.2352913,0.01,-0.08
04/14/2019 11:37:52 am,15.075,0.2354633,0.00,-0.14
04/14/2019 11:37:52 am,15.100,0.2356447,1.26E-4,-0.16
04/14/2019 11:37:52 am,15.125,0.2354727,0.00,-0.12
04/14/2019 11:37:52 am,15.150,0.2353007,-0.01,-0.06
04/14/2019 11:37:52 am,15.175,0.2351287,-0.01,0.02
04/14/2019 11:37:52 am,15.200,0.2349567,-0.01,0.09
04/14/2019 11:37:52 am,15.225,0.2347800,0.00,0.14
04/14/2019 11:37:52 am,15.250,0.2347753,0.00,0.14
04/14/2019 11:37:52 am,15.275,0.2349473,0.01,0.09
04/14/2019 11:37:52 am,15.300,0.2351193,0.01,0.01
04/14/2019 11:37:52 am,15.325,0.2352913,0.01,-0.06
04/14/2019 11:37:52 am,15.350,0.2354680,0.00,-0.11
04/14/2019 11:37:52 am,15.375,0.2354680,9.41E-5,-0.12
04/14/2019 11:37:52 am,15.400,0.2354727,0.00,-0.10
04/14/2019 11:37:52 am,15.425,0.2353007,-0.01,-0.04
04/14/2019 11:37:52 am,15.450,0.2351287,-0.01,0.03
04/14/2019 11:37:52 am,15.475,0.2349520,0.00,0.08
04/14/2019 11:37:52 am,15.500,0.2349520,0.00,0.09
04/14/2019 11:37:52 am,15.525,0.2349520,0.00,0.08
04/14/2019 11:37:52 am,15.550,0.2349473,0.00,0.05
04/14/2019 11:37:52 am,15.575,0.2351193,0.00,0.00
04/14/2019 11:37:52 am,15.600,0.2352960,0.00,-0.05
04/14/2019 11:37:52 am,15.625,0.2352960,0.00,-0.06
04/14/2019 11:37:52 am,15.650,0.2352960,3.14E-5,-0.05
04/14/2019 11:37:52 am,15.675,0.2352960,0.00,-0.05
04/14/2019 11:37:52 am,15.700,0.2353007,0.00,-0.04
04/14/2019 11:37:52 am,15.725,0.2351240,0.00,-0.01
04/14/2019 11:37:52 am,15.750,0.2351287,0.00,0.04
04/14/2019 11:37:52 am,15.775,0.2349520,0.00,0.07
04/14/2019 11:37:52 am,15.800,0.2349473,0.00,0.05
04/14/2019 11:37:52 am,15.825,0.2351240,0.00,0.01
04/14/2019 11:37:52 am,15.850,0.2351240,0.00,-0.02
04/14/2019 11:37:52 am,15.875,0.2351240,0.00,-0.02
04/14/2019 11:37:52 am,15.900,0.2351240,0.00,-0.01
04/14/2019 11:37:52 am,15.925,0.2351240,0.00,2.09E-4
04/14/2019 11:37:52 am,15.950,0.2351240,0.00,-0.01
04/14/2019 11:37:52 am,15.975,0.2351240,3.14E-5,-0.02
04/14/2019 11:37:53 am,16.000,0.2351240,0.00,-0.03
04/14/2019 11:37:53 am,16.025,0.2351287,0.00,-0.02
04/14/2019 11:37:53 am,16.050,0.2349520,0.00,0.01
04/14/2019 11:37:53 am,16.075,0.2349520,0.00,0.03
04/14/2019 11:37:53 am,16.100,0.2349520,0.00,0.02
04/14/2019 11:37:53 am,16.125,0.2349520,0.00,0.01
04/14/2019 11:37:53 am,16.150,0.2349520,0.00,0.00
04/14/2019 11:37:53 am,16.175,0.2349520,0.00,0.00
04/14/2019 11:37:53 am,16.200,0.2349520,0.00,0.00
04/14/2019 11:37:53 am,16.225,0.2349520,0.00,0.00
04/14/2019 11:37:53 am,16.250,0.2349520,0.00,0.00
04/14/2019 11:37:53 am,16.275,0.2349520,0.00,0.00
04/14/2019 11:37:53 am,16.300,0.2349520,0.00,0.00
04/14/2019 11:37:53 am,16.325,0.2349520,0.00,0.00
04/14/2019 11:37:53 am,16.350,0.2349520,0.00,0.00
04/14/2019 11:37:53 am,16.375,0.2349520,0.00,0.00
04/14/2019 11:37:53 am,16.400,0.2349520,0.00,0.00
04/14/2019 11:37:53 am,16.425,0.2349520,0.00,0.00
04/14/2019 11:37:53 am,16.450,0.2349520,0.00,0.00
04/14/2019 11:37:53 am,16.475,0.2349520,0.00,0.00
04/14/2019 11:37:53 am,16.500,0.2349520,0.00,0.00
04/14/2019 11:37:53 am,16.525,0.2349520,0.00,0.00
04/14/2019 11:37:53 am,16.550,0.2349520,0.00,0.00
04/14/2019 11:37:53 am,16.575,0.2349520,0.00,0.00
04/14/2019 11:37:53 am,16.600,0.2349520,0.00,2.09E-4
04/14/2019 11:37:53 am,16.625,0.2349520,0.00,-0.01
04/14/2019 11:37:53 am,16.650,0.2349520,3.13E-5,-0.02
04/14/2019 11:37:53 am,16.675,0.2349520,0.00,-0.03
04/14/2019 11:37:53 am,16.700,0.2349567,0.00,-0.01
04/14/2019 11:37:53 am,16.725,0.2347800,0.00,0.04
04/14/2019 11:37:53 am,16.750,0.2347800,-6.26E-5,0.06
04/14/2019 11:37:53 am,16.775,0.2347753,0.00,0.04
04/14/2019 11:37:53 am,16.800,0.2349520,0.00,-0.01
04/14/2019 11:37:53 am,16.825,0.2349520,0.00,-0.03
04/14/2019 11:37:53 am,16.850,0.2349520,0.00,-0.02
04/14/2019 11:37:53 am,16.875,0.2349520,0.00,-6.26E-4
04/14/2019 11:37:53 am,16.900,0.2349520,-3.13E-5,0.02
04/14/2019 11:37:53 am,16.925,0.2349520,0.00,0.03
04/14/2019 11:37:53 am,16.950,0.2349473,0.00,0.02
04/14/2019 11:37:53 am,16.975,0.2351240,0.00,-0.01
04/14/2019 11:37:54 am,17.000,0.2351240,0.00,-0.03
04/14/2019 11:37:54 am,17.025,0.2351240,0.00,-0.02
04/14/2019 11:37:54 am,17.050,0.2351240,0.00,-0.01
04/14/2019 11:37:54 am,17.075,0.2351240,0.00,0.00
04/14/2019 11:37:54 am,17.100,0.2351240,0.00,
04/14/2019 11:37:54 am,17.125,0.2351240,0.00,
04/14/2019 11:37:54 am,17.150,0.2351240,,
