Record Length,2500,Points,-2.0600001E-3,6.87999964,
Sample Interval,2.0000000E-6,s,-2.0580001E-3,6.87999964,
Trigger Point,1.0300001E3,Samples,-2.0560001E-3,6.87999964,
,,,-2.0540000E-3,6.87999964,
,,,-2.0520000E-3,6.87999964,
,,,-2.0500000E-3,6.87999964,
Source,CH1,,-2.0480000E-3,6.87999964,
Vertical Units,Volts,,-2.0460000E-3,6.87999964,
Vertical Scale,2.0000000,,-2.0440002E-3,6.87999964,
Vertical Offset,0,,-2.0420002E-3,6.87999964,
Horizontal Units,s,,-2.0400002E-3,6.87999964,
Horizontal Scale,499.999998738E-6,,-2.0380002E-3,6.87999964,
Pt Fmt,Y,,-2.0360001E-3,6.87999964,
Yzero,-40.00000000E-3,,-2.0340001E-3,6.87999964,
Probe Atten,1.000000,,-2.0320001E-3,6.87999964,
,,,-2.0300001E-3,6.87999964,
Note,TDS 1001B - 10:59:46   26/05/2019,,-2.0280001E-3,6.87999964,
,,,-2.0260001E-3,6.87999964,
,,,-2.0240000E-3,6.87999964,
,,,-2.0220000E-3,6.87999964,
,,,-2.0200000E-3,6.87999964,
,,,-2.0180000E-3,6.87999964,
,,,-2.0160000E-3,6.87999964,
,,,-2.0140002E-3,6.87999964,
,,,-2.0120002E-3,6.87999964,
,,,-2.0100002E-3,6.87999964,
,,,-2.0080002E-3,6.87999964,
,,,-2.0060001E-3,6.87999964,
,,,-2.0040001E-3,6.87999964,
,,,-2.0020001E-3,6.87999964,
,,,-2.0000001E-3,6.87999964,
,,,-1.9980001E-3,6.87999964,
,,,-1.9960001E-3,6.87999964,
,,,-1.9940000E-3,6.87999964,
,,,-1.9920000E-3,6.87999964,
,,,-1.9900000E-3,6.87999964,
,,,-1.9880000E-3,6.87999964,
,,,-1.9860000E-3,6.87999964,
,,,-1.9840000E-3,6.87999964,
,,,-1.9820002E-3,6.87999964,
,,,-1.9800002E-3,6.87999964,
,,,-1.9780002E-3,6.87999964,
,,,-1.9760001E-3,6.87999964,
,,,-1.9740001E-3,6.87999964,
,,,-1.9720001E-3,6.87999964,
,,,-1.9700001E-3,6.87999964,
,,,-1.9680001E-3,6.87999964,
,,,-1.9660001E-3,6.87999964,
,,,-1.9640001E-3,6.87999964,
,,,-1.9620000E-3,6.87999964,
,,,-1.9600000E-3,6.87999964,
,,,-1.9580000E-3,6.79999971,
,,,-1.9560000E-3,6.87999964,
,,,-1.9540000E-3,6.87999964,
,,,-1.9520001E-3,6.79999971,
,,,-1.9500001E-3,6.87999964,
,,,-1.9480000E-3,6.79999971,
,,,-1.9460000E-3,6.87999964,
,,,-1.9440001E-3,6.87999964,
,,,-1.9420001E-3,6.87999964,
,,,-1.9400001E-3,6.87999964,
,,,-1.9380001E-3,6.87999964,
,,,-1.9360001E-3,6.87999964,
,,,-1.9340001E-3,6.87999964,
,,,-1.9320000E-3,6.87999964,
,,,-1.9300001E-3,6.87999964,
,,,-1.9280001E-3,6.87999964,
,,,-1.9260001E-3,6.87999964,
,,,-1.9240001E-3,6.87999964,
,,,-1.9220001E-3,6.87999964,
,,,-1.9200001E-3,6.87999964,
,,,-1.9180001E-3,6.87999964,
,,,-1.9160000E-3,6.87999964,
,,,-1.9140001E-3,6.87999964,
,,,-1.9120001E-3,6.87999964,
,,,-1.9100001E-3,6.87999964,
,,,-1.9080001E-3,6.87999964,
,,,-1.9060001E-3,6.87999964,
,,,-1.9040001E-3,6.87999964,
,,,-1.9020000E-3,6.87999964,
,,,-1.9000000E-3,6.87999964,
,,,-1.8980001E-3,6.87999964,
,,,-1.8960001E-3,6.87999964,
,,,-1.8940001E-3,6.87999964,
,,,-1.8920001E-3,6.87999964,
,,,-1.8900001E-3,6.87999964,
,,,-1.8880001E-3,6.87999964,
,,,-1.8860000E-3,6.79999971,
,,,-1.8840001E-3,6.79999971,
,,,-1.8820001E-3,6.79999971,
,,,-1.8800001E-3,6.79999971,
,,,-1.8780001E-3,6.71999979,
,,,-1.8760001E-3,6.71999979,
,,,-1.8740001E-3,6.71999979,
,,,-1.8720001E-3,6.71999979,
,,,-1.8700000E-3,6.71999979,
,,,-1.8680001E-3,6.63999987,
,,,-1.8660001E-3,6.63999987,
,,,-1.8640001E-3,6.63999987,
,,,-1.8620001E-3,6.63999987,
,,,-1.8600001E-3,6.55999994,
,,,-1.8580001E-3,6.55999994,
,,,-1.8560000E-3,6.55999994,
,,,-1.8540000E-3,6.55999994,
,,,-1.8520001E-3,6.55999994,
,,,-1.8500001E-3,6.48000002,
,,,-1.8480001E-3,6.48000002,
,,,-1.8460001E-3,6.48000002,
,,,-1.8440001E-3,6.48000002,
,,,-1.8420001E-3,6.48000002,
,,,-1.8400000E-3,6.48000002,
,,,-1.8380001E-3,6.48000002,
,,,-1.8360001E-3,6.39999962,
,,,-1.8340001E-3,6.39999962,
,,,-1.8320001E-3,6.31999969,
,,,-1.8300001E-3,6.31999969,
,,,-1.8280001E-3,6.39999962,
,,,-1.8260001E-3,6.31999969,
,,,-1.8240000E-3,6.31999969,
,,,-1.8220001E-3,6.31999969,
,,,-1.8200001E-3,6.23999977,
,,,-1.8180001E-3,6.23999977,
,,,-1.8160001E-3,6.23999977,
,,,-1.8140001E-3,6.23999977,
,,,-1.8120001E-3,6.23999977,
,,,-1.8100000E-3,6.15999985,
,,,-1.8080000E-3,6.15999985,
,,,-1.8060001E-3,6.15999985,
,,,-1.8040001E-3,6.15999985,
,,,-1.8020001E-3,6.15999985,
,,,-1.8000001E-3,6.15999985,
,,,-1.7980001E-3,6.15999985,
,,,-1.7960001E-3,6.15999985,
,,,-1.7940000E-3,6.15999985,
,,,-1.7920001E-3,6.15999985,
,,,-1.7900001E-3,6.07999992,
,,,-1.7880001E-3,6.07999992,
,,,-1.7860001E-3,6.07999992,
,,,-1.7840001E-3,6.00000000,
,,,-1.7820001E-3,6.00000000,
,,,-1.7800000E-3,6.00000000,
,,,-1.7780000E-3,6.00000000,
,,,-1.7760001E-3,6.00000000,
,,,-1.7740001E-3,6.00000000,
,,,-1.7720001E-3,6.00000000,
,,,-1.7700001E-3,5.92000008,
,,,-1.7680001E-3,6.00000000,
,,,-1.7660001E-3,5.92000008,
,,,-1.7640000E-3,5.92000008,
,,,-1.7620000E-3,5.83999968,
,,,-1.7600001E-3,5.83999968,
,,,-1.7580001E-3,5.83999968,
,,,-1.7560001E-3,5.83999968,
,,,-1.7540001E-3,5.75999975,
,,,-1.7520001E-3,5.75999975,
,,,-1.7500001E-3,5.75999975,
,,,-1.7480000E-3,5.75999975,
,,,-1.7460001E-3,5.75999975,
,,,-1.7440001E-3,5.75999975,
,,,-1.7420001E-3,5.75999975,
,,,-1.7400001E-3,5.75999975,
,,,-1.7380001E-3,5.75999975,
,,,-1.7360001E-3,5.75999975,
,,,-1.7340000E-3,5.67999983,
,,,-1.7320000E-3,5.67999983,
,,,-1.7300001E-3,5.59999990,
,,,-1.7280001E-3,5.59999990,
,,,-1.7260001E-3,5.59999990,
,,,-1.7240001E-3,5.59999990,
,,,-1.7220001E-3,5.59999990,
,,,-1.7200001E-3,5.59999990,
,,,-1.7180000E-3,5.59999990,
,,,-1.7160001E-3,5.59999990,
,,,-1.7140001E-3,5.51999998,
,,,-1.7120001E-3,5.51999998,
,,,-1.7100001E-3,5.51999998,
,,,-1.7080001E-3,5.51999998,
,,,-1.7060001E-3,5.51999998,
,,,-1.7040001E-3,5.44000006,
,,,-1.7020000E-3,5.44000006,
,,,-1.7000001E-3,5.51999998,
,,,-1.6980001E-3,5.51999998,
,,,-1.6960001E-3,5.44000006,
,,,-1.6940001E-3,5.51999998,
,,,-1.6920001E-3,5.44000006,
,,,-1.6900001E-3,5.44000006,
,,,-1.6880000E-3,5.44000006,
,,,-1.6860000E-3,5.35999966,
,,,-1.6840001E-3,5.35999966,
,,,-1.6820001E-3,5.35999966,
,,,-1.6800001E-3,5.35999966,
,,,-1.6780001E-3,5.35999966,
,,,-1.6760001E-3,5.35999966,
,,,-1.6740001E-3,5.27999973,
,,,-1.6720000E-3,5.27999973,
,,,-1.6700001E-3,5.35999966,
,,,-1.6680001E-3,5.27999973,
,,,-1.6660001E-3,5.27999973,
,,,-1.6640001E-3,5.27999973,
,,,-1.6620001E-3,5.27999973,
,,,-1.6600001E-3,5.27999973,
,,,-1.6580001E-3,5.27999973,
,,,-1.6560000E-3,5.27999973,
,,,-1.6540001E-3,5.19999981,
,,,-1.6520001E-3,5.19999981,
,,,-1.6500001E-3,5.19999981,
,,,-1.6480001E-3,5.19999981,
,,,-1.6460001E-3,5.11999989,
,,,-1.6440001E-3,5.11999989,
,,,-1.6420000E-3,5.11999989,
,,,-1.6400000E-3,5.11999989,
,,,-1.6380001E-3,5.11999989,
,,,-1.6360001E-3,5.11999989,
,,,-1.6340001E-3,5.03999996,
,,,-1.6320001E-3,5.03999996,
,,,-1.6300001E-3,5.03999996,
,,,-1.6280001E-3,5.03999996,
,,,-1.6260000E-3,5.03999996,
,,,-1.6240001E-3,5.03999996,
,,,-1.6220001E-3,4.96000004,
,,,-1.6200001E-3,4.96000004,
,,,-1.6180001E-3,4.96000004,
,,,-1.6160001E-3,4.96000004,
,,,-1.6140001E-3,4.96000004,
,,,-1.6120001E-3,4.96000004,
,,,-1.6100000E-3,4.96000004,
,,,-1.6080001E-3,4.96000004,
,,,-1.6060001E-3,4.96000004,
,,,-1.6040001E-3,4.88000011,
,,,-1.6020001E-3,4.88000011,
,,,-1.6000001E-3,4.88000011,
,,,-1.5980001E-3,4.88000011,
,,,-1.5960000E-3,4.88000011,
,,,-1.5940000E-3,4.88000011,
,,,-1.5920001E-3,4.88000011,
,,,-1.5900001E-3,4.88000011,
,,,-1.5880001E-3,4.88000011,
,,,-1.5860001E-3,4.79999971,
,,,-1.5840001E-3,4.79999971,
,,,-1.5820001E-3,4.79999971,
,,,-1.5800000E-3,4.79999971,
,,,-1.5780001E-3,4.79999971,
,,,-1.5760001E-3,4.79999971,
,,,-1.5740001E-3,4.79999971,
,,,-1.5720001E-3,4.79999971,
,,,-1.5700001E-3,4.71999979,
,,,-1.5680001E-3,4.71999979,
,,,-1.5660000E-3,4.71999979,
,,,-1.5640000E-3,4.71999979,
,,,-1.5620001E-3,4.71999979,
,,,-1.5600001E-3,4.71999979,
,,,-1.5580001E-3,4.63999987,
,,,-1.5560001E-3,4.63999987,
,,,-1.5540001E-3,4.71999979,
,,,-1.5520001E-3,4.63999987,
,,,-1.5500000E-3,4.63999987,
,,,-1.5480001E-3,4.63999987,
,,,-1.5460001E-3,4.55999994,
,,,-1.5440001E-3,4.55999994,
,,,-1.5420001E-3,4.63999987,
,,,-1.5400001E-3,4.55999994,
,,,-1.5380001E-3,4.55999994,
,,,-1.5360001E-3,4.55999994,
,,,-1.5340000E-3,4.55999994,
,,,-1.5320001E-3,4.55999994,
,,,-1.5300001E-3,4.55999994,
,,,-1.5280001E-3,4.48000002,
,,,-1.5260001E-3,4.48000002,
,,,-1.5240001E-3,4.48000002,
,,,-1.5220001E-3,4.48000002,
,,,-1.5200000E-3,4.48000002,
,,,-1.5180000E-3,4.48000002,
,,,-1.5160001E-3,4.40000010,
,,,-1.5140001E-3,4.40000010,
,,,-1.5120001E-3,4.48000002,
,,,-1.5100001E-3,4.48000002,
,,,-1.5080001E-3,4.40000010,
,,,-1.5060001E-3,4.31999969,
,,,-1.5040000E-3,4.40000010,
,,,-1.5020001E-3,4.40000010,
,,,-1.5000001E-3,4.40000010,
,,,-1.4980001E-3,4.40000010,
,,,-1.4960001E-3,4.31999969,
,,,-1.4940001E-3,4.31999969,
,,,-1.4920001E-3,4.31999969,
,,,-1.4900001E-3,4.23999977,
,,,-1.4880000E-3,4.31999969,
,,,-1.4860001E-3,4.31999969,
,,,-1.4840001E-3,4.31999969,
,,,-1.4820001E-3,4.23999977,
,,,-1.4800001E-3,4.23999977,
,,,-1.4780001E-3,4.23999977,
,,,-1.4760001E-3,4.23999977,
,,,-1.4740000E-3,4.23999977,
,,,-1.4720000E-3,4.23999977,
,,,-1.4700001E-3,4.23999977,
,,,-1.4680001E-3,4.23999977,
,,,-1.4660001E-3,4.23999977,
,,,-1.4640001E-3,4.23999977,
,,,-1.4620001E-3,4.15999985,
,,,-1.4600001E-3,4.15999985,
,,,-1.4580000E-3,4.23999977,
,,,-1.4560001E-3,4.15999985,
,,,-1.4540001E-3,4.15999985,
,,,-1.4520001E-3,4.15999985,
,,,-1.4500001E-3,4.15999985,
,,,-1.4480001E-3,4.15999985,
,,,-1.4460001E-3,4.15999985,
,,,-1.4440001E-3,4.07999992,
,,,-1.4420000E-3,4.07999992,
,,,-1.4400001E-3,4.07999992,
,,,-1.4380001E-3,4.07999992,
,,,-1.4360001E-3,4.07999992,
,,,-1.4340001E-3,4.00000000,
,,,-1.4320001E-3,4.00000000,
,,,-1.4300001E-3,4.00000000,
,,,-1.4280000E-3,4.00000000,
,,,-1.4260000E-3,4.00000000,
,,,-1.4240001E-3,4.00000000,
,,,-1.4220001E-3,4.00000000,
,,,-1.4200001E-3,4.00000000,
,,,-1.4180001E-3,3.91999984,
,,,-1.4160001E-3,4.00000000,
,,,-1.4140001E-3,4.00000000,
,,,-1.4120000E-3,3.91999984,
,,,-1.4100001E-3,3.91999984,
,,,-1.4080001E-3,3.91999984,
,,,-1.4060001E-3,3.91999984,
,,,-1.4040001E-3,3.91999984,
,,,-1.4020001E-3,3.91999984,
,,,-1.4000001E-3,3.91999984,
,,,-1.3980001E-3,3.83999991,
,,,-1.3960000E-3,3.83999991,
,,,-1.3940001E-3,3.83999991,
,,,-1.3920001E-3,3.83999991,
,,,-1.3900001E-3,3.83999991,
,,,-1.3880001E-3,3.83999991,
,,,-1.3860001E-3,3.83999991,
,,,-1.3840001E-3,3.83999991,
,,,-1.3820000E-3,3.83999991,
,,,-1.3800000E-3,3.83999991,
,,,-1.3780001E-3,3.83999991,
,,,-1.3760001E-3,3.83999991,
,,,-1.3740001E-3,3.75999999,
,,,-1.3720001E-3,3.75999999,
,,,-1.3700001E-3,3.83999991,
,,,-1.3680001E-3,3.75999999,
,,,-1.3660000E-3,3.75999999,
,,,-1.3640001E-3,3.75999999,
,,,-1.3620001E-3,3.67999983,
,,,-1.3600001E-3,3.67999983,
,,,-1.3580001E-3,3.67999983,
,,,-1.3560001E-3,3.75999999,
,,,-1.3540001E-3,3.75999999,
,,,-1.3520001E-3,3.67999983,
,,,-1.3500000E-3,3.67999983,
,,,-1.3480001E-3,3.67999983,
,,,-1.3460001E-3,3.67999983,
,,,-1.3440001E-3,3.67999983,
,,,-1.3420001E-3,3.59999990,
,,,-1.3400001E-3,3.59999990,
,,,-1.3380001E-3,3.59999990,
,,,-1.3360000E-3,3.59999990,
,,,-1.3340001E-3,3.59999990,
,,,-1.3320001E-3,3.59999990,
,,,-1.3300001E-3,3.59999990,
,,,-1.3280001E-3,3.59999990,
,,,-1.3260001E-3,3.59999990,
,,,-1.3240001E-3,3.59999990,
,,,-1.3220001E-3,3.51999998,
,,,-1.3200000E-3,3.51999998,
,,,-1.3180001E-3,3.59999990,
,,,-1.3160001E-3,3.51999998,
,,,-1.3140001E-3,3.51999998,
,,,-1.3120001E-3,3.51999998,
,,,-1.3100001E-3,3.43999982,
,,,-1.3080001E-3,3.51999998,
,,,-1.3060000E-3,3.51999998,
,,,-1.3040000E-3,3.43999982,
,,,-1.3020001E-3,3.43999982,
,,,-1.3000001E-3,3.43999982,
,,,-1.2980001E-3,3.43999982,
,,,-1.2960001E-3,3.43999982,
,,,-1.2940001E-3,3.43999982,
,,,-1.2920001E-3,3.43999982,
,,,-1.2900000E-3,3.43999982,
,,,-1.2880001E-3,3.43999982,
,,,-1.2860001E-3,3.43999982,
,,,-1.2840001E-3,3.35999990,
,,,-1.2820001E-3,3.43999982,
,,,-1.2800001E-3,3.35999990,
,,,-1.2780001E-3,3.35999990,
,,,-1.2760001E-3,3.35999990,
,,,-1.2740000E-3,3.35999990,
,,,-1.2720001E-3,3.35999990,
,,,-1.2700001E-3,3.35999990,
,,,-1.2680001E-3,3.35999990,
,,,-1.2660001E-3,3.35999990,
,,,-1.2640001E-3,3.35999990,
,,,-1.2620001E-3,3.35999990,
,,,-1.2600000E-3,3.35999990,
,,,-1.2580000E-3,3.35999990,
,,,-1.2560001E-3,3.27999997,
,,,-1.2540001E-3,3.35999990,
,,,-1.2520001E-3,3.27999997,
,,,-1.2500001E-3,3.27999997,
,,,-1.2480001E-3,3.27999997,
,,,-1.2460001E-3,3.27999997,
,,,-1.2440000E-3,3.27999997,
,,,-1.2420001E-3,3.35999990,
,,,-1.2400001E-3,3.27999997,
,,,-1.2380001E-3,3.27999997,
,,,-1.2360001E-3,3.27999997,
,,,-1.2340001E-3,3.27999997,
,,,-1.2320001E-3,3.19999981,
,,,-1.2300001E-3,3.27999997,
,,,-1.2280000E-3,3.19999981,
,,,-1.2260001E-3,3.19999981,
,,,-1.2240001E-3,3.19999981,
,,,-1.2220001E-3,3.19999981,
,,,-1.2200001E-3,3.19999981,
,,,-1.2180001E-3,3.19999981,
,,,-1.2160001E-3,3.19999981,
,,,-1.2140000E-3,3.11999989,
,,,-1.2120000E-3,3.19999981,
,,,-1.2100001E-3,3.11999989,
,,,-1.2080001E-3,3.11999989,
,,,-1.2060001E-3,3.11999989,
,,,-1.2040001E-3,3.11999989,
,,,-1.2020001E-3,3.11999989,
,,,-1.2000001E-3,3.11999989,
,,,-1.1980000E-3,3.11999989,
,,,-1.1960001E-3,3.03999996,
,,,-1.1940001E-3,3.11999989,
,,,-1.1920001E-3,3.11999989,
,,,-1.1900001E-3,3.03999996,
,,,-1.1880001E-3,3.11999989,
,,,-1.1860001E-3,3.03999996,
,,,-1.1840001E-3,3.03999996,
,,,-1.1820000E-3,3.03999996,
,,,-1.1800001E-3,3.03999996,
,,,-1.1780001E-3,3.03999996,
,,,-1.1760001E-3,3.03999996,
,,,-1.1740001E-3,3.03999996,
,,,-1.1720001E-3,3.03999996,
,,,-1.1700001E-3,2.96000004,
,,,-1.1680000E-3,3.03999996,
,,,-1.1660000E-3,3.03999996,
,,,-1.1640001E-3,2.96000004,
,,,-1.1620001E-3,2.96000004,
,,,-1.1600001E-3,3.03999996,
,,,-1.1580001E-3,3.03999996,
,,,-1.1560001E-3,2.96000004,
,,,-1.1540001E-3,3.03999996,
,,,-1.1520000E-3,2.96000004,
,,,-1.1500001E-3,2.96000004,
,,,-1.1480001E-3,2.96000004,
,,,-1.1460001E-3,2.96000004,
,,,-1.1440001E-3,2.96000004,
,,,-1.1420001E-3,2.96000004,
,,,-1.1400001E-3,2.87999988,
,,,-1.1380001E-3,2.87999988,
,,,-1.1360000E-3,2.87999988,
,,,-1.1340001E-3,2.87999988,
,,,-1.1320001E-3,2.87999988,
,,,-1.1300001E-3,2.87999988,
,,,-1.1280001E-3,2.87999988,
,,,-1.1260001E-3,2.87999988,
,,,-1.1240001E-3,2.87999988,
,,,-1.1220000E-3,2.87999988,
,,,-1.1200001E-3,2.87999988,
,,,-1.1180001E-3,2.87999988,
,,,-1.1160001E-3,2.79999995,
,,,-1.1140001E-3,2.79999995,
,,,-1.1120001E-3,2.87999988,
,,,-1.1100001E-3,2.79999995,
,,,-1.1080001E-3,2.79999995,
,,,-1.1060000E-3,2.79999995,
,,,-1.1040001E-3,2.79999995,
,,,-1.1020001E-3,2.72000003,
,,,-1.1000001E-3,2.79999995,
,,,-1.0980001E-3,2.72000003,
,,,-1.0960001E-3,2.79999995,
,,,-1.0940001E-3,2.72000003,
,,,-1.0920000E-3,2.72000003,
,,,-1.0900000E-3,2.79999995,
,,,-1.0880001E-3,2.72000003,
,,,-1.0860001E-3,2.72000003,
,,,-1.0840001E-3,2.79999995,
,,,-1.0820001E-3,2.72000003,
,,,-1.0800001E-3,2.72000003,
,,,-1.0780001E-3,2.72000003,
,,,-1.0760000E-3,2.72000003,
,,,-1.0740001E-3,2.72000003,
,,,-1.0720001E-3,2.72000003,
,,,-1.0700001E-3,2.6399999,
,,,-1.0680001E-3,2.6399999,
,,,-1.0660001E-3,2.6399999,
,,,-1.0640001E-3,2.72000003,
,,,-1.0620001E-3,2.6399999,
,,,-1.0600000E-3,2.6399999,
,,,-1.0580001E-3,2.6399999,
,,,-1.0560001E-3,2.6399999,
,,,-1.0540001E-3,2.6399999,
,,,-1.0520001E-3,2.6399999,
,,,-1.0500001E-3,2.6399999,
,,,-1.0480001E-3,2.6399999,
,,,-1.0460000E-3,2.6399999,
,,,-1.0440000E-3,2.6399999,
,,,-1.0420001E-3,2.6399999,
,,,-1.0400001E-3,2.6399999,
,,,-1.0380001E-3,2.6399999,
,,,-1.0360001E-3,2.6399999,
,,,-1.0340001E-3,2.6399999,
,,,-1.0320001E-3,2.5599999,
,,,-1.0300000E-3,2.6399999,
,,,-1.0280001E-3,2.5599999,
,,,-1.0260001E-3,2.5599999,
,,,-1.0240001E-3,2.6399999,
,,,-1.0220001E-3,2.6399999,
,,,-1.0200001E-3,2.5599999,
,,,-1.0180001E-3,2.5599999,
,,,-1.0160001E-3,2.5599999,
,,,-1.0140000E-3,2.5599999,
,,,-1.0120001E-3,2.5599999,
,,,-1.0100001E-3,2.5599999,
,,,-1.0080001E-3,2.5599999,
,,,-1.0060001E-3,2.4800000,
,,,-1.0040001E-3,2.4800000,
,,,-1.0020001E-3,2.5599999,
,,,-1.0000000E-3,2.5599999,
,,,-998.000032268E-6,2.4800000,
,,,-996.000133455E-6,2.4800000,
,,,-994.000118226E-6,2.4800000,
,,,-992.000102997E-6,2.4800000,
,,,-990.000087768E-6,2.4800000,
,,,-988.000072539E-6,2.3999999,
,,,-986.000057310E-6,2.4800000,
,,,-984.000042081E-6,2.3999999,
,,,-982.000143267E-6,2.3999999,
,,,-980.000128038E-6,2.3999999,
,,,-978.000112809E-6,2.3999999,
,,,-976.000097580E-6,2.4800000,
,,,-974.000082351E-6,2.3999999,
,,,-972.000067122E-6,2.3999999,
,,,-970.000110101E-6,2.3999999,
,,,-968.000094872E-6,2.3999999,
,,,-966.000079643E-6,2.3999999,
,,,-964.000064414E-6,2.3999999,
,,,-962.000107393E-6,2.3999999,
,,,-960.000092164E-6,2.3999999,
,,,-958.000076935E-6,2.3199999,
,,,-956.000061706E-6,2.3999999,
,,,-954.000104684E-6,2.3999999,
,,,-952.000089455E-6,2.3999999,
,,,-950.000074226E-6,2.3999999,
,,,-948.000117205E-6,2.3199999,
,,,-946.000101976E-6,2.3199999,
,,,-944.000086747E-6,2.3199999,
,,,-942.000071518E-6,2.3999999,
,,,-940.000114497E-6,2.3199999,
,,,-938.000099268E-6,2.3199999,
,,,-936.000084039E-6,2.3199999,
,,,-934.000068810E-6,2.3199999,
,,,-932.000111789E-6,2.3199999,
,,,-930.000096560E-6,2.3199999,
,,,-928.000081331E-6,2.3199999,
,,,-926.000066102E-6,2.3199999,
,,,-924.000109080E-6,2.3199999,
,,,-922.000093851E-6,2.3199999,
,,,-920.000078622E-6,2.3199999,
,,,-918.000063393E-6,2.3199999,
,,,-916.000106372E-6,2.3199999,
,,,-914.000091143E-6,2.2400000,
,,,-912.000075914E-6,2.2400000,
,,,-910.000060685E-6,2.3199999,
,,,-908.000103664E-6,2.3199999,
,,,-906.000088435E-6,2.3199999,
,,,-904.000073206E-6,2.2400000,
,,,-902.000116184E-6,2.2400000,
,,,-900.000100955E-6,2.2400000,
,,,-898.000085726E-6,2.2400000,
,,,-896.000070497E-6,2.2400000,
,,,-894.000113476E-6,2.2400000,
,,,-892.000098247E-6,2.2400000,
,,,-890.000083018E-6,2.2400000,
,,,-888.000067789E-6,2.2400000,
,,,-886.000110768E-6,2.2400000,
,,,-884.000095539E-6,2.1599998,
,,,-882.000080310E-6,2.2400000,
,,,-880.000065081E-6,2.2400000,
,,,-878.000108059E-6,2.2400000,
,,,-876.000092831E-6,2.2400000,
,,,-874.000077602E-6,2.1599998,
,,,-872.000062373E-6,2.1599998,
,,,-870.000105351E-6,2.1599998,
,,,-868.000090122E-6,2.1599998,
,,,-866.000074893E-6,2.1599998,
,,,-864.000117872E-6,2.0799999,
,,,-862.000102643E-6,2.1599998,
,,,-860.000087414E-6,2.1599998,
,,,-858.000072185E-6,2.1599998,
,,,-856.000115164E-6,2.1599998,
,,,-854.000099935E-6,2.1599998,
,,,-852.000084706E-6,2.0799999,
,,,-850.000069477E-6,2.0799999,
,,,-848.000112455E-6,2.0799999,
,,,-846.000097226E-6,2.0799999,
,,,-844.000081997E-6,2.1599998,
,,,-842.000066768E-6,2.0799999,
,,,-840.000109747E-6,2.0799999,
,,,-838.000094518E-6,2.0799999,
,,,-836.000079289E-6,2.0799999,
,,,-834.000064060E-6,2.0799999,
,,,-832.000107039E-6,2.0799999,
,,,-830.000091810E-6,2.0799999,
,,,-828.000076581E-6,2.0799999,
,,,-826.000061352E-6,2.0799999,
,,,-824.000104330E-6,2.0799999,
,,,-822.000089101E-6,2.0799999,
,,,-820.000073873E-6,2.0799999,
,,,-818.000116851E-6,2.0000000,
,,,-816.000101622E-6,2.0000000,
,,,-814.000086393E-6,2.0000000,
,,,-812.000071164E-6,2.0799999,
,,,-810.000114143E-6,2.0000000,
,,,-808.000098914E-6,2.0000000,
,,,-806.000083685E-6,2.0000000,
,,,-804.000068456E-6,2.0799999,
,,,-802.000111435E-6,2.0000000,
,,,-800.000096206E-6,2.0000000,
,,,-798.000080977E-6,2.0000000,
,,,-796.000065748E-6,2.0000000,
,,,-794.000108726E-6,2.0000000,
,,,-792.000093497E-6,2.0000000,
,,,-790.000078268E-6,1.9200000,
,,,-788.000063039E-6,2.0000000,
,,,-786.000106018E-6,1.9200000,
,,,-784.000090789E-6,1.9200000,
,,,-782.000075560E-6,1.9200000,
,,,-780.000118539E-6,1.9200000,
,,,-778.000103310E-6,1.9200000,
,,,-776.000088081E-6,1.9200000,
,,,-774.000072852E-6,1.9200000,
,,,-772.000115830E-6,1.9200000,
,,,-770.000100601E-6,1.9200000,
,,,-768.000085372E-6,1.9200000,
,,,-766.000070143E-6,1.9200000,
,,,-764.000113122E-6,1.9200000,
,,,-762.000097893E-6,1.9200000,
,,,-760.000082664E-6,1.9200000,
,,,-758.000067435E-6,1.9200000,
,,,-756.000110414E-6,1.9200000,
,,,-754.000095185E-6,1.9200000,
,,,-752.000079956E-6,1.9200000,
,,,-750.000064727E-6,1.8399999,
,,,-748.000107706E-6,1.9200000,
,,,-746.000092477E-6,1.9200000,
,,,-744.000077248E-6,1.9200000,
,,,-742.000062019E-6,1.9200000,
,,,-740.000104997E-6,1.9200000,
,,,-738.000089768E-6,1.8399999,
,,,-736.000074539E-6,1.8399999,
,,,-734.000117518E-6,1.8399999,
,,,-732.000102289E-6,1.8399999,
,,,-730.000087060E-6,1.8399999,
,,,-728.000071831E-6,1.8399999,
,,,-726.000114810E-6,1.8399999,
,,,-724.000099581E-6,1.8399999,
,,,-722.000084352E-6,1.8399999,
,,,-720.000069123E-6,1.8399999,
,,,-718.000112101E-6,1.8399999,
,,,-716.000096872E-6,1.8399999,
,,,-714.000081643E-6,1.8399999,
,,,-712.000066414E-6,1.8399999,
,,,-710.000109393E-6,1.8399999,
,,,-708.000094164E-6,1.7600000,
,,,-706.000078935E-6,1.8399999,
,,,-704.000063706E-6,1.8399999,
,,,-702.000106685E-6,1.8399999,
,,,-700.000091456E-6,1.8399999,
,,,-698.000076227E-6,1.7600000,
,,,-696.000060998E-6,1.8399999,
,,,-694.000103977E-6,1.8399999,
,,,-692.000088748E-6,1.8399999,
,,,-690.000073519E-6,1.8399999,
,,,-688.000116497E-6,1.8399999,
,,,-686.000101268E-6,1.7600000,
,,,-684.000086039E-6,1.7600000,
,,,-682.000070810E-6,1.7600000,
,,,-680.000113789E-6,1.7600000,
,,,-678.000098560E-6,1.7600000,
,,,-676.000083331E-6,1.7600000,
,,,-674.000068102E-6,1.7600000,
,,,-672.000111081E-6,1.7600000,
,,,-670.000095852E-6,1.7600000,
,,,-668.000080623E-6,1.6799999,
,,,-666.000065394E-6,1.7600000,
,,,-664.000108372E-6,1.7600000,
,,,-662.000093143E-6,1.7600000,
,,,-660.000077914E-6,1.7600000,
,,,-658.000062685E-6,1.7600000,
,,,-656.000105664E-6,1.6799999,
,,,-654.000090435E-6,1.7600000,
,,,-652.000075206E-6,1.7600000,
,,,-650.000118185E-6,1.7600000,
,,,-648.000102956E-6,1.6799999,
,,,-646.000087727E-6,1.6799999,
,,,-644.000072498E-6,1.6799999,
,,,-642.000115477E-6,1.6799999,
,,,-640.000100248E-6,1.6799999,
,,,-638.000085019E-6,1.6799999,
,,,-636.000069790E-6,1.7600000,
,,,-634.000112768E-6,1.6799999,
,,,-632.000097539E-6,1.6799999,
,,,-630.000082310E-6,1.6799999,
,,,-628.000067081E-6,1.6799999,
,,,-626.000110060E-6,1.6799999,
,,,-624.000094831E-6,1.5999999,
,,,-622.000079602E-6,1.6799999,
,,,-620.000064373E-6,1.5999999,
,,,-618.000107352E-6,1.6799999,
,,,-616.000092123E-6,1.6799999,
,,,-614.000076894E-6,1.6799999,
,,,-612.000061665E-6,1.6799999,
,,,-610.000104643E-6,1.5999999,
,,,-608.000089414E-6,1.6799999,
,,,-606.000074185E-6,1.6799999,
,,,-604.000117164E-6,1.5999999,
,,,-602.000101935E-6,1.5999999,
,,,-600.000086706E-6,1.5999999,
,,,-598.000071477E-6,1.5999999,
,,,-596.000114456E-6,1.5999999,
,,,-594.000099227E-6,1.6799999,
,,,-592.000083998E-6,1.5999999,
,,,-590.000068769E-6,1.5999999,
,,,-588.000111748E-6,1.5999999,
,,,-586.000096519E-6,1.5999999,
,,,-584.000081290E-6,1.5999999,
,,,-582.000066061E-6,1.5999999,
,,,-580.000109039E-6,1.5200000,
,,,-578.000093810E-6,1.5999999,
,,,-576.000078581E-6,1.5999999,
,,,-574.000063352E-6,1.5999999,
,,,-572.000106331E-6,1.5999999,
,,,-570.000091102E-6,1.5200000,
,,,-568.000075873E-6,1.5999999,
,,,-566.000118852E-6,1.5200000,
,,,-564.000103623E-6,1.5200000,
,,,-562.000088394E-6,1.5200000,
,,,-560.000073165E-6,1.5999999,
,,,-558.000116143E-6,1.5200000,
,,,-556.000100914E-6,1.5200000,
,,,-554.000085685E-6,1.5200000,
,,,-552.000070456E-6,1.5200000,
,,,-550.000113435E-6,1.5200000,
,,,-548.000098206E-6,1.5200000,
,,,-546.000082977E-6,1.5200000,
,,,-544.000067748E-6,1.5200000,
,,,-542.000110727E-6,1.5200000,
,,,-540.000095498E-6,1.5200000,
,,,-538.000080269E-6,1.5200000,
,,,-536.000065040E-6,1.5200000,
,,,-534.000108019E-6,1.5200000,
,,,-532.000092790E-6,1.5200000,
,,,-530.000077561E-6,1.5200000,
,,,-528.000062332E-6,1.5200000,
,,,-526.000105310E-6,1.5200000,
,,,-524.000090081E-6,1.5200000,
,,,-522.000074852E-6,1.4399999,
,,,-520.000117831E-6,1.5200000,
,,,-518.000102602E-6,1.5200000,
,,,-516.000087373E-6,1.5200000,
,,,-514.000072144E-6,1.4399999,
,,,-512.000115123E-6,1.5200000,
,,,-510.000099894E-6,1.4399999,
,,,-508.000084665E-6,1.4399999,
,,,-506.000069436E-6,1.5200000,
,,,-504.000112414E-6,1.4399999,
,,,-502.000097185E-6,1.4399999,
,,,-500.000081956E-6,1.4399999,
,,,-498.000066727E-6,1.4399999,
,,,-496.000109706E-6,1.4399999,
,,,-494.000094477E-6,1.4399999,
,,,-492.000079248E-6,1.4399999,
,,,-490.000064019E-6,1.4399999,
,,,-488.000077894E-6,1.4399999,
,,,-486.000091769E-6,1.4399999,
,,,-484.000076540E-6,1.4399999,
,,,-482.000090415E-6,1.4399999,
,,,-480.000104290E-6,1.4399999,
,,,-478.000089061E-6,1.4399999,
,,,-476.000102935E-6,1.4399999,
,,,-474.000087706E-6,1.4399999,
,,,-472.000101581E-6,1.3600000,
,,,-470.000086352E-6,1.4399999,
,,,-468.000100227E-6,1.4399999,
,,,-466.000084998E-6,1.3600000,
,,,-464.000098873E-6,1.4399999,
,,,-462.000083644E-6,1.4399999,
,,,-460.000097519E-6,1.4399999,
,,,-458.000082290E-6,1.3600000,
,,,-456.000096165E-6,1.4399999,
,,,-454.000080936E-6,1.3600000,
,,,-452.000094811E-6,1.3600000,
,,,-450.000079582E-6,1.3600000,
,,,-448.000093456E-6,1.3600000,
,,,-446.000078227E-6,1.3600000,
,,,-444.000092102E-6,1.3600000,
,,,-442.000076873E-6,1.3600000,
,,,-440.000090748E-6,1.3600000,
,,,-438.000104623E-6,1.3600000,
,,,-436.000089394E-6,1.3600000,
,,,-434.000103269E-6,1.3600000,
,,,-432.000088040E-6,1.3600000,
,,,-430.000101915E-6,1.3600000,
,,,-428.000086686E-6,1.3600000,
,,,-426.000100560E-6,1.3600000,
,,,-424.000085331E-6,1.3600000,
,,,-422.000099206E-6,1.3600000,
,,,-420.000083977E-6,1.2800000,
,,,-418.000097852E-6,1.3600000,
,,,-416.000082623E-6,1.2800000,
,,,-414.000096498E-6,1.3600000,
,,,-412.000081269E-6,1.3600000,
,,,-410.000095144E-6,1.2800000,
,,,-408.000079915E-6,1.2800000,
,,,-406.000093790E-6,1.2800000,
,,,-404.000078561E-6,1.2800000,
,,,-402.00009244E-6,1.2800000,
,,,-400.00007721E-6,1.2800000,
,,,-398.00009108E-6,1.2800000,
,,,-396.00010496E-6,1.2800000,
,,,-394.00008973E-6,1.2800000,
,,,-392.00010360E-6,1.2800000,
,,,-390.00008837E-6,1.2800000,
,,,-388.00010225E-6,1.2800000,
,,,-386.00008702E-6,1.2800000,
,,,-384.00010089E-6,1.2800000,
,,,-382.00008566E-6,1.2800000,
,,,-380.00009954E-6,1.2800000,
,,,-378.00008431E-6,1.2800000,
,,,-376.00009819E-6,1.2800000,
,,,-374.00008296E-6,1.2800000,
,,,-372.00009683E-6,1.2800000,
,,,-370.00008160E-6,1.2800000,
,,,-368.00009548E-6,1.2800000,
,,,-366.00008025E-6,1.1999999,
,,,-364.00009412E-6,1.2800000,
,,,-362.00007889E-6,1.1999999,
,,,-360.00009277E-6,1.1999999,
,,,-358.00007754E-6,1.2800000,
,,,-356.00009141E-6,1.2800000,
,,,-354.00007619E-6,1.1999999,
,,,-352.00009006E-6,1.1999999,
,,,-350.00010394E-6,1.1999999,
,,,-348.00008871E-6,1.1999999,
,,,-346.00010258E-6,1.1999999,
,,,-344.00008735E-6,1.1999999,
,,,-342.00010123E-6,1.1999999,
,,,-340.00008600E-6,1.1999999,
,,,-338.00009987E-6,1.1999999,
,,,-336.00008464E-6,1.1999999,
,,,-334.00009852E-6,1.1999999,
,,,-332.00008329E-6,1.1999999,
,,,-330.00009716E-6,1.1999999,
,,,-328.00008194E-6,1.1999999,
,,,-326.00009581E-6,1.1999999,
,,,-324.00008058E-6,1.1999999,
,,,-322.00009446E-6,1.1999999,
,,,-320.00007923E-6,1.1999999,
,,,-318.00009310E-6,1.1200000,
,,,-316.00007787E-6,1.1999999,
,,,-314.00009175E-6,1.1999999,
,,,-312.00007652E-6,1.1200000,
,,,-310.00009039E-6,1.1999999,
,,,-308.00010427E-6,1.1999999,
,,,-306.00008904E-6,1.1200000,
,,,-304.00010291E-6,1.1999999,
,,,-302.00008769E-6,1.1999999,
,,,-300.00010156E-6,1.1200000,
,,,-298.00008633E-6,1.1200000,
,,,-296.00010021E-6,1.1200000,
,,,-294.00008498E-6,1.1200000,
,,,-292.00009885E-6,1.1999999,
,,,-290.00008362E-6,1.1200000,
,,,-288.00009750E-6,1.1200000,
,,,-286.00008227E-6,1.1200000,
,,,-284.00009614E-6,1.1200000,
,,,-282.00008092E-6,1.1200000,
,,,-280.00009479E-6,1.1200000,
,,,-278.00007956E-6,1.1200000,
,,,-276.00009344E-6,1.1200000,
,,,-274.00007821E-6,1.1200000,
,,,-272.00009208E-6,1.1200000,
,,,-270.00007685E-6,1.1200000,
,,,-268.00009073E-6,1.1200000,
,,,-266.00010460E-6,1.1200000,
,,,-264.00008937E-6,1.1200000,
,,,-262.00010325E-6,1.1200000,
,,,-260.00008802E-6,1.1200000,
,,,-258.00010189E-6,1.1200000,
,,,-256.00008667E-6,1.1200000,
,,,-254.00010054E-6,1.1200000,
,,,-252.00008531E-6,1.1200000,
,,,-250.00009919E-6,1.1200000,
,,,-248.00008396E-6,1.1200000,
,,,-246.00009783E-6,1.1200000,
,,,-244.00009715E-6,1.1200000,
,,,-242.00009648E-6,1.1200000,
,,,-240.00009580E-6,1.1200000,
,,,-238.00009512E-6,1.1200000,
,,,-236.00009445E-6,1.1200000,
,,,-234.00009377E-6,1.1200000,
,,,-232.00009309E-6,1.1200000,
,,,-230.00009242E-6,1.1200000,
,,,-228.00009174E-6,1.1200000,
,,,-226.00009106E-6,1.1200000,
,,,-224.00009038E-6,1.1200000,
,,,-222.00008971E-6,1.1200000,
,,,-220.00008903E-6,1.1200000,
,,,-218.00008835E-6,1.1200000,
,,,-216.00008768E-6,1.0400000,
,,,-214.00008700E-6,1.1200000,
,,,-212.00008632E-6,1.1200000,
,,,-210.00008564E-6,1.1200000,
,,,-208.00008497E-6,1.1200000,
,,,-206.00008429E-6,1.0400000,
,,,-204.00009817E-6,1.1200000,
,,,-202.00009749E-6,1.1200000,
,,,-200.00009681E-6,1.1200000,
,,,-198.00009613E-6,1.1200000,
,,,-196.00009546E-6,1.0400000,
,,,-194.00009478E-6,1.0400000,
,,,-192.00009410E-6,1.0400000,
,,,-190.00009343E-6,1.0400000,
,,,-188.00009275E-6,1.0400000,
,,,-186.00009207E-6,1.0400000,
,,,-184.00009139E-6,1.0400000,
,,,-182.00009072E-6,1.0400000,
,,,-180.00009004E-6,1.0400000,
,,,-178.00008936E-6,1.0400000,
,,,-176.00008869E-6,1.0400000,
,,,-174.00008801E-6,1.0400000,
,,,-172.00008733E-6,1.0400000,
,,,-170.00008665E-6,1.1200000,
,,,-168.00008598E-6,1.0400000,
,,,-166.00008530E-6,1.0400000,
,,,-164.00008462E-6,1.0400000,
,,,-162.00008395E-6,1.0400000,
,,,-160.00009782E-6,1.0400000,
,,,-158.00009714E-6,1.0400000,
,,,-156.00009647E-6,1.0400000,
,,,-154.00009579E-6,1.0400000,
,,,-152.00009511E-6,1.0400000,
,,,-150.00009444E-6,1.0400000,
,,,-148.0000938E-6,1.0400000,
,,,-146.0000931E-6,1.0400000,
,,,-144.0000924E-6,959.999978542E-3,
,,,-142.0000917E-6,1.0400000,
,,,-140.0000911E-6,1.0400000,
,,,-138.0000904E-6,959.999978542E-3,
,,,-136.0000897E-6,1.0400000,
,,,-134.0000890E-6,1.0400000,
,,,-132.0000883E-6,959.999978542E-3,
,,,-130.0000877E-6,959.999978542E-3,
,,,-128.0000870E-6,1.0400000,
,,,-126.0000863E-6,959.999978542E-3,
,,,-124.0000856E-6,1.0400000,
,,,-122.0000922E-6,959.999978542E-3,
,,,-120.0000916E-6,1.0400000,
,,,-118.0000909E-6,959.999978542E-3,
,,,-116.0000902E-6,959.999978542E-3,
,,,-114.0000895E-6,959.999978542E-3,
,,,-112.0000888E-6,959.999978542E-3,
,,,-110.0000882E-6,1.0400000,
,,,-108.0000948E-6,1.0400000,
,,,-106.0000941E-6,959.999978542E-3,
,,,-104.0000934E-6,959.999978542E-3,
,,,-102.0000927E-6,959.999978542E-3,
,,,-100.0000921E-6,959.999978542E-3,
,,,-98.000091384E-6,879.999995232E-3,
,,,-96.000090707E-6,959.999978542E-3,
,,,-94.000090030E-6,879.999995232E-3,
,,,-92.000089353E-6,959.999978542E-3,
,,,-90.000088676E-6,959.999978542E-3,
,,,-88.000087999E-6,959.999978542E-3,
,,,-86.000094598E-6,959.999978542E-3,
,,,-84.000093921E-6,959.999978542E-3,
,,,-82.000093244E-6,879.999995232E-3,
,,,-80.000092566E-6,879.999995232E-3,
,,,-78.000091889E-6,959.999978542E-3,
,,,-76.000091212E-6,879.999995232E-3,
,,,-74.000090535E-6,959.999978542E-3,
,,,-72.000089858E-6,879.999995232E-3,
,,,-70.000089181E-6,879.999995232E-3,
,,,-68.000088504E-6,879.999995232E-3,
,,,-66.000087827E-6,959.999978542E-3,
,,,-64.000094426E-6,879.999995232E-3,
,,,-62.000093749E-6,879.999995232E-3,
,,,-60.000093072E-6,879.999995232E-3,
,,,-58.000092395E-6,959.999978542E-3,
,,,-56.000091718E-6,879.999995232E-3,
,,,-54.00009104E-6,879.999995232E-3,
,,,-52.00009036E-6,879.999995232E-3,
,,,-50.00008969E-6,879.999995232E-3,
,,,-48.00009265E-6,879.999995232E-3,
,,,-46.00009197E-6,879.999995232E-3,
,,,-44.00009129E-6,879.999995232E-3,
,,,-42.00009062E-6,879.999995232E-3,
,,,-40.00008994E-6,879.999995232E-3,
,,,-38.00009290E-6,879.999995232E-3,
,,,-36.00009222E-6,959.999978542E-3,
,,,-34.00009155E-6,879.999995232E-3,
,,,-32.00009087E-6,879.999995232E-3,
,,,-30.00009201E-6,879.999995232E-3,
,,,-28.00009133E-6,879.999995232E-3,
,,,-26.00009066E-6,879.999995232E-3,
,,,-24.00009180E-6,879.999995232E-3,
,,,-22.00009112E-6,879.999995232E-3,
,,,-20.0000904E-6,879.999995232E-3,
,,,-18.0000916E-6,879.999995232E-3,
,,,-16.0000909E-6,879.999995232E-3,
,,,-14.0000911E-6,879.999995232E-3,
,,,-12.0000914E-6,879.999995232E-3,
,,,-10.0000916E-6,879.999995232E-3,
,,,-8.000091839E-6,879.999995232E-3,
,,,-6.00009116E-6,879.999995232E-3,
,,,-4.00009139E-6,879.999995232E-3,
,,,-2.0000914E-6,879.999995232E-3,
,,,-91.404217154E-12,879.999995232E-3,
,,,1.9999086E-6,879.999995232E-3,
,,,3.99990859E-6,879.999995232E-3,
,,,5.99990835E-6,879.999995232E-3,
,,,7.999908121E-6,879.999995232E-3,
,,,9.999908798E-6,879.999995232E-3,
,,,11.9999086E-6,799.999952316E-3,
,,,13.9999083E-6,879.999995232E-3,
,,,15.9999090E-6,879.999995232E-3,
,,,17.9999079E-6,799.999952316E-3,
,,,19.9999085E-6,879.999995232E-3,
,,,21.99990922E-6,799.999952316E-3,
,,,23.99990808E-6,879.999995232E-3,
,,,25.99990876E-6,799.999952316E-3,
,,,27.99990762E-6,799.999952316E-3,
,,,29.99990829E-6,799.999952316E-3,
,,,31.99990897E-6,799.999952316E-3,
,,,33.99990965E-6,879.999995232E-3,
,,,35.99991032E-6,799.999952316E-3,
,,,37.99990736E-6,799.999952316E-3,
,,,39.99990804E-6,879.999995232E-3,
,,,41.99990872E-6,799.999952316E-3,
,,,43.99990939E-6,799.999952316E-3,
,,,45.99991007E-6,799.999952316E-3,
,,,47.99990711E-6,799.999952316E-3,
,,,49.99990779E-6,799.999952316E-3,
,,,51.99990846E-6,799.999952316E-3,
,,,53.99990914E-6,799.999952316E-3,
,,,55.999909819E-6,799.999952316E-3,
,,,57.999906858E-6,799.999952316E-3,
,,,59.999907535E-6,799.999952316E-3,
,,,61.999911850E-6,799.999952316E-3,
,,,63.999905251E-6,799.999952316E-3,
,,,65.999905928E-6,799.999952316E-3,
,,,67.999906605E-6,799.999952316E-3,
,,,69.999907282E-6,799.999952316E-3,
,,,71.999907959E-6,799.999952316E-3,
,,,73.999908636E-6,799.999952316E-3,
,,,75.999909313E-6,799.999952316E-3,
,,,77.999909990E-6,799.999952316E-3,
,,,79.999910668E-6,799.999952316E-3,
,,,81.999911345E-6,799.999952316E-3,
,,,83.999912022E-6,799.999952316E-3,
,,,85.999905423E-6,799.999952316E-3,
,,,87.999906100E-6,799.999952316E-3,
,,,89.999906777E-6,799.999952316E-3,
,,,91.999907454E-6,799.999952316E-3,
,,,93.999908131E-6,799.999952316E-3,
,,,95.999908808E-6,799.999952316E-3,
,,,97.999909485E-6,799.999952316E-3,
,,,99.999910162E-6,799.999952316E-3,
,,,101.9999108E-6,799.999952316E-3,
,,,103.9999115E-6,799.999952316E-3,
,,,105.9999049E-6,799.999952316E-3,
,,,107.9999056E-6,719.999969006E-3,
,,,109.9999063E-6,799.999952316E-3,
,,,111.9999069E-6,799.999952316E-3,
,,,113.9999076E-6,799.999952316E-3,
,,,115.9999083E-6,719.999969006E-3,
,,,117.9999090E-6,799.999952316E-3,
,,,119.9999097E-6,799.999952316E-3,
,,,121.9999103E-6,719.999969006E-3,
,,,123.9999110E-6,719.999969006E-3,
,,,125.9999117E-6,799.999952316E-3,
,,,127.9999124E-6,799.999952316E-3,
,,,129.9999130E-6,799.999952316E-3,
,,,131.9999137E-6,799.999952316E-3,
,,,133.9999144E-6,799.999952316E-3,
,,,135.9999151E-6,719.999969006E-3,
,,,137.9999012E-6,719.999969006E-3,
,,,139.9999019E-6,719.999969006E-3,
,,,141.9999026E-6,719.999969006E-3,
,,,143.9999032E-6,719.999969006E-3,
,,,145.9999039E-6,719.999969006E-3,
,,,147.9999046E-6,799.999952316E-3,
,,,149.99990526E-6,719.999969006E-3,
,,,151.99990594E-6,719.999969006E-3,
,,,153.99990662E-6,719.999969006E-3,
,,,155.99990729E-6,719.999969006E-3,
,,,157.99990797E-6,719.999969006E-3,
,,,159.99990865E-6,719.999969006E-3,
,,,161.99990932E-6,799.999952316E-3,
,,,163.99991000E-6,719.999969006E-3,
,,,165.99991068E-6,719.999969006E-3,
,,,167.99991135E-6,719.999969006E-3,
,,,169.99991203E-6,719.999969006E-3,
,,,171.99991271E-6,719.999969006E-3,
,,,173.99991339E-6,719.999969006E-3,
,,,175.99991406E-6,719.999969006E-3,
,,,177.99991474E-6,719.999969006E-3,
,,,179.99991542E-6,719.999969006E-3,
,,,181.99990154E-6,719.999969006E-3,
,,,183.99990222E-6,799.999952316E-3,
,,,185.99990290E-6,719.999969006E-3,
,,,187.99990357E-6,719.999969006E-3,
,,,189.99990425E-6,719.999969006E-3,
,,,191.99990493E-6,719.999969006E-3,
,,,193.99990560E-6,719.999969006E-3,
,,,195.99990628E-6,719.999969006E-3,
,,,197.99990696E-6,639.999985695E-3,
,,,199.99990764E-6,639.999985695E-3,
,,,201.99990831E-6,719.999969006E-3,
,,,203.99990899E-6,719.999969006E-3,
,,,205.99990967E-6,719.999969006E-3,
,,,207.99991034E-6,719.999969006E-3,
,,,209.99991102E-6,719.999969006E-3,
,,,211.99991170E-6,719.999969006E-3,
,,,213.99991238E-6,719.999969006E-3,
,,,215.99991305E-6,719.999969006E-3,
,,,217.99991373E-6,639.999985695E-3,
,,,219.99991441E-6,639.999985695E-3,
,,,221.99991508E-6,719.999969006E-3,
,,,223.99990121E-6,639.999985695E-3,
,,,225.99990189E-6,719.999969006E-3,
,,,227.99990256E-6,719.999969006E-3,
,,,229.99990324E-6,719.999969006E-3,
,,,231.99990392E-6,719.999969006E-3,
,,,233.99990459E-6,719.999969006E-3,
,,,235.99990527E-6,639.999985695E-3,
,,,237.99990595E-6,639.999985695E-3,
,,,239.99990663E-6,719.999969006E-3,
,,,241.99990730E-6,719.999969006E-3,
,,,243.99990798E-6,639.999985695E-3,
,,,245.99989410E-6,639.999985695E-3,
,,,247.99990933E-6,639.999985695E-3,
,,,249.99989546E-6,639.999985695E-3,
,,,251.99991069E-6,639.999985695E-3,
,,,253.99989681E-6,639.999985695E-3,
,,,255.99991204E-6,719.999969006E-3,
,,,257.99989817E-6,639.999985695E-3,
,,,259.99991340E-6,639.999985695E-3,
,,,261.99989952E-6,639.999985695E-3,
,,,263.99991475E-6,639.999985695E-3,
,,,265.99990088E-6,639.999985695E-3,
,,,267.99991610E-6,719.999969006E-3,
,,,269.99990223E-6,719.999969006E-3,
,,,271.99991746E-6,639.999985695E-3,
,,,273.99990358E-6,639.999985695E-3,
,,,275.99991881E-6,639.999985695E-3,
,,,277.99990494E-6,639.999985695E-3,
,,,279.99992017E-6,639.999985695E-3,
,,,281.99990629E-6,639.999985695E-3,
,,,283.99992152E-6,639.999985695E-3,
,,,285.99990765E-6,719.999969006E-3,
,,,287.99989377E-6,639.999985695E-3,
,,,289.99990900E-6,639.999985695E-3,
,,,291.99989513E-6,639.999985695E-3,
,,,293.99991035E-6,639.999985695E-3,
,,,295.99989648E-6,639.999985695E-3,
,,,297.99991171E-6,639.999985695E-3,
,,,299.99989783E-6,639.999985695E-3,
,,,301.99991306E-6,639.999985695E-3,
,,,303.99989919E-6,639.999985695E-3,
,,,305.99991442E-6,560.000002384E-3,
,,,307.99990054E-6,639.999985695E-3,
,,,309.99991577E-6,639.999985695E-3,
,,,311.99990190E-6,560.000002384E-3,
,,,313.99991713E-6,639.999985695E-3,
,,,315.99990325E-6,639.999985695E-3,
,,,317.99991848E-6,639.999985695E-3,
,,,319.99990460E-6,639.999985695E-3,
,,,321.99991983E-6,639.999985695E-3,
,,,323.99990596E-6,639.999985695E-3,
,,,325.99992119E-6,639.999985695E-3,
,,,327.99990731E-6,639.999985695E-3,
,,,329.99989344E-6,560.000002384E-3,
,,,331.99990867E-6,639.999985695E-3,
,,,333.99989479E-6,560.000002384E-3,
,,,335.99991002E-6,560.000002384E-3,
,,,337.99989615E-6,560.000002384E-3,
,,,339.99991138E-6,560.000002384E-3,
,,,341.99989750E-6,560.000002384E-3,
,,,343.99991273E-6,560.000002384E-3,
,,,345.99989885E-6,639.999985695E-3,
,,,347.99991408E-6,560.000002384E-3,
,,,349.99990021E-6,560.000002384E-3,
,,,351.99991544E-6,560.000002384E-3,
,,,353.99990156E-6,560.000002384E-3,
,,,355.99991679E-6,560.000002384E-3,
,,,357.99990292E-6,560.000002384E-3,
,,,359.99991815E-6,639.999985695E-3,
,,,361.99990427E-6,560.000002384E-3,
,,,363.99991950E-6,560.000002384E-3,
,,,365.99990563E-6,560.000002384E-3,
,,,367.99992085E-6,560.000002384E-3,
,,,369.99990698E-6,560.000002384E-3,
,,,371.99992221E-6,560.000002384E-3,
,,,373.99990833E-6,560.000002384E-3,
,,,375.99989446E-6,639.999985695E-3,
,,,377.99990969E-6,560.000002384E-3,
,,,379.99989581E-6,560.000002384E-3,
,,,381.99991104E-6,560.000002384E-3,
,,,383.99989717E-6,639.999985695E-3,
,,,385.99991240E-6,560.000002384E-3,
,,,387.99989852E-6,560.000002384E-3,
,,,389.99991375E-6,560.000002384E-3,
,,,391.99989988E-6,560.000002384E-3,
,,,393.99991510E-6,560.000002384E-3,
,,,395.99990123E-6,560.000002384E-3,
,,,397.99991646E-6,560.000002384E-3,
,,,399.99990258E-6,560.000002384E-3,
,,,401.99991781E-6,560.000002384E-3,
,,,403.999903938E-6,560.000002384E-3,
,,,405.999919167E-6,560.000002384E-3,
,,,407.999905292E-6,560.000002384E-3,
,,,409.999920521E-6,560.000002384E-3,
,,,411.999906646E-6,560.000002384E-3,
,,,413.999921875E-6,560.000002384E-3,
,,,415.999908000E-6,560.000002384E-3,
,,,417.999894125E-6,560.000002384E-3,
,,,419.999909354E-6,560.000002384E-3,
,,,421.999895480E-6,560.000002384E-3,
,,,423.999910709E-6,560.000002384E-3,
,,,425.999896834E-6,560.000002384E-3,
,,,427.999912063E-6,560.000002384E-3,
,,,429.999898188E-6,560.000002384E-3,
,,,431.999913417E-6,479.999989271E-3,
,,,433.999899542E-6,560.000002384E-3,
,,,435.999914771E-6,560.000002384E-3,
,,,437.999900896E-6,560.000002384E-3,
,,,439.999916125E-6,560.000002384E-3,
,,,441.999902250E-6,560.000002384E-3,
,,,443.999917479E-6,560.000002384E-3,
,,,445.999903604E-6,560.000002384E-3,
,,,447.999918833E-6,560.000002384E-3,
,,,449.999904959E-6,560.000002384E-3,
,,,451.999920188E-6,560.000002384E-3,
,,,453.999906313E-6,560.000002384E-3,
,,,455.999921542E-6,479.999989271E-3,
,,,457.999907667E-6,479.999989271E-3,
,,,459.999893792E-6,560.000002384E-3,
,,,461.999909021E-6,560.000002384E-3,
,,,463.999895146E-6,560.000002384E-3,
,,,465.999910375E-6,479.999989271E-3,
,,,467.999896500E-6,479.999989271E-3,
,,,469.999911729E-6,479.999989271E-3,
,,,471.999897854E-6,560.000002384E-3,
,,,473.999913083E-6,560.000002384E-3,
,,,475.999899209E-6,479.999989271E-3,
,,,477.999914438E-6,560.000002384E-3,
,,,479.999900563E-6,479.999989271E-3,
,,,481.999915792E-6,560.000002384E-3,
,,,483.999901917E-6,479.999989271E-3,
,,,485.999917146E-6,560.000002384E-3,
,,,487.999903271E-6,479.999989271E-3,
,,,489.999889396E-6,479.999989271E-3,
,,,491.999904625E-6,479.999989271E-3,
,,,493.999919854E-6,479.999989271E-3,
,,,495.999935083E-6,560.000002384E-3,
,,,497.999892104E-6,479.999989271E-3,
,,,499.999907333E-6,479.999989271E-3,
,,,501.999922562E-6,479.999989271E-3,
,,,503.999879584E-6,560.000002384E-3,
,,,505.999894813E-6,479.999989271E-3,
,,,507.999910042E-6,479.999989271E-3,
,,,509.999925271E-6,479.999989271E-3,
,,,511.999882292E-6,479.999989271E-3,
,,,513.999897521E-6,479.999989271E-3,
,,,515.999912750E-6,560.000002384E-3,
,,,517.999927979E-6,479.999989271E-3,
,,,519.999885000E-6,479.999989271E-3,
,,,521.999900229E-6,479.999989271E-3,
,,,523.999915458E-6,479.999989271E-3,
,,,525.999930687E-6,479.999989271E-3,
,,,527.999887709E-6,479.999989271E-3,
,,,529.999902938E-6,479.999989271E-3,
,,,531.999918167E-6,479.999989271E-3,
,,,533.999933396E-6,479.999989271E-3,
,,,535.999890417E-6,479.999989271E-3,
,,,537.999905646E-6,479.999989271E-3,
,,,539.999920875E-6,479.999989271E-3,
,,,541.999936104E-6,479.999989271E-3,
,,,543.999893125E-6,479.999989271E-3,
,,,545.999908354E-6,479.999989271E-3,
,,,547.999923583E-6,479.999989271E-3,
,,,549.999880604E-6,479.999989271E-3,
,,,551.999895833E-6,479.999989271E-3,
,,,553.999911062E-6,479.999989271E-3,
,,,555.999926291E-6,479.999989271E-3,
,,,557.999883313E-6,479.999989271E-3,
,,,559.999898542E-6,479.999989271E-3,
,,,561.999913771E-6,479.999989271E-3,
,,,563.999929000E-6,479.999989271E-3,
,,,565.999886021E-6,479.999989271E-3,
,,,567.999901250E-6,479.999989271E-3,
,,,569.999916479E-6,479.999989271E-3,
,,,571.999931708E-6,479.999989271E-3,
,,,573.999888729E-6,479.999989271E-3,
,,,575.999903958E-6,479.999989271E-3,
,,,577.999919187E-6,479.999989271E-3,
,,,579.999934416E-6,479.999989271E-3,
,,,581.999891438E-6,479.999989271E-3,
,,,583.999906667E-6,479.999989271E-3,
,,,585.999921896E-6,479.999989271E-3,
,,,587.999878917E-6,399.99997616E-3,
,,,589.999894146E-6,479.999989271E-3,
,,,591.999909375E-6,479.999989271E-3,
,,,593.999924604E-6,479.999989271E-3,
,,,595.999881625E-6,479.999989271E-3,
,,,597.999896854E-6,399.99997616E-3,
,,,599.999912083E-6,479.999989271E-3,
,,,601.999927312E-6,479.999989271E-3,
,,,603.999884333E-6,479.999989271E-3,
,,,605.999899562E-6,479.999989271E-3,
,,,607.999914791E-6,479.999989271E-3,
,,,609.999930020E-6,479.999989271E-3,
,,,611.999887042E-6,399.99997616E-3,
,,,613.999902271E-6,479.999989271E-3,
,,,615.999917500E-6,399.99997616E-3,
,,,617.999932729E-6,479.999989271E-3,
,,,619.999889750E-6,399.99997616E-3,
,,,621.999904979E-6,399.99997616E-3,
,,,623.999920208E-6,399.99997616E-3,
,,,625.999935437E-6,399.99997616E-3,
,,,627.999892458E-6,399.99997616E-3,
,,,629.999907687E-6,399.99997616E-3,
,,,631.999922916E-6,399.99997616E-3,
,,,633.999879938E-6,399.99997616E-3,
,,,635.999895167E-6,399.99997616E-3,
,,,637.999910396E-6,479.999989271E-3,
,,,639.999925625E-6,399.99997616E-3,
,,,641.999882646E-6,479.999989271E-3,
,,,643.999897875E-6,399.99997616E-3,
,,,645.999913104E-6,399.99997616E-3,
,,,647.999928333E-6,479.999989271E-3,
,,,649.999885354E-6,399.99997616E-3,
,,,651.999900583E-6,399.99997616E-3,
,,,653.999915812E-6,399.99997616E-3,
,,,655.999931041E-6,399.99997616E-3,
,,,657.999888062E-6,479.999989271E-3,
,,,659.999903291E-6,399.99997616E-3,
,,,661.999918520E-6,399.99997616E-3,
,,,663.999933749E-6,399.99997616E-3,
,,,665.999890771E-6,399.99997616E-3,
,,,667.999906000E-6,399.99997616E-3,
,,,669.999921229E-6,399.99997616E-3,
,,,671.999878250E-6,399.99997616E-3,
,,,673.999893479E-6,399.99997616E-3,
,,,675.999908708E-6,399.99997616E-3,
,,,677.999923937E-6,399.99997616E-3,
,,,679.999880958E-6,399.99997616E-3,
,,,681.999896187E-6,399.99997616E-3,
,,,683.999911416E-6,399.99997616E-3,
,,,685.999926645E-6,399.99997616E-3,
,,,687.999883667E-6,399.99997616E-3,
,,,689.999898896E-6,399.99997616E-3,
,,,691.999914125E-6,399.99997616E-3,
,,,693.999929354E-6,399.99997616E-3,
,,,695.999886375E-6,479.999989271E-3,
,,,697.999901604E-6,399.99997616E-3,
,,,699.999916833E-6,399.99997616E-3,
,,,701.999932062E-6,399.99997616E-3,
,,,703.999889083E-6,399.99997616E-3,
,,,705.999904312E-6,399.99997616E-3,
,,,707.999919541E-6,399.99997616E-3,
,,,709.999934770E-6,399.99997616E-3,
,,,711.999891791E-6,399.99997616E-3,
,,,713.999907020E-6,399.99997616E-3,
,,,715.999922249E-6,399.99997616E-3,
,,,717.999879271E-6,399.99997616E-3,
,,,719.999894500E-6,479.999989271E-3,
,,,721.999909729E-6,399.99997616E-3,
,,,723.999924958E-6,399.99997616E-3,
,,,725.999881979E-6,399.99997616E-3,
,,,727.999897208E-6,399.99997616E-3,
,,,729.999912437E-6,399.99997616E-3,
,,,731.999927666E-6,399.99997616E-3,
,,,733.999884687E-6,399.99997616E-3,
,,,735.999899916E-6,399.99997616E-3,
,,,737.999915145E-6,399.99997616E-3,
,,,739.999930374E-6,399.99997616E-3,
,,,741.999887396E-6,399.99997616E-3,
,,,743.999902625E-6,399.99997616E-3,
,,,745.999917854E-6,399.99997616E-3,
,,,747.999933083E-6,399.99997616E-3,
,,,749.999890104E-6,399.99997616E-3,
,,,751.999905333E-6,399.99997616E-3,
,,,753.999920562E-6,399.99997616E-3,
,,,755.999935791E-6,399.99997616E-3,
,,,757.999892812E-6,399.99997616E-3,
,,,759.999908041E-6,399.99997616E-3,
,,,761.999923270E-6,399.99997616E-3,
,,,763.999880292E-6,399.99997616E-3,
,,,765.999895521E-6,399.99997616E-3,
,,,767.999910749E-6,399.99997616E-3,
,,,769.999925978E-6,399.99997616E-3,
,,,771.999883000E-6,399.99997616E-3,
,,,773.999898229E-6,399.99997616E-3,
,,,775.999913458E-6,399.99997616E-3,
,,,777.999928687E-6,399.99997616E-3,
,,,779.999885708E-6,399.99997616E-3,
,,,781.999900937E-6,399.99997616E-3,
,,,783.999916166E-6,399.99997616E-3,
,,,785.999931395E-6,399.99997616E-3,
,,,787.999888416E-6,399.99997616E-3,
,,,789.999903645E-6,399.99997616E-3,
,,,791.999918874E-6,399.99997616E-3,
,,,793.999934103E-6,399.99997616E-3,
,,,795.999891125E-6,399.99997616E-3,
,,,797.999906354E-6,399.99997616E-3,
,,,799.999921583E-6,399.99997616E-3,
,,,801.999878604E-6,399.99997616E-3,
,,,803.999893833E-6,399.99997616E-3,
,,,805.999909062E-6,399.99997616E-3,
,,,807.999924291E-6,399.99997616E-3,
,,,809.999881312E-6,399.99997616E-3,
,,,811.999896541E-6,399.99997616E-3,
,,,813.999911770E-6,399.99997616E-3,
,,,815.999926999E-6,399.99997616E-3,
,,,817.999884021E-6,399.99997616E-3,
,,,819.999899250E-6,399.99997616E-3,
,,,821.999914479E-6,399.99997616E-3,
,,,823.999929707E-6,399.99997616E-3,
,,,825.999886729E-6,399.99997616E-3,
,,,827.999901958E-6,399.99997616E-3,
,,,829.999917187E-6,399.99997616E-3,
,,,831.999932416E-6,399.99997616E-3,
,,,833.999889437E-6,399.99997616E-3,
,,,835.999904666E-6,399.99997616E-3,
,,,837.999919895E-6,399.99997616E-3,
,,,839.999935124E-6,399.99997616E-3,
,,,841.999892145E-6,399.99997616E-3,
,,,843.999907374E-6,399.99997616E-3,
,,,845.999922603E-6,399.99997616E-3,
,,,847.999879625E-6,399.99997616E-3,
,,,849.999894854E-6,399.99997616E-3,
,,,851.999910083E-6,399.99997616E-3,
,,,853.999925312E-6,399.99997616E-3,
,,,855.999882333E-6,399.99997616E-3,
,,,857.999897562E-6,399.99997616E-3,
,,,859.999912791E-6,399.99997616E-3,
,,,861.999928020E-6,399.99997616E-3,
,,,863.999885041E-6,399.99997616E-3,
,,,865.999900270E-6,399.99997616E-3,
,,,867.999915499E-6,399.99997616E-3,
,,,869.999930728E-6,399.99997616E-3,
,,,871.999887750E-6,399.99997616E-3,
,,,873.999902979E-6,319.99999285E-3,
,,,875.999918208E-6,399.99997616E-3,
,,,877.999933437E-6,399.99997616E-3,
,,,879.999890458E-6,399.99997616E-3,
,,,881.999905687E-6,399.99997616E-3,
,,,883.999920916E-6,399.99997616E-3,
,,,885.999877937E-6,399.99997616E-3,
,,,887.999893166E-6,399.99997616E-3,
,,,889.999908395E-6,399.99997616E-3,
,,,891.999923624E-6,399.99997616E-3,
,,,893.999880645E-6,399.99997616E-3,
,,,895.999895874E-6,399.99997616E-3,
,,,897.999911103E-6,399.99997616E-3,
,,,899.999926332E-6,399.99997616E-3,
,,,901.999883354E-6,399.99997616E-3,
,,,903.999898583E-6,399.99997616E-3,
,,,905.999913812E-6,399.99997616E-3,
,,,907.999929041E-6,399.99997616E-3,
,,,909.999886062E-6,399.99997616E-3,
,,,911.999901291E-6,399.99997616E-3,
,,,913.999916520E-6,399.99997616E-3,
,,,915.999931749E-6,319.99999285E-3,
,,,917.999888770E-6,399.99997616E-3,
,,,919.999903999E-6,319.99999285E-3,
,,,921.999919228E-6,399.99997616E-3,
,,,923.999934457E-6,399.99997616E-3,
,,,925.999891479E-6,319.99999285E-3,
,,,927.999906708E-6,399.99997616E-3,
,,,929.999921937E-6,399.99997616E-3,
,,,931.999878958E-6,319.99999285E-3,
,,,933.999894187E-6,319.99999285E-3,
,,,935.999909416E-6,399.99997616E-3,
,,,937.999924645E-6,399.99997616E-3,
,,,939.999881666E-6,319.99999285E-3,
,,,941.999896895E-6,319.99999285E-3,
,,,943.999912124E-6,399.99997616E-3,
,,,945.999927353E-6,399.99997616E-3,
,,,947.999884374E-6,319.99999285E-3,
,,,949.999899603E-6,319.99999285E-3,
,,,951.999914832E-6,399.99997616E-3,
,,,953.999930061E-6,319.99999285E-3,
,,,955.999887083E-6,319.99999285E-3,
,,,957.999902312E-6,319.99999285E-3,
,,,959.999917541E-6,319.99999285E-3,
,,,961.999932770E-6,399.99997616E-3,
,,,963.999889791E-6,319.99999285E-3,
,,,965.999905020E-6,319.99999285E-3,
,,,967.999920249E-6,319.99999285E-3,
,,,969.999877270E-6,319.99999285E-3,
,,,971.999892499E-6,399.99997616E-3,
,,,973.999907728E-6,319.99999285E-3,
,,,975.999922957E-6,319.99999285E-3,
,,,977.999879979E-6,319.99999285E-3,
,,,979.999895208E-6,399.99997616E-3,
,,,981.999910437E-6,319.99999285E-3,
,,,983.999925666E-6,319.99999285E-3,
,,,985.999940895E-6,319.99999285E-3,
,,,987.999956124E-6,319.99999285E-3,
,,,989.999854937E-6,319.99999285E-3,
,,,991.999870166E-6,319.99999285E-3,
,,,993.999885395E-6,319.99999285E-3,
,,,995.999900624E-6,319.99999285E-3,
,,,997.999915853E-6,319.99999285E-3,
,,,0.0E-3,399.99997616E-3,
,,,1.0019999E-3,319.99999285E-3,
,,,1.0040000E-3,319.99999285E-3,
,,,1.0059999E-3,399.99997616E-3,
,,,1.0079999E-3,319.99999285E-3,
,,,1.0099999E-3,399.99997616E-3,
,,,1.0119999E-3,319.99999285E-3,
,,,1.0139999E-3,319.99999285E-3,
,,,1.0159999E-3,319.99999285E-3,
,,,1.0180000E-3,319.99999285E-3,
,,,1.0199999E-3,319.99999285E-3,
,,,1.0219999E-3,319.99999285E-3,
,,,1.0239999E-3,319.99999285E-3,
,,,1.0259999E-3,319.99999285E-3,
,,,1.0279999E-3,319.99999285E-3,
,,,1.0299999E-3,319.99999285E-3,
,,,1.0319999E-3,319.99999285E-3,
,,,1.0340000E-3,319.99999285E-3,
,,,1.0359999E-3,319.99999285E-3,
,,,1.0379999E-3,319.99999285E-3,
,,,1.0399999E-3,319.99999285E-3,
,,,1.0419999E-3,399.99997616E-3,
,,,1.0439999E-3,319.99999285E-3,
,,,1.0459999E-3,319.99999285E-3,
,,,1.0479999E-3,319.99999285E-3,
,,,1.0500000E-3,319.99999285E-3,
,,,1.0519999E-3,319.99999285E-3,
,,,1.0539999E-3,399.99997616E-3,
,,,1.0559999E-3,319.99999285E-3,
,,,1.0579999E-3,319.99999285E-3,
,,,1.0599999E-3,319.99999285E-3,
,,,1.0619999E-3,319.99999285E-3,
,,,1.0640000E-3,319.99999285E-3,
,,,1.0659999E-3,319.99999285E-3,
,,,1.0679999E-3,319.99999285E-3,
,,,1.0699999E-3,319.99999285E-3,
,,,1.0719999E-3,319.99999285E-3,
,,,1.0739999E-3,319.99999285E-3,
,,,1.0759999E-3,319.99999285E-3,
,,,1.0779999E-3,319.99999285E-3,
,,,1.0800000E-3,319.99999285E-3,
,,,1.0819999E-3,319.99999285E-3,
,,,1.0839999E-3,319.99999285E-3,
,,,1.0859999E-3,319.99999285E-3,
,,,1.0879999E-3,319.99999285E-3,
,,,1.0899999E-3,319.99999285E-3,
,,,1.0919999E-3,319.99999285E-3,
,,,1.0939999E-3,319.99999285E-3,
,,,1.0960000E-3,319.99999285E-3,
,,,1.0979999E-3,319.99999285E-3,
,,,1.0999999E-3,319.99999285E-3,
,,,1.1019999E-3,319.99999285E-3,
,,,1.1039999E-3,319.99999285E-3,
,,,1.1059999E-3,319.99999285E-3,
,,,1.1079999E-3,319.99999285E-3,
,,,1.1100000E-3,319.99999285E-3,
,,,1.1119999E-3,399.99997616E-3,
,,,1.1139999E-3,319.99999285E-3,
,,,1.1159999E-3,319.99999285E-3,
,,,1.1179999E-3,319.99999285E-3,
,,,1.1199999E-3,319.99999285E-3,
,,,1.1219999E-3,319.99999285E-3,
,,,1.1239999E-3,319.99999285E-3,
,,,1.1260000E-3,319.99999285E-3,
,,,1.1279999E-3,319.99999285E-3,
,,,1.1299999E-3,319.99999285E-3,
,,,1.1319999E-3,319.99999285E-3,
,,,1.1339999E-3,319.99999285E-3,
,,,1.1359999E-3,319.99999285E-3,
,,,1.1379999E-3,319.99999285E-3,
,,,1.1399999E-3,319.99999285E-3,
,,,1.1419998E-3,239.99999464E-3,
,,,1.1439999E-3,319.99999285E-3,
,,,1.1459999E-3,319.99999285E-3,
,,,1.1479999E-3,319.99999285E-3,
,,,1.1499999E-3,239.99999464E-3,
,,,1.1519999E-3,319.99999285E-3,
,,,1.1539999E-3,319.99999285E-3,
,,,1.1560000E-3,319.99999285E-3,
,,,1.1579999E-3,239.99999464E-3,
,,,1.1599999E-3,319.99999285E-3,
,,,1.1619999E-3,319.99999285E-3,
,,,1.1639999E-3,239.99999464E-3,
,,,1.1659999E-3,319.99999285E-3,
,,,1.1679999E-3,319.99999285E-3,
,,,1.1699999E-3,239.99999464E-3,
,,,1.1720000E-3,319.99999285E-3,
,,,1.1739999E-3,319.99999285E-3,
,,,1.1759999E-3,319.99999285E-3,
,,,1.1779999E-3,319.99999285E-3,
,,,1.1799999E-3,319.99999285E-3,
,,,1.1819999E-3,319.99999285E-3,
,,,1.1839999E-3,319.99999285E-3,
,,,1.1860000E-3,319.99999285E-3,
,,,1.1879998E-3,239.99999464E-3,
,,,1.1899999E-3,319.99999285E-3,
,,,1.1919999E-3,319.99999285E-3,
,,,1.1939999E-3,319.99999285E-3,
,,,1.1959999E-3,319.99999285E-3,
,,,1.1979999E-3,239.99999464E-3,
,,,1.1999999E-3,319.99999285E-3,
,,,1.2020000E-3,239.99999464E-3,
,,,1.2039999E-3,319.99999285E-3,
,,,1.2059999E-3,319.99999285E-3,
,,,1.2079999E-3,239.99999464E-3,
,,,1.2099999E-3,239.99999464E-3,
,,,1.2119999E-3,319.99999285E-3,
,,,1.2139999E-3,319.99999285E-3,
,,,1.2159999E-3,239.99999464E-3,
,,,1.2180000E-3,239.99999464E-3,
,,,1.2199999E-3,239.99999464E-3,
,,,1.2219999E-3,239.99999464E-3,
,,,1.2239999E-3,319.99999285E-3,
,,,1.2259999E-3,319.99999285E-3,
,,,1.2279999E-3,319.99999285E-3,
,,,1.2299999E-3,319.99999285E-3,
,,,1.2320000E-3,319.99999285E-3,
,,,1.2339999E-3,239.99999464E-3,
,,,1.2359999E-3,319.99999285E-3,
,,,1.2379999E-3,239.99999464E-3,
,,,1.2399999E-3,239.99999464E-3,
,,,1.2419999E-3,239.99999464E-3,
,,,1.2439999E-3,239.99999464E-3,
,,,1.2459999E-3,319.99999285E-3,
,,,1.2480000E-3,239.99999464E-3,
,,,1.2499999E-3,239.99999464E-3,
,,,1.2519999E-3,239.99999464E-3,
,,,1.2539999E-3,319.99999285E-3,
,,,1.2559999E-3,319.99999285E-3,
,,,1.2579999E-3,319.99999285E-3,
,,,1.2599999E-3,239.99999464E-3,
,,,1.2619999E-3,319.99999285E-3,
,,,1.2640000E-3,239.99999464E-3,
,,,1.2659999E-3,239.99999464E-3,
,,,1.2679999E-3,239.99999464E-3,
,,,1.2699999E-3,239.99999464E-3,
,,,1.2719999E-3,239.99999464E-3,
,,,1.2739999E-3,239.99999464E-3,
,,,1.2759999E-3,239.99999464E-3,
,,,1.2780000E-3,239.99999464E-3,
,,,1.2799999E-3,319.99999285E-3,
,,,1.2819999E-3,239.99999464E-3,
,,,1.2839999E-3,239.99999464E-3,
,,,1.2859999E-3,239.99999464E-3,
,,,1.2879999E-3,239.99999464E-3,
,,,1.2899999E-3,319.99999285E-3,
,,,1.2919999E-3,239.99999464E-3,
,,,1.2940000E-3,319.99999285E-3,
,,,1.2959999E-3,239.99999464E-3,
,,,1.2979999E-3,319.99999285E-3,
,,,1.2999999E-3,239.99999464E-3,
,,,1.3019999E-3,239.99999464E-3,
,,,1.3039999E-3,319.99999285E-3,
,,,1.3059999E-3,239.99999464E-3,
,,,1.3079999E-3,319.99999285E-3,
,,,1.3100000E-3,239.99999464E-3,
,,,1.3119999E-3,239.99999464E-3,
,,,1.3139999E-3,239.99999464E-3,
,,,1.3159999E-3,239.99999464E-3,
,,,1.3179999E-3,239.99999464E-3,
,,,1.3199999E-3,239.99999464E-3,
,,,1.3219999E-3,239.99999464E-3,
,,,1.3240000E-3,239.99999464E-3,
,,,1.3259999E-3,239.99999464E-3,
,,,1.3279999E-3,239.99999464E-3,
,,,1.3299999E-3,239.99999464E-3,
,,,1.3319999E-3,239.99999464E-3,
,,,1.3339999E-3,319.99999285E-3,
,,,1.3359999E-3,239.99999464E-3,
,,,1.3379999E-3,239.99999464E-3,
,,,1.3400000E-3,159.99999642E-3,
,,,1.3419999E-3,239.99999464E-3,
,,,1.3439999E-3,239.99999464E-3,
,,,1.3459999E-3,239.99999464E-3,
,,,1.3479999E-3,239.99999464E-3,
,,,1.3499999E-3,239.99999464E-3,
,,,1.3519999E-3,239.99999464E-3,
,,,1.3539999E-3,319.99999285E-3,
,,,1.3559998E-3,239.99999464E-3,
,,,1.3579999E-3,239.99999464E-3,
,,,1.3599999E-3,239.99999464E-3,
,,,1.3619999E-3,239.99999464E-3,
,,,1.3639999E-3,319.99999285E-3,
,,,1.3659999E-3,239.99999464E-3,
,,,1.3679999E-3,239.99999464E-3,
,,,1.3700000E-3,239.99999464E-3,
,,,1.3719999E-3,239.99999464E-3,
,,,1.3739999E-3,239.99999464E-3,
,,,1.3759999E-3,239.99999464E-3,
,,,1.3779999E-3,239.99999464E-3,
,,,1.3799999E-3,239.99999464E-3,
,,,1.3819999E-3,239.99999464E-3,
,,,1.3839999E-3,239.99999464E-3,
,,,1.3860000E-3,239.99999464E-3,
,,,1.3879999E-3,239.99999464E-3,
,,,1.3899999E-3,239.99999464E-3,
,,,1.3919999E-3,239.99999464E-3,
,,,1.3939999E-3,239.99999464E-3,
,,,1.3959999E-3,239.99999464E-3,
,,,1.3979999E-3,239.99999464E-3,
,,,1.4000000E-3,239.99999464E-3,
,,,1.4019998E-3,239.99999464E-3,
,,,1.4039999E-3,239.99999464E-3,
,,,1.4059999E-3,239.99999464E-3,
,,,1.4079999E-3,239.99999464E-3,
,,,1.4099999E-3,239.99999464E-3,
,,,1.4119999E-3,239.99999464E-3,
,,,1.4139999E-3,239.99999464E-3,
,,,1.4160000E-3,239.99999464E-3,
,,,1.4179999E-3,239.99999464E-3,
,,,1.4199999E-3,319.99999285E-3,
,,,1.4219999E-3,239.99999464E-3,
,,,1.4239999E-3,239.99999464E-3,
,,,1.4259999E-3,239.99999464E-3,
,,,1.4279999E-3,239.99999464E-3,
,,,1.4299999E-3,239.99999464E-3,
,,,1.4320000E-3,239.99999464E-3,
,,,1.4339999E-3,239.99999464E-3,
,,,1.4359999E-3,239.99999464E-3,
,,,1.4379999E-3,239.99999464E-3,
,,,1.4399999E-3,239.99999464E-3,
,,,1.4419999E-3,239.99999464E-3,
,,,1.4439999E-3,239.99999464E-3,
,,,1.4460000E-3,239.99999464E-3,
,,,1.4479998E-3,239.99999464E-3,
,,,1.4499999E-3,239.99999464E-3,
,,,1.4519999E-3,239.99999464E-3,
,,,1.4539999E-3,239.99999464E-3,
,,,1.4559999E-3,239.99999464E-3,
,,,1.4579999E-3,239.99999464E-3,
,,,1.4599999E-3,239.99999464E-3,
,,,1.4620000E-3,319.99999285E-3,
,,,1.4639999E-3,159.99999642E-3,
,,,1.4659999E-3,239.99999464E-3,
,,,1.4679999E-3,239.99999464E-3,
,,,1.4699999E-3,239.99999464E-3,
,,,1.4719999E-3,239.99999464E-3,
,,,1.4739999E-3,159.99999642E-3,
,,,1.4759999E-3,239.99999464E-3,
,,,1.4780000E-3,239.99999464E-3,
,,,1.4799999E-3,239.99999464E-3,
,,,1.4819999E-3,239.99999464E-3,
,,,1.4839999E-3,159.99999642E-3,
,,,1.4859999E-3,239.99999464E-3,
,,,1.4879999E-3,239.99999464E-3,
,,,1.4899999E-3,239.99999464E-3,
,,,1.4920000E-3,239.99999464E-3,
,,,1.4939999E-3,239.99999464E-3,
,,,1.4959999E-3,159.99999642E-3,
,,,1.4979999E-3,239.99999464E-3,
,,,1.4999999E-3,239.99999464E-3,
,,,1.5019999E-3,239.99999464E-3,
,,,1.5039999E-3,239.99999464E-3,
,,,1.5059999E-3,239.99999464E-3,
,,,1.5080000E-3,239.99999464E-3,
,,,1.5099999E-3,239.99999464E-3,
,,,1.5119999E-3,239.99999464E-3,
,,,1.5139999E-3,159.99999642E-3,
,,,1.5159999E-3,239.99999464E-3,
,,,1.5179999E-3,159.99999642E-3,
,,,1.5199999E-3,239.99999464E-3,
,,,1.5219999E-3,239.99999464E-3,
,,,1.5240000E-3,159.99999642E-3,
,,,1.5259999E-3,239.99999464E-3,
,,,1.5279999E-3,239.99999464E-3,
,,,1.5299999E-3,239.99999464E-3,
,,,1.5319999E-3,239.99999464E-3,
,,,1.5339999E-3,239.99999464E-3,
,,,1.5359999E-3,239.99999464E-3,
,,,1.5380000E-3,239.99999464E-3,
,,,1.5399999E-3,239.99999464E-3,
,,,1.5419999E-3,239.99999464E-3,
,,,1.5439999E-3,239.99999464E-3,
,,,1.5459999E-3,239.99999464E-3,
,,,1.5479999E-3,159.99999642E-3,
,,,1.5499999E-3,239.99999464E-3,
,,,1.5519999E-3,239.99999464E-3,
,,,1.5540000E-3,239.99999464E-3,
,,,1.5559999E-3,239.99999464E-3,
,,,1.5579999E-3,239.99999464E-3,
,,,1.5599999E-3,239.99999464E-3,
,,,1.5619999E-3,239.99999464E-3,
,,,1.5639999E-3,159.99999642E-3,
,,,1.5659999E-3,239.99999464E-3,
,,,1.5679999E-3,239.99999464E-3,
,,,1.5699998E-3,239.99999464E-3,
,,,1.5719999E-3,159.99999642E-3,
,,,1.5739999E-3,239.99999464E-3,
,,,1.5759999E-3,239.99999464E-3,
,,,1.5779999E-3,159.99999642E-3,
,,,1.5799999E-3,159.99999642E-3,
,,,1.5819999E-3,159.99999642E-3,
,,,1.5840000E-3,239.99999464E-3,
,,,1.5859999E-3,159.99999642E-3,
,,,1.5879999E-3,239.99999464E-3,
,,,1.5899999E-3,239.99999464E-3,
,,,1.5919999E-3,159.99999642E-3,
,,,1.5939999E-3,239.99999464E-3,
,,,1.5959999E-3,159.99999642E-3,
,,,1.5979999E-3,159.99999642E-3,
,,,1.6000000E-3,239.99999464E-3,
,,,1.6019999E-3,239.99999464E-3,
,,,1.6039999E-3,159.99999642E-3,
,,,1.6059999E-3,239.99999464E-3,
,,,1.6079999E-3,239.99999464E-3,
,,,1.6099999E-3,159.99999642E-3,
,,,1.6119999E-3,159.99999642E-3,
,,,1.6139999E-3,239.99999464E-3,
,,,1.6159998E-3,239.99999464E-3,
,,,1.6179999E-3,159.99999642E-3,
,,,1.6199999E-3,239.99999464E-3,
,,,1.6219999E-3,239.99999464E-3,
,,,1.6239999E-3,159.99999642E-3,
,,,1.6259999E-3,239.99999464E-3,
,,,1.6279999E-3,239.99999464E-3,
,,,1.6300000E-3,239.99999464E-3,
,,,1.6319999E-3,239.99999464E-3,
,,,1.6339999E-3,159.99999642E-3,
,,,1.6359999E-3,159.99999642E-3,
,,,1.6379999E-3,239.99999464E-3,
,,,1.6399999E-3,159.99999642E-3,
,,,1.6419999E-3,159.99999642E-3,
,,,1.6439999E-3,159.99999642E-3,
,,,1.6460000E-3,239.99999464E-3,
,,,1.6479999E-3,239.99999464E-3,
,,,1.6499999E-3,239.99999464E-3,
,,,1.6519999E-3,239.99999464E-3,
,,,1.6539999E-3,159.99999642E-3,
,,,1.6559999E-3,159.99999642E-3,
,,,1.6579999E-3,159.99999642E-3,
,,,1.6600000E-3,239.99999464E-3,
,,,1.6619998E-3,159.99999642E-3,
,,,1.6639999E-3,159.99999642E-3,
,,,1.6659999E-3,159.99999642E-3,
,,,1.6679999E-3,239.99999464E-3,
,,,1.6699999E-3,159.99999642E-3,
,,,1.6719999E-3,239.99999464E-3,
,,,1.6739999E-3,239.99999464E-3,
,,,1.6760000E-3,159.99999642E-3,
,,,1.6779999E-3,239.99999464E-3,
,,,1.6799999E-3,159.99999642E-3,
,,,1.6819999E-3,239.99999464E-3,
,,,1.6839999E-3,159.99999642E-3,
,,,1.6859999E-3,159.99999642E-3,
,,,1.6879999E-3,159.99999642E-3,
,,,1.6899999E-3,159.99999642E-3,
,,,1.6920000E-3,239.99999464E-3,
,,,1.6939999E-3,159.99999642E-3,
,,,1.6959999E-3,159.99999642E-3,
,,,1.6979999E-3,159.99999642E-3,
,,,1.6999999E-3,239.99999464E-3,
,,,1.7019999E-3,239.99999464E-3,
,,,1.7039999E-3,159.99999642E-3,
,,,1.7060000E-3,159.99999642E-3,
,,,1.7079999E-3,159.99999642E-3,
,,,1.7099999E-3,239.99999464E-3,
,,,1.7119999E-3,239.99999464E-3,
,,,1.7139999E-3,239.99999464E-3,
,,,1.7159999E-3,159.99999642E-3,
,,,1.7179999E-3,159.99999642E-3,
,,,1.7199999E-3,239.99999464E-3,
,,,1.7220000E-3,159.99999642E-3,
,,,1.7239999E-3,159.99999642E-3,
,,,1.7259999E-3,239.99999464E-3,
,,,1.7279999E-3,239.99999464E-3,
,,,1.7299999E-3,159.99999642E-3,
,,,1.7319999E-3,239.99999464E-3,
,,,1.7339999E-3,159.99999642E-3,
,,,1.7359999E-3,239.99999464E-3,
,,,1.7379998E-3,159.99999642E-3,
,,,1.7399999E-3,159.99999642E-3,
,,,1.7419999E-3,159.99999642E-3,
,,,1.7439999E-3,239.99999464E-3,
,,,1.7459999E-3,159.99999642E-3,
,,,1.7479999E-3,159.99999642E-3,
,,,1.7499999E-3,159.99999642E-3,
,,,1.7520000E-3,159.99999642E-3,
,,,1.7539999E-3,159.99999642E-3,
,,,1.7559999E-3,159.99999642E-3,
,,,1.7579999E-3,239.99999464E-3,
,,,1.7599999E-3,159.99999642E-3,
,,,1.7619999E-3,159.99999642E-3,
,,,1.7639999E-3,159.99999642E-3,
,,,1.7659999E-3,159.99999642E-3,
,,,1.7680000E-3,159.99999642E-3,
,,,1.7699999E-3,159.99999642E-3,
,,,1.7719999E-3,239.99999464E-3,
,,,1.7739999E-3,159.99999642E-3,
,,,1.7759999E-3,159.99999642E-3,
,,,1.7779999E-3,159.99999642E-3,
,,,1.7799999E-3,159.99999642E-3,
,,,1.7819999E-3,159.99999642E-3,
,,,1.7839998E-3,159.99999642E-3,
,,,1.7859999E-3,159.99999642E-3,
,,,1.7879999E-3,159.99999642E-3,
,,,1.7899999E-3,159.99999642E-3,
,,,1.7919999E-3,239.99999464E-3,
,,,1.7939999E-3,159.99999642E-3,
,,,1.7959999E-3,159.99999642E-3,
,,,1.7980000E-3,159.99999642E-3,
,,,1.7999999E-3,159.99999642E-3,
,,,1.8019999E-3,159.99999642E-3,
,,,1.8039999E-3,159.99999642E-3,
,,,1.8059999E-3,159.99999642E-3,
,,,1.8079999E-3,159.99999642E-3,
,,,1.8099999E-3,159.99999642E-3,
,,,1.8119999E-3,159.99999642E-3,
,,,1.8140000E-3,159.99999642E-3,
,,,1.8159999E-3,159.99999642E-3,
,,,1.8179999E-3,159.99999642E-3,
,,,1.8199999E-3,159.99999642E-3,
,,,1.8219999E-3,159.99999642E-3,
,,,1.8239999E-3,159.99999642E-3,
,,,1.8259999E-3,159.99999642E-3,
,,,1.8279999E-3,159.99999642E-3,
,,,1.8299998E-3,159.99999642E-3,
,,,1.8319999E-3,159.99999642E-3,
,,,1.8339999E-3,159.99999642E-3,
,,,1.8359999E-3,159.99999642E-3,
,,,1.8379999E-3,239.99999464E-3,
,,,1.8399999E-3,159.99999642E-3,
,,,1.8419999E-3,159.99999642E-3,
,,,1.8440000E-3,159.99999642E-3,
,,,1.8459999E-3,159.99999642E-3,
,,,1.8479999E-3,159.99999642E-3,
,,,1.8499999E-3,159.99999642E-3,
,,,1.8519999E-3,159.99999642E-3,
,,,1.8539999E-3,159.99999642E-3,
,,,1.8559999E-3,159.99999642E-3,
,,,1.8579999E-3,159.99999642E-3,
,,,1.8600000E-3,159.99999642E-3,
,,,1.8619999E-3,159.99999642E-3,
,,,1.8639999E-3,159.99999642E-3,
,,,1.8659999E-3,159.99999642E-3,
,,,1.8679999E-3,239.99999464E-3,
,,,1.8699999E-3,159.99999642E-3,
,,,1.8719999E-3,159.99999642E-3,
,,,1.8740000E-3,159.99999642E-3,
,,,1.8759998E-3,159.99999642E-3,
,,,1.8779999E-3,159.99999642E-3,
,,,1.8799999E-3,159.99999642E-3,
,,,1.8819999E-3,159.99999642E-3,
,,,1.8839999E-3,159.99999642E-3,
,,,1.8859999E-3,239.99999464E-3,
,,,1.8879999E-3,159.99999642E-3,
,,,1.8900000E-3,159.99999642E-3,
,,,1.8919999E-3,159.99999642E-3,
,,,1.8939999E-3,159.99999642E-3,
,,,1.8959999E-3,159.99999642E-3,
,,,1.8979999E-3,159.99999642E-3,
,,,1.8999999E-3,159.99999642E-3,
,,,1.9019999E-3,159.99999642E-3,
,,,1.9039999E-3,159.99999642E-3,
,,,1.9060000E-3,159.99999642E-3,
,,,1.9079999E-3,159.99999642E-3,
,,,1.9099999E-3,159.99999642E-3,
,,,1.9119999E-3,159.99999642E-3,
,,,1.9139999E-3,159.99999642E-3,
,,,1.9159999E-3,159.99999642E-3,
,,,1.9179999E-3,159.99999642E-3,
,,,1.9200000E-3,159.99999642E-3,
,,,1.9219999E-3,159.99999642E-3,
,,,1.9239999E-3,159.99999642E-3,
,,,1.9259999E-3,159.99999642E-3,
,,,1.9279999E-3,159.99999642E-3,
,,,1.9299999E-3,159.99999642E-3,
,,,1.9319999E-3,159.99999642E-3,
,,,1.9339999E-3,159.99999642E-3,
,,,1.9360000E-3,159.99999642E-3,
,,,1.9379999E-3,159.99999642E-3,
,,,1.9399999E-3,79.999998212E-3,
,,,1.9419999E-3,159.99999642E-3,
,,,1.9439999E-3,159.99999642E-3,
,,,1.9459999E-3,159.99999642E-3,
,,,1.9479999E-3,159.99999642E-3,
,,,1.9499999E-3,159.99999642E-3,
,,,1.9519998E-3,159.99999642E-3,
,,,1.9540000E-3,159.99999642E-3,
,,,1.9560000E-3,159.99999642E-3,
,,,1.9580000E-3,239.99999464E-3,
,,,1.9599998E-3,159.99999642E-3,
,,,1.9619998E-3,159.99999642E-3,
,,,1.9639998E-3,159.99999642E-3,
,,,1.9659998E-3,159.99999642E-3,
,,,1.9679999E-3,159.99999642E-3,
,,,1.9699999E-3,159.99999642E-3,
,,,1.9719999E-3,159.99999642E-3,
,,,1.9739999E-3,159.99999642E-3,
,,,1.9759999E-3,159.99999642E-3,
,,,1.9779999E-3,159.99999642E-3,
,,,1.9799999E-3,159.99999642E-3,
,,,1.9820000E-3,159.99999642E-3,
,,,1.9840000E-3,159.99999642E-3,
,,,1.9860000E-3,159.99999642E-3,
,,,1.9880000E-3,159.99999642E-3,
,,,1.9900000E-3,159.99999642E-3,
,,,1.9919998E-3,159.99999642E-3,
,,,1.9939998E-3,159.99999642E-3,
,,,1.9959998E-3,159.99999642E-3,
,,,1.9979998E-3,159.99999642E-3,
,,,1.9999999E-3,159.99999642E-3,
,,,2.0019999E-3,159.99999642E-3,
,,,2.0039999E-3,159.99999642E-3,
,,,2.0059999E-3,159.99999642E-3,
,,,2.0079999E-3,159.99999642E-3,
,,,2.0099999E-3,159.99999642E-3,
,,,2.0120000E-3,79.999998212E-3,
,,,2.0140000E-3,159.99999642E-3,
,,,2.0160000E-3,159.99999642E-3,
,,,2.0180000E-3,79.999998212E-3,
,,,2.0200000E-3,159.99999642E-3,
,,,2.0219998E-3,159.99999642E-3,
,,,2.0239998E-3,79.999998212E-3,
,,,2.0259998E-3,159.99999642E-3,
,,,2.0279998E-3,159.99999642E-3,
,,,2.0299999E-3,159.99999642E-3,
,,,2.0319999E-3,159.99999642E-3,
,,,2.0339999E-3,159.99999642E-3,
,,,2.0359999E-3,159.99999642E-3,
,,,2.0379999E-3,159.99999642E-3,
,,,2.0399999E-3,159.99999642E-3,
,,,2.0419999E-3,159.99999642E-3,
,,,2.0440000E-3,159.99999642E-3,
,,,2.0460000E-3,159.99999642E-3,
,,,2.0480000E-3,159.99999642E-3,
,,,2.0500000E-3,159.99999642E-3,
,,,2.0519998E-3,159.99999642E-3,
,,,2.0539998E-3,159.99999642E-3,
,,,2.0559998E-3,159.99999642E-3,
,,,2.0579998E-3,159.99999642E-3,
,,,2.0599999E-3,159.99999642E-3,
,,,2.0619999E-3,159.99999642E-3,
,,,2.0639999E-3,159.99999642E-3,
,,,2.0659999E-3,159.99999642E-3,
,,,2.0679999E-3,159.99999642E-3,
,,,2.0699999E-3,159.99999642E-3,
,,,2.0719999E-3,159.99999642E-3,
,,,2.0740000E-3,159.99999642E-3,
,,,2.0760000E-3,159.99999642E-3,
,,,2.0780000E-3,159.99999642E-3,
,,,2.0800000E-3,159.99999642E-3,
,,,2.0819998E-3,159.99999642E-3,
,,,2.0839998E-3,159.99999642E-3,
,,,2.0859998E-3,159.99999642E-3,
,,,2.0879998E-3,159.99999642E-3,
,,,2.0899998E-3,159.99999642E-3,
,,,2.0919999E-3,79.999998212E-3,
,,,2.0939999E-3,159.99999642E-3,
,,,2.0959999E-3,159.99999642E-3,
,,,2.0979999E-3,159.99999642E-3,
,,,2.0999999E-3,79.999998212E-3,
,,,2.1019999E-3,159.99999642E-3,
,,,2.1040000E-3,159.99999642E-3,
,,,2.1060000E-3,159.99999642E-3,
,,,2.1080000E-3,159.99999642E-3,
,,,2.1100000E-3,159.99999642E-3,
,,,2.1120000E-3,159.99999642E-3,
,,,2.1139998E-3,159.99999642E-3,
,,,2.1159998E-3,159.99999642E-3,
,,,2.1179998E-3,159.99999642E-3,
,,,2.1199998E-3,79.999998212E-3,
,,,2.1219999E-3,159.99999642E-3,
,,,2.1239999E-3,159.99999642E-3,
,,,2.1259999E-3,159.99999642E-3,
,,,2.1279999E-3,159.99999642E-3,
,,,2.1299999E-3,159.99999642E-3,
,,,2.1319999E-3,159.99999642E-3,
,,,2.1340000E-3,159.99999642E-3,
,,,2.1360000E-3,159.99999642E-3,
,,,2.1380000E-3,159.99999642E-3,
,,,2.1400000E-3,79.999998212E-3,
,,,2.1420000E-3,159.99999642E-3,
,,,2.1439998E-3,159.99999642E-3,
,,,2.1459998E-3,159.99999642E-3,
,,,2.1479998E-3,159.99999642E-3,
,,,2.1499998E-3,159.99999642E-3,
,,,2.1519999E-3,159.99999642E-3,
,,,2.1539999E-3,159.99999642E-3,
,,,2.1559999E-3,159.99999642E-3,
,,,2.1579999E-3,159.99999642E-3,
,,,2.1599999E-3,79.999998212E-3,
,,,2.1619999E-3,159.99999642E-3,
,,,2.1639999E-3,79.999998212E-3,
,,,2.1660000E-3,159.99999642E-3,
,,,2.1680000E-3,79.999998212E-3,
,,,2.1700000E-3,159.99999642E-3,
,,,2.1720000E-3,159.99999642E-3,
,,,2.1739998E-3,159.99999642E-3,
,,,2.1759998E-3,79.999998212E-3,
,,,2.1779998E-3,159.99999642E-3,
,,,2.1799998E-3,159.99999642E-3,
,,,2.1819999E-3,159.99999642E-3,
,,,2.1839999E-3,159.99999642E-3,
,,,2.1859999E-3,159.99999642E-3,
,,,2.1879999E-3,159.99999642E-3,
,,,2.1899999E-3,79.999998212E-3,
,,,2.1919999E-3,159.99999642E-3,
,,,2.1939999E-3,159.99999642E-3,
,,,2.1960000E-3,79.999998212E-3,
,,,2.1980000E-3,159.99999642E-3,
,,,2.2000000E-3,159.99999642E-3,
,,,2.2020000E-3,159.99999642E-3,
,,,2.2040000E-3,159.99999642E-3,
,,,2.2059998E-3,159.99999642E-3,
,,,2.2079998E-3,159.99999642E-3,
,,,2.2099998E-3,79.999998212E-3,
,,,2.2119998E-3,159.99999642E-3,
,,,2.2139999E-3,159.99999642E-3,
,,,2.2159999E-3,159.99999642E-3,
,,,2.2179999E-3,159.99999642E-3,
,,,2.2199999E-3,159.99999642E-3,
,,,2.2219999E-3,159.99999642E-3,
,,,2.2239999E-3,159.99999642E-3,
,,,2.2260000E-3,159.99999642E-3,
,,,2.2280000E-3,79.999998212E-3,
,,,2.2300000E-3,159.99999642E-3,
,,,2.2320000E-3,159.99999642E-3,
,,,2.2340000E-3,159.99999642E-3,
,,,2.2359998E-3,159.99999642E-3,
,,,2.2379998E-3,79.999998212E-3,
,,,2.2399998E-3,159.99999642E-3,
,,,2.2419998E-3,79.999998212E-3,
,,,2.2439999E-3,159.99999642E-3,
,,,2.2459999E-3,159.99999642E-3,
,,,2.2479999E-3,79.999998212E-3,
,,,2.2499999E-3,79.999998212E-3,
,,,2.2519999E-3,159.99999642E-3,
,,,2.2539999E-3,79.999998212E-3,
,,,2.2559999E-3,159.99999642E-3,
,,,2.2580000E-3,159.99999642E-3,
,,,2.2600000E-3,159.99999642E-3,
,,,2.2620000E-3,79.999998212E-3,
,,,2.2640000E-3,159.99999642E-3,
,,,2.2659998E-3,159.99999642E-3,
,,,2.2679998E-3,159.99999642E-3,
,,,2.2699998E-3,79.999998212E-3,
,,,2.2719998E-3,159.99999642E-3,
,,,2.2739999E-3,159.99999642E-3,
,,,2.2759999E-3,159.99999642E-3,
,,,2.2779999E-3,159.99999642E-3,
,,,2.2799999E-3,159.99999642E-3,
,,,2.2819999E-3,159.99999642E-3,
,,,2.2839999E-3,79.999998212E-3,
,,,2.2859999E-3,79.999998212E-3,
,,,2.2880000E-3,79.999998212E-3,
,,,2.2900000E-3,79.999998212E-3,
,,,2.2920000E-3,159.99999642E-3,
,,,2.2940000E-3,159.99999642E-3,
,,,2.2959998E-3,79.999998212E-3,
,,,2.2979998E-3,79.999998212E-3,
,,,2.2999998E-3,159.99999642E-3,
,,,2.3019998E-3,79.999998212E-3,
,,,2.3039998E-3,79.999998212E-3,
,,,2.3059999E-3,159.99999642E-3,
,,,2.3079999E-3,79.999998212E-3,
,,,2.3099999E-3,159.99999642E-3,
,,,2.3119999E-3,79.999998212E-3,
,,,2.3139999E-3,159.99999642E-3,
,,,2.3159999E-3,79.999998212E-3,
,,,2.3180000E-3,159.99999642E-3,
,,,2.3200000E-3,159.99999642E-3,
,,,2.3220000E-3,159.99999642E-3,
,,,2.3240000E-3,159.99999642E-3,
,,,2.3260000E-3,79.999998212E-3,
,,,2.3279998E-3,159.99999642E-3,
,,,2.3299998E-3,159.99999642E-3,
,,,2.3319998E-3,159.99999642E-3,
,,,2.3339998E-3,159.99999642E-3,
,,,2.3359999E-3,159.99999642E-3,
,,,2.3379999E-3,159.99999642E-3,
,,,2.3399999E-3,159.99999642E-3,
,,,2.3419999E-3,79.999998212E-3,
,,,2.3439999E-3,159.99999642E-3,
,,,2.3459999E-3,159.99999642E-3,
,,,2.3480000E-3,79.999998212E-3,
,,,2.3500000E-3,159.99999642E-3,
,,,2.3520000E-3,159.99999642E-3,
,,,2.3540000E-3,79.999998212E-3,
,,,2.3560000E-3,159.99999642E-3,
,,,2.3579998E-3,79.999998212E-3,
,,,2.3599998E-3,79.999998212E-3,
,,,2.3619998E-3,79.999998212E-3,
,,,2.3639998E-3,159.99999642E-3,
,,,2.3659999E-3,159.99999642E-3,
,,,2.3679999E-3,79.999998212E-3,
,,,2.3699999E-3,79.999998212E-3,
,,,2.3719999E-3,79.999998212E-3,
,,,2.3739999E-3,159.99999642E-3,
,,,2.3759999E-3,159.99999642E-3,
,,,2.3779999E-3,159.99999642E-3,
,,,2.3800000E-3,79.999998212E-3,
,,,2.3820000E-3,159.99999642E-3,
,,,2.3840000E-3,159.99999642E-3,
,,,2.3860000E-3,159.99999642E-3,
,,,2.3879998E-3,159.99999642E-3,
,,,2.3899998E-3,79.999998212E-3,
,,,2.3919998E-3,79.999998212E-3,
,,,2.3939998E-3,79.999998212E-3,
,,,2.3959999E-3,79.999998212E-3,
,,,2.3979999E-3,79.999998212E-3,
,,,2.3999999E-3,159.99999642E-3,
,,,2.4019999E-3,79.999998212E-3,
,,,2.4039999E-3,159.99999642E-3,
,,,2.4059999E-3,159.99999642E-3,
,,,2.4079999E-3,79.999998212E-3,
,,,2.4100000E-3,159.99999642E-3,
,,,2.4120000E-3,79.999998212E-3,
,,,2.4140000E-3,159.99999642E-3,
,,,2.4160000E-3,159.99999642E-3,
,,,2.4180000E-3,79.999998212E-3,
,,,2.4199998E-3,79.999998212E-3,
,,,2.4219998E-3,159.99999642E-3,
,,,2.4239998E-3,159.99999642E-3,
,,,2.4259998E-3,79.999998212E-3,
,,,2.4279999E-3,159.99999642E-3,
,,,2.4299999E-3,79.999998212E-3,
,,,2.4319999E-3,79.999998212E-3,
,,,2.4339999E-3,79.999998212E-3,
,,,2.4359999E-3,159.99999642E-3,
,,,2.4379999E-3,79.999998212E-3,
,,,2.4400000E-3,79.999998212E-3,
,,,2.4420000E-3,159.99999642E-3,
,,,2.4440000E-3,159.99999642E-3,
,,,2.4460000E-3,159.99999642E-3,
,,,2.4480000E-3,79.999998212E-3,
,,,2.4499998E-3,159.99999642E-3,
,,,2.4519998E-3,159.99999642E-3,
,,,2.4539998E-3,79.999998212E-3,
,,,2.4559998E-3,79.999998212E-3,
,,,2.4579999E-3,79.999998212E-3,
,,,2.4599999E-3,79.999998212E-3,
,,,2.4619999E-3,79.999998212E-3,
,,,2.4639999E-3,79.999998212E-3,
,,,2.4659999E-3,79.999998212E-3,
,,,2.4679999E-3,79.999998212E-3,
,,,2.4699999E-3,159.99999642E-3,
,,,2.4720000E-3,159.99999642E-3,
,,,2.4740000E-3,79.999998212E-3,
,,,2.4760000E-3,79.999998212E-3,
,,,2.4780000E-3,79.999998212E-3,
,,,2.4799998E-3,79.999998212E-3,
,,,2.4819998E-3,79.999998212E-3,
,,,2.4839998E-3,159.99999642E-3,
,,,2.4859998E-3,79.999998212E-3,
,,,2.4879999E-3,159.99999642E-3,
,,,2.4899999E-3,159.99999642E-3,
,,,2.4919999E-3,159.99999642E-3,
,,,2.4939999E-3,159.99999642E-3,
,,,2.4959999E-3,79.999998212E-3,
,,,2.4979999E-3,159.99999642E-3,
,,,2.4999999E-3,79.999998212E-3,
,,,2.5020000E-3,79.999998212E-3,
,,,2.5040000E-3,79.999998212E-3,
,,,2.5060000E-3,79.999998212E-3,
,,,2.5080000E-3,79.999998212E-3,
,,,2.5099998E-3,79.999998212E-3,
,,,2.5119998E-3,79.999998212E-3,
,,,2.5139998E-3,159.99999642E-3,
,,,2.5159998E-3,79.999998212E-3,
,,,2.5179998E-3,79.999998212E-3,
,,,2.5199999E-3,159.99999642E-3,
,,,2.5219999E-3,79.999998212E-3,
,,,2.5239999E-3,159.99999642E-3,
,,,2.5259999E-3,79.999998212E-3,
,,,2.5279999E-3,159.99999642E-3,
,,,2.5299999E-3,79.999998212E-3,
,,,2.5320000E-3,79.999998212E-3,
,,,2.5340000E-3,79.999998212E-3,
,,,2.5360000E-3,79.999998212E-3,
,,,2.5380000E-3,79.999998212E-3,
,,,2.5400000E-3,159.99999642E-3,
,,,2.5419998E-3,79.999998212E-3,
,,,2.5439998E-3,79.999998212E-3,
,,,2.5459998E-3,79.999998212E-3,
,,,2.5479998E-3,159.99999642E-3,
,,,2.5499999E-3,79.999998212E-3,
,,,2.5519999E-3,79.999998212E-3,
,,,2.5539999E-3,79.999998212E-3,
,,,2.5559999E-3,79.999998212E-3,
,,,2.5579999E-3,79.999998212E-3,
,,,2.5599999E-3,159.99999642E-3,
,,,2.5620000E-3,79.999998212E-3,
,,,2.5640000E-3,79.999998212E-3,
,,,2.5660000E-3,159.99999642E-3,
,,,2.5680000E-3,79.999998212E-3,
,,,2.5700000E-3,159.99999642E-3,
,,,2.5719998E-3,79.999998212E-3,
,,,2.5739998E-3,159.99999642E-3,
,,,2.5759998E-3,79.999998212E-3,
,,,2.5779998E-3,159.99999642E-3,
,,,2.5799999E-3,79.999998212E-3,
,,,2.5819999E-3,159.99999642E-3,
,,,2.5839999E-3,79.999998212E-3,
,,,2.5859999E-3,79.999998212E-3,
,,,2.5879999E-3,79.999998212E-3,
,,,2.5899999E-3,79.999998212E-3,
,,,2.5919999E-3,159.99999642E-3,
,,,2.5940000E-3,159.99999642E-3,
,,,2.5960000E-3,79.999998212E-3,
,,,2.5980000E-3,79.999998212E-3,
,,,2.6000000E-3,159.99999642E-3,
,,,2.6019998E-3,159.99999642E-3,
,,,2.6039998E-3,159.99999642E-3,
,,,2.6059998E-3,79.999998212E-3,
,,,2.6079998E-3,159.99999642E-3,
,,,2.6099999E-3,79.999998212E-3,
,,,2.6119999E-3,79.999998212E-3,
,,,2.6139999E-3,79.999998212E-3,
,,,2.6159999E-3,79.999998212E-3,
,,,2.6179999E-3,79.999998212E-3,
,,,2.6199999E-3,159.99999642E-3,
,,,2.6219999E-3,159.99999642E-3,
,,,2.6240000E-3,79.999998212E-3,
,,,2.6260000E-3,159.99999642E-3,
,,,2.6280000E-3,159.99999642E-3,
,,,2.6300000E-3,79.999998212E-3,
,,,2.6320000E-3,79.999998212E-3,
,,,2.6339998E-3,79.999998212E-3,
,,,2.6359998E-3,79.999998212E-3,
,,,2.6379998E-3,79.999998212E-3,
,,,2.6399998E-3,79.999998212E-3,
,,,2.6419999E-3,159.99999642E-3,
,,,2.6439999E-3,79.999998212E-3,
,,,2.6459999E-3,79.999998212E-3,
,,,2.6479999E-3,79.999998212E-3,
,,,2.6499999E-3,79.999998212E-3,
,,,2.6519999E-3,79.999998212E-3,
,,,2.6540000E-3,79.999998212E-3,
,,,2.6560000E-3,79.999998212E-3,
,,,2.6580000E-3,159.99999642E-3,
,,,2.6600000E-3,79.999998212E-3,
,,,2.6620000E-3,79.999998212E-3,
,,,2.6639998E-3,159.99999642E-3,
,,,2.6659998E-3,159.99999642E-3,
,,,2.6679998E-3,79.999998212E-3,
,,,2.6699998E-3,79.999998212E-3,
,,,2.6719999E-3,79.999998212E-3,
,,,2.6739999E-3,79.999998212E-3,
,,,2.6759999E-3,79.999998212E-3,
,,,2.6779999E-3,79.999998212E-3,
,,,2.6799999E-3,79.999998212E-3,
,,,2.6819999E-3,79.999998212E-3,
,,,2.6839999E-3,79.999998212E-3,
,,,2.6860000E-3,79.999998212E-3,
,,,2.6880000E-3,79.999998212E-3,
,,,2.6900000E-3,79.999998212E-3,
,,,2.6920000E-3,79.999998212E-3,
,,,2.6939998E-3,159.99999642E-3,
,,,2.6959998E-3,79.999998212E-3,
,,,2.6979998E-3,79.999998212E-3,
,,,2.6999998E-3,159.99999642E-3,
,,,2.7019999E-3,79.999998212E-3,
,,,2.7039999E-3,79.999998212E-3,
,,,2.7059999E-3,159.99999642E-3,
,,,2.7079999E-3,79.999998212E-3,
,,,2.7099999E-3,79.999998212E-3,
,,,2.7119999E-3,159.99999642E-3,
,,,2.7139999E-3,79.999998212E-3,
,,,2.7160000E-3,79.999998212E-3,
,,,2.7180000E-3,79.999998212E-3,
,,,2.71999999E-3,159.99999642E-3,
,,,2.72200000E-3,79.999998212E-3,
,,,2.72399979E-3,79.999998212E-3,
,,,2.72599980E-3,79.999998212E-3,
,,,2.72799982E-3,79.999998212E-3,
,,,2.72999983E-3,79.999998212E-3,
,,,2.73199985E-3,79.999998212E-3,
,,,2.73399986E-3,79.999998212E-3,
,,,2.73599988E-3,79.999998212E-3,
,,,2.73799989E-3,79.999998212E-3,
,,,2.73999991E-3,79.999998212E-3,
,,,2.74199992E-3,159.99999642E-3,
,,,2.74399994E-3,79.999998212E-3,
,,,2.74599995E-3,79.999998212E-3,
,,,2.74799997E-3,79.999998212E-3,
,,,2.74999999E-3,79.999998212E-3,
,,,2.75200000E-3,79.999998212E-3,
,,,2.75400002E-3,79.999998212E-3,
,,,2.75599980E-3,159.99999642E-3,
,,,2.75799981E-3,159.99999642E-3,
,,,2.75999983E-3,79.999998212E-3,
,,,2.76199984E-3,79.999998212E-3,
,,,2.76399986E-3,79.999998212E-3,
,,,2.76599987E-3,79.999998212E-3,
,,,2.76799989E-3,159.99999642E-3,
,,,2.76999990E-3,79.999998212E-3,
,,,2.77199992E-3,79.999998212E-3,
,,,2.77399994E-3,79.999998212E-3,
,,,2.77599995E-3,159.99999642E-3,
,,,2.77799997E-3,79.999998212E-3,
,,,2.77999998E-3,79.999998212E-3,
,,,2.78200000E-3,159.99999642E-3,
,,,2.78400001E-3,79.999998212E-3,
,,,2.78599979E-3,79.999998212E-3,
,,,2.78799981E-3,79.999998212E-3,
,,,2.78999982E-3,79.999998212E-3,
,,,2.79199984E-3,79.999998212E-3,
,,,2.79399985E-3,0.0,
,,,2.79599987E-3,79.999998212E-3,
,,,2.79799988E-3,79.999998212E-3,
,,,2.79999990E-3,79.999998212E-3,
,,,2.80199992E-3,79.999998212E-3,
,,,2.80399993E-3,159.99999642E-3,
,,,2.80599995E-3,79.999998212E-3,
,,,2.80799996E-3,79.999998212E-3,
,,,2.80999998E-3,159.99999642E-3,
,,,2.81199999E-3,79.999998212E-3,
,,,2.81400001E-3,79.999998212E-3,
,,,2.81599979E-3,159.99999642E-3,
,,,2.81799980E-3,79.999998212E-3,
,,,2.81999982E-3,79.999998212E-3,
,,,2.82199983E-3,159.99999642E-3,
,,,2.82399985E-3,79.999998212E-3,
,,,2.82599987E-3,79.999998212E-3,
,,,2.82799988E-3,79.999998212E-3,
,,,2.82999990E-3,79.999998212E-3,
,,,2.83199991E-3,79.999998212E-3,
,,,2.83399993E-3,79.999998212E-3,
,,,2.83599994E-3,79.999998212E-3,
,,,2.83799996E-3,79.999998212E-3,
,,,2.83999997E-3,79.999998212E-3,
,,,2.84199999E-3,79.999998212E-3,
,,,2.84400000E-3,79.999998212E-3,
,,,2.84600002E-3,79.999998212E-3,
,,,2.84799980E-3,79.999998212E-3,
,,,2.84999982E-3,79.999998212E-3,
,,,2.85199983E-3,79.999998212E-3,
,,,2.85399985E-3,79.999998212E-3,
,,,2.85599986E-3,79.999998212E-3,
,,,2.85799988E-3,79.999998212E-3,
,,,2.85999989E-3,79.999998212E-3,
,,,2.86199991E-3,79.999998212E-3,
,,,2.86399992E-3,79.999998212E-3,
,,,2.86599994E-3,79.999998212E-3,
,,,2.86799995E-3,79.999998212E-3,
,,,2.86999997E-3,159.99999642E-3,
,,,2.87199998E-3,79.999998212E-3,
,,,2.87400000E-3,79.999998212E-3,
,,,2.87600001E-3,79.999998212E-3,
,,,2.87799980E-3,79.999998212E-3,
,,,2.87999981E-3,79.999998212E-3,
,,,2.88199983E-3,79.999998212E-3,
,,,2.88399984E-3,79.999998212E-3,
,,,2.88599986E-3,79.999998212E-3,
,,,2.88799987E-3,79.999998212E-3,
,,,2.88999989E-3,79.999998212E-3,
,,,2.89199990E-3,79.999998212E-3,
,,,2.89399992E-3,79.999998212E-3,
,,,2.89599993E-3,79.999998212E-3,
,,,2.89799995E-3,79.999998212E-3,
,,,2.89999996E-3,79.999998212E-3,
,,,2.90199998E-3,79.999998212E-3,
,,,2.90399999E-3,79.999998212E-3,
,,,2.90600001E-3,79.999998212E-3,
,,,2.90799979E-3,79.999998212E-3,
,,,2.90999981E-3,79.999998212E-3,
,,,2.91199982E-3,79.999998212E-3,
,,,2.91399984E-3,79.999998212E-3,
,,,2.91599985E-3,79.999998212E-3,
,,,2.91799987E-3,79.999998212E-3,
,,,2.91999988E-3,79.999998212E-3,
,,,2.92199990E-3,79.999998212E-3,
,,,2.92399991E-3,79.999998212E-3,
,,,2.92599993E-3,79.999998212E-3,
,,,2.92799994E-3,79.999998212E-3,
,,,2.92999996E-3,79.999998212E-3,
,,,2.93199997E-3,79.999998212E-3,
,,,2.93399999E-3,79.999998212E-3,
,,,2.93600000E-3,79.999998212E-3,
,,,2.93799979E-3,79.999998212E-3,
