Run #1,Run #1,Run #1,Run #1,Run #1
Date and Time,Time (s),Position (m),Velocity (m/s),Acceleration (m/s²)
04/28/2019 10:50:56 am,0.0000,0.22844,,
04/28/2019 10:50:56 am,0.0250,0.23401,0.16930,
04/28/2019 10:50:56 am,0.0500,0.23691,0.13914,-1.73374
04/28/2019 10:50:56 am,0.0750,0.24093,0.08262,-2.77269
04/28/2019 10:50:56 am,0.1000,0.24239,-0.00173,-3.40209
04/28/2019 10:50:56 am,0.1250,0.24092,-0.10573,-3.16317
04/28/2019 10:50:56 am,0.1500,0.23666,-0.18282,-1.89570
04/28/2019 10:50:56 am,0.1750,0.23080,-0.21076,0.04063
04/28/2019 10:50:56 am,0.2000,0.22508,-0.18105,1.98345
04/28/2019 10:50:56 am,0.2250,0.22088,-0.10141,3.37639
04/28/2019 10:50:56 am,0.2500,0.21942,0.00534,3.83011
04/28/2019 10:50:56 am,0.2750,0.22125,0.10930,3.24741
04/28/2019 10:50:56 am,0.3000,0.22552,0.18275,1.81562
04/28/2019 10:50:56 am,0.3250,0.23119,0.20829,-0.08640
04/28/2019 10:50:56 am,0.3500,0.23690,0.17869,-1.97952
04/28/2019 10:50:56 am,0.3750,0.24111,0.10040,-3.36537
04/28/2019 10:50:56 am,0.4000,0.24240,-0.00628,-3.84659
04/28/2019 10:50:56 am,0.4250,0.24075,-0.11153,-3.27552
04/28/2019 10:50:56 am,0.4500,0.23632,-0.18636,-1.80430
04/28/2019 10:50:56 am,0.4750,0.23046,-0.21085,0.14898
04/28/2019 10:50:56 am,0.5000,0.22474,-0.17761,2.04608
04/28/2019 10:50:56 am,0.5250,0.22071,-0.09794,3.38443
04/28/2019 10:50:56 am,0.5500,0.21943,0.00764,3.82223
04/28/2019 10:50:56 am,0.5750,0.22108,0.11157,3.24776
04/28/2019 10:50:56 am,0.6000,0.22551,0.18622,1.80112
04/28/2019 10:50:56 am,0.6250,0.23136,0.21064,-0.13204
04/28/2019 10:50:56 am,0.6500,0.23708,0.17873,-2.03339
04/28/2019 10:50:56 am,0.6750,0.24111,0.09926,-3.40376
04/28/2019 10:50:56 am,0.7000,0.24257,-0.00740,-3.87741
04/28/2019 10:50:56 am,0.7250,0.24075,-0.11380,-3.29912
04/28/2019 10:50:56 am,0.7500,0.23632,-0.18984,-1.80553
04/28/2019 10:50:56 am,0.7750,0.23029,-0.21318,0.19389
04/28/2019 10:50:56 am,0.8000,0.22456,-0.17885,2.13023
04/28/2019 10:50:56 am,0.8250,0.22053,-0.09570,3.46991
04/28/2019 10:50:56 am,0.8500,0.21925,0.01222,3.85496
04/28/2019 10:50:56 am,0.8750,0.22125,0.11624,3.19546
04/28/2019 10:50:56 am,0.9000,0.22568,0.18746,1.70140
04/28/2019 10:50:56 am,0.9250,0.23154,0.20838,-0.21749
04/28/2019 10:50:56 am,0.9500,0.23708,0.17529,-2.06542
04/28/2019 10:50:56 am,0.9750,0.24111,0.09578,-3.38193
04/28/2019 10:50:57 am,1.0000,0.24240,-0.00976,-3.81649
04/28/2019 10:50:57 am,1.0250,0.24058,-0.11386,-3.22965
04/28/2019 10:50:57 am,1.0500,0.23614,-0.18754,-1.75857
04/28/2019 10:50:57 am,1.0750,0.23029,-0.21088,0.20236
04/28/2019 10:50:57 am,1.1000,0.22456,-0.17652,2.10765
04/28/2019 10:50:57 am,1.1250,0.22053,-0.09452,3.43165
04/28/2019 10:50:57 am,1.1500,0.21942,0.01225,3.81635
04/28/2019 10:50:57 am,1.1750,0.22125,0.11509,3.17236
04/28/2019 10:50:57 am,1.2000,0.22568,0.18631,1.68634
04/28/2019 10:50:57 am,1.2250,0.23154,0.20727,-0.24024
04/28/2019 10:50:57 am,1.2500,0.23708,0.17303,-2.09667
04/28/2019 10:50:57 am,1.2750,0.24094,0.09234,-3.39109
04/28/2019 10:50:57 am,1.3000,0.24223,-0.01326,-3.77209
04/28/2019 10:50:57 am,1.3250,0.24024,-0.11510,-3.13042
04/28/2019 10:50:57 am,1.3500,0.23580,-0.18534,-1.65000
04/28/2019 10:50:57 am,1.3750,0.23011,-0.20514,0.25797
04/28/2019 10:50:57 am,1.4000,0.22456,-0.17072,2.08610
04/28/2019 10:50:57 am,1.4250,0.22070,-0.09102,3.35513
04/28/2019 10:50:57 am,1.4500,0.21960,0.01346,3.73886
04/28/2019 10:50:57 am,1.4750,0.22142,0.11395,3.13316
04/28/2019 10:50:57 am,1.5000,0.22586,0.18513,1.68598
04/28/2019 10:50:57 am,1.5250,0.23153,0.20727,-0.22473
04/28/2019 10:50:57 am,1.5500,0.23726,0.17303,-2.08884
04/28/2019 10:50:57 am,1.5750,0.24112,0.09234,-3.39089
04/28/2019 10:50:57 am,1.6000,0.24223,-0.01326,-3.77932
04/28/2019 10:50:57 am,1.6250,0.24041,-0.11507,-3.15337
04/28/2019 10:50:57 am,1.6500,0.23597,-0.18645,-1.67360
04/28/2019 10:50:57 am,1.6750,0.23011,-0.20747,0.25732
04/28/2019 10:50:57 am,1.7000,0.22456,-0.17190,2.10884
04/28/2019 10:50:57 am,1.7250,0.22070,-0.09102,3.38594
04/28/2019 10:50:57 am,1.7500,0.21960,0.01343,3.76221
04/28/2019 10:50:57 am,1.7750,0.22142,0.11509,3.14141
04/28/2019 10:50:57 am,1.8000,0.22585,0.18631,1.67131
04/28/2019 10:50:57 am,1.8250,0.23171,0.20730,-0.26293
04/28/2019 10:50:57 am,1.8500,0.23726,0.17191,-2.12767
04/28/2019 10:50:57 am,1.8750,0.24112,0.09005,-3.40724
04/28/2019 10:50:57 am,1.9000,0.24223,-0.01559,-3.75725
04/28/2019 10:50:57 am,1.9250,0.24024,-0.11628,-3.09983
04/28/2019 10:50:57 am,1.9500,0.23580,-0.18534,-1.61940
04/28/2019 10:50:57 am,1.9750,0.23011,-0.20517,0.28855
04/28/2019 10:50:58 am,2.0000,0.22456,-0.16961,2.11685
04/28/2019 10:50:58 am,2.0250,0.22070,-0.08873,3.37863
04/28/2019 10:50:58 am,2.0500,0.21977,0.01575,3.73966
04/28/2019 10:50:58 am,2.0750,0.22159,0.11627,3.10343
04/28/2019 10:50:58 am,2.1000,0.22603,0.18634,1.62530
04/28/2019 10:50:58 am,2.1250,0.23188,0.20619,-0.30174
04/28/2019 10:50:58 am,2.1500,0.23743,0.16962,-2.14358
04/28/2019 10:50:58 am,2.1750,0.24112,0.08773,-3.39962
04/28/2019 10:50:58 am,2.2000,0.24223,-0.01673,-3.74942
04/28/2019 10:50:58 am,2.2250,0.24024,-0.11740,-3.10025
04/28/2019 10:50:58 am,2.2500,0.23580,-0.18766,-1.60513
04/28/2019 10:50:58 am,2.2750,0.22994,-0.20638,0.34168
04/28/2019 10:50:58 am,2.3000,0.22438,-0.16852,2.18668
04/28/2019 10:50:58 am,2.3250,0.22070,-0.08529,3.41081
04/28/2019 10:50:58 am,2.3500,0.21976,0.01925,3.71007
04/28/2019 10:50:58 am,2.3750,0.22176,0.11747,3.03445
04/28/2019 10:50:58 am,2.4000,0.22620,0.18523,1.56340
04/28/2019 10:50:58 am,2.4250,0.23188,0.20390,-0.33268
04/28/2019 10:50:58 am,2.4500,0.23743,0.16733,-2.15890
04/28/2019 10:50:58 am,2.4750,0.24112,0.08547,-3.41540
04/28/2019 10:50:58 am,2.5000,0.24206,-0.02018,-3.75050
04/28/2019 10:50:58 am,2.5250,0.24007,-0.12090,-3.06285
04/28/2019 10:50:58 am,2.5500,0.23546,-0.18887,-1.53605
04/28/2019 10:50:58 am,2.5750,0.22959,-0.20526,0.40335
04/28/2019 10:50:58 am,2.6000,0.22421,-0.16622,2.23240
04/28/2019 10:50:58 am,2.6250,0.22053,-0.08305,3.46427
04/28/2019 10:50:58 am,2.6500,0.21959,0.02377,3.76488
04/28/2019 10:50:58 am,2.6750,0.22176,0.12438,3.03661
04/28/2019 10:50:58 am,2.7000,0.22655,0.19108,1.48059
04/28/2019 10:50:58 am,2.7250,0.23222,0.20514,-0.46291
04/28/2019 10:50:58 am,2.7500,0.23778,0.16511,-2.27494
04/28/2019 10:50:58 am,2.7750,0.24129,0.08091,-3.47827
04/28/2019 10:50:58 am,2.8000,0.24224,-0.02594,-3.75226
04/28/2019 10:50:58 am,2.8250,0.23990,-0.12556,-3.00274
04/28/2019 10:50:58 am,2.8500,0.23528,-0.19126,-1.43659
04/28/2019 10:50:58 am,2.8750,0.22942,-0.20418,0.50382
04/28/2019 10:50:58 am,2.9000,0.22403,-0.16281,2.29497
04/28/2019 10:50:58 am,2.9250,0.22052,-0.07844,3.47286
04/28/2019 10:50:58 am,2.9500,0.21976,0.02724,3.73467
04/28/2019 10:50:58 am,2.9750,0.22193,0.12670,2.99119
04/28/2019 10:50:59 am,3.0000,0.22671,0.19225,1.42013
04/28/2019 10:50:59 am,3.0250,0.23257,0.20523,-0.54715
04/28/2019 10:50:59 am,3.0500,0.23795,0.16173,-2.35285
04/28/2019 10:50:59 am,3.0750,0.24147,0.07515,-3.50314
04/28/2019 10:50:59 am,3.1000,0.24207,-0.03059,-3.70707
04/28/2019 10:50:59 am,3.1250,0.23973,-0.12792,-2.93350
04/28/2019 10:50:59 am,3.1500,0.23511,-0.19126,-1.38278
04/28/2019 10:50:59 am,3.1750,0.22925,-0.20420,0.54975
04/28/2019 10:50:59 am,3.2000,0.22386,-0.16172,2.34143
04/28/2019 10:50:59 am,3.2250,0.22035,-0.07499,3.49715
04/28/2019 10:50:59 am,3.2500,0.21975,0.03074,3.70487
04/28/2019 10:50:59 am,3.2750,0.22210,0.12791,2.92923
04/28/2019 10:50:59 am,3.3000,0.22671,0.19111,1.38815
04/28/2019 10:50:59 am,3.3250,0.23257,0.20402,-0.52461
04/28/2019 10:50:59 am,3.3500,0.23795,0.16285,-2.31357
04/28/2019 10:50:59 am,3.3750,0.24147,0.07748,-3.50188
04/28/2019 10:50:59 am,3.4000,0.24224,-0.02938,-3.75295
04/28/2019 10:50:59 am,3.4250,0.23990,-0.12903,-2.98045
04/28/2019 10:50:59 am,3.4500,0.23511,-0.19359,-1.39148
04/28/2019 10:50:59 am,3.4750,0.22925,-0.20538,0.57994
04/28/2019 10:50:59 am,3.5000,0.22386,-0.16175,2.38752
04/28/2019 10:50:59 am,3.5250,0.22035,-0.07388,3.53597
04/28/2019 10:50:59 am,3.5500,0.21975,0.03303,3.72114
04/28/2019 10:50:59 am,3.5750,0.22228,0.13023,2.90756
04/28/2019 10:50:59 am,3.6000,0.22689,0.19231,1.32026
04/28/2019 10:50:59 am,3.6250,0.23274,0.20297,-0.62435
04/28/2019 10:50:59 am,3.6500,0.23813,0.15832,-2.39959
04/28/2019 10:50:59 am,3.6750,0.24148,0.07056,-3.51955
04/28/2019 10:50:59 am,3.7000,0.24190,-0.03521,-3.68542
04/28/2019 10:50:59 am,3.7250,0.23956,-0.13142,-2.86570
04/28/2019 10:50:59 am,3.7500,0.23477,-0.19250,-1.27567
04/28/2019 10:50:59 am,3.7750,0.22890,-0.20200,0.65807
04/28/2019 10:50:59 am,3.8000,0.22369,-0.15598,2.40440
04/28/2019 10:50:59 am,3.8250,0.22034,-0.06923,3.49106
04/28/2019 10:50:59 am,3.8500,0.21993,0.03539,3.63704
04/28/2019 10:50:59 am,3.8750,0.22227,0.13029,2.82288
04/28/2019 10:50:59 am,3.9000,0.22706,0.19005,1.25811
04/28/2019 10:50:59 am,3.9250,0.23275,0.19954,-0.64832
04/28/2019 10:50:59 am,3.9500,0.23796,0.15486,-2.38517
04/28/2019 10:50:59 am,3.9750,0.24131,0.06824,-3.47457
04/28/2019 10:51:00 am,4.0000,0.24173,-0.03643,-3.60959
04/28/2019 10:51:00 am,4.0250,0.23921,-0.13037,-2.76581
04/28/2019 10:51:00 am,4.0500,0.23459,-0.18798,-1.19025
04/28/2019 10:51:00 am,4.0750,0.22889,-0.19508,0.69752
04/28/2019 10:51:00 am,4.1000,0.22385,-0.15025,2.39745
04/28/2019 10:51:00 am,4.1250,0.22068,-0.06347,3.45351
04/28/2019 10:51:00 am,4.1500,0.22026,0.04003,3.56943
04/28/2019 10:51:00 am,4.1750,0.22296,0.13267,2.70896
04/28/2019 10:51:00 am,4.2000,0.22758,0.18903,1.12008
04/28/2019 10:51:00 am,4.2250,0.23327,0.19387,-0.76475
04/28/2019 10:51:00 am,4.2500,0.23831,0.14683,-2.43338
04/28/2019 10:51:00 am,4.2750,0.24131,0.06015,-3.43793
04/28/2019 10:51:00 am,4.3000,0.24156,-0.04226,-3.51833
04/28/2019 10:51:00 am,4.3250,0.23904,-0.13273,-2.65874
04/28/2019 10:51:00 am,4.3500,0.23424,-0.18804,-1.08271
04/28/2019 10:51:00 am,4.3750,0.22872,-0.19288,0.79032
04/28/2019 10:51:00 am,4.4000,0.22368,-0.14451,2.45274
04/28/2019 10:51:00 am,4.4250,0.22068,-0.05771,3.43996
04/28/2019 10:51:00 am,4.4500,0.22061,0.04470,3.48594
04/28/2019 10:51:00 am,4.4750,0.22313,0.13390,2.60160
04/28/2019 10:51:00 am,4.5000,0.22793,0.18677,1.02721
04/28/2019 10:51:00 am,4.5250,0.23345,0.19047,-0.81182
04/28/2019 10:51:00 am,4.5500,0.23831,0.14222,-2.43425
04/28/2019 10:51:00 am,4.5750,0.24132,0.05668,-3.40804
04/28/2019 10:51:00 am,4.6000,0.24139,-0.04458,-3.46525
04/28/2019 10:51:00 am,4.6250,0.23887,-0.13394,-2.59010
04/28/2019 10:51:00 am,4.6500,0.23407,-0.18695,-1.00580
04/28/2019 10:51:00 am,4.6750,0.22854,-0.18947,0.85251
04/28/2019 10:51:00 am,4.7000,0.22367,-0.13992,2.47685
04/28/2019 10:51:00 am,4.7250,0.22085,-0.05309,3.41798
04/28/2019 10:51:00 am,4.7500,0.22078,0.04820,3.42558
04/28/2019 10:51:00 am,4.7750,0.22347,0.13511,2.51014
04/28/2019 10:51:00 am,4.8000,0.22827,0.18572,0.92753
04/28/2019 10:51:00 am,4.8250,0.23362,0.18591,-0.89669
04/28/2019 10:51:00 am,4.8500,0.23849,0.13652,-2.48928
04/28/2019 10:51:00 am,4.8750,0.24114,0.04980,-3.40983
04/28/2019 10:51:00 am,4.9000,0.24123,-0.05156,-3.40562
04/28/2019 10:51:00 am,4.9250,0.23835,-0.13748,-2.47556
04/28/2019 10:51:00 am,4.9500,0.23355,-0.18704,-0.88250
04/28/2019 10:51:00 am,4.9750,0.22820,-0.18605,0.94538
04/28/2019 10:51:01 am,5.0000,0.22332,-0.13536,2.53135
04/28/2019 10:51:01 am,5.0250,0.22067,-0.04735,3.43416
04/28/2019 10:51:01 am,5.0500,0.22077,0.05396,3.40358
04/28/2019 10:51:01 am,5.0750,0.22365,0.13975,2.44982
04/28/2019 10:51:01 am,5.1000,0.22844,0.18807,0.83630
04/28/2019 10:51:01 am,5.1250,0.23397,0.18601,-1.00426
04/28/2019 10:51:01 am,5.1500,0.23866,0.13315,-2.57484
04/28/2019 10:51:01 am,5.1750,0.24133,0.04404,-3.44234
04/28/2019 10:51:01 am,5.2000,0.24105,-0.05618,-3.36887
04/28/2019 10:51:01 am,5.2250,0.23818,-0.14101,-2.38440
04/28/2019 10:51:01 am,5.2500,0.23338,-0.18714,-0.76735
04/28/2019 10:51:01 am,5.2750,0.22785,-0.18267,1.04641
04/28/2019 10:51:01 am,5.3000,0.22332,-0.12963,2.57136
04/28/2019 10:51:01 am,5.3250,0.22084,-0.04156,3.40495
04/28/2019 10:51:01 am,5.3500,0.22094,0.05746,3.32029
04/28/2019 10:51:01 am,5.3750,0.22399,0.14099,2.33480
04/28/2019 10:51:01 am,5.4000,0.22879,0.18587,0.73536
04/28/2019 10:51:01 am,5.4250,0.23414,0.18025,-1.04431
04/28/2019 10:51:01 am,5.4500,0.23867,0.12850,-2.54491
04/28/2019 10:51:01 am,5.4750,0.24115,0.04171,-3.38826
04/28/2019 10:51:01 am,5.5000,0.24106,-0.05733,-3.33811
04/28/2019 10:51:01 am,5.5250,0.23801,-0.14216,-2.36205
04/28/2019 10:51:01 am,5.5500,0.23321,-0.18834,-0.72205
04/28/2019 10:51:01 am,5.5750,0.22767,-0.18158,1.11564
04/28/2019 10:51:01 am,5.6000,0.22314,-0.12621,2.62605
04/28/2019 10:51:01 am,5.6250,0.22084,-0.03694,3.41355
04/28/2019 10:51:01 am,5.6500,0.22111,0.06093,3.29010
04/28/2019 10:51:01 am,5.6750,0.22416,0.14331,2.28940
04/28/2019 10:51:01 am,5.7000,0.22896,0.18705,0.67490
04/28/2019 10:51:01 am,5.7250,0.23449,0.18034,-1.12835
04/28/2019 10:51:01 am,5.7500,0.23884,0.12513,-2.63027
04/28/2019 10:51:01 am,5.7750,0.24133,0.03598,-3.42864
04/28/2019 10:51:01 am,5.8000,0.24089,-0.06313,-3.30119
04/28/2019 10:51:01 am,5.8250,0.23784,-0.14570,-2.27813
04/28/2019 10:51:01 am,5.8500,0.23286,-0.18838,-0.62979
04/28/2019 10:51:01 am,5.8750,0.22750,-0.18049,1.19257
04/28/2019 10:51:01 am,5.9000,0.22297,-0.12280,2.68799
04/28/2019 10:51:01 am,5.9250,0.22066,-0.03239,3.44565
04/28/2019 10:51:01 am,5.9500,0.22128,0.06672,3.26090
04/28/2019 10:51:01 am,5.9750,0.22433,0.14684,2.20597
04/28/2019 10:51:02 am,6.0000,0.22931,0.18711,0.56758
04/28/2019 10:51:02 am,6.0250,0.23466,0.17812,-1.22085
04/28/2019 10:51:02 am,6.0500,0.23902,0.12058,-2.69272
04/28/2019 10:51:02 am,6.0750,0.24134,0.03024,-3.44569
04/28/2019 10:51:02 am,6.1000,0.24072,-0.06893,-3.25681
04/28/2019 10:51:02 am,6.1250,0.23750,-0.14923,-2.17910
04/28/2019 10:51:02 am,6.1500,0.23252,-0.18847,-0.51419
04/28/2019 10:51:02 am,6.1750,0.22715,-0.17708,1.27815
04/28/2019 10:51:02 am,6.2000,0.22279,-0.11821,2.71976
04/28/2019 10:51:02 am,6.2250,0.22066,-0.02777,3.43090
04/28/2019 10:51:02 am,6.2500,0.22128,0.07018,3.22304
04/28/2019 10:51:02 am,6.2750,0.22450,0.14916,2.15290
04/28/2019 10:51:02 am,6.3000,0.22948,0.18832,0.49905
04/28/2019 10:51:02 am,6.3250,0.23483,0.17703,-1.29788
04/28/2019 10:51:02 am,6.3500,0.23919,0.11717,-2.74773
04/28/2019 10:51:02 am,6.3750,0.24134,0.02563,-3.44720
04/28/2019 10:51:02 am,6.4000,0.24055,-0.07243,-3.20392
04/28/2019 10:51:02 am,6.4250,0.23733,-0.15044,-2.10239
04/28/2019 10:51:02 am,6.4500,0.23234,-0.18735,-0.44491
04/28/2019 10:51:02 am,6.4750,0.22698,-0.17482,1.33209
04/28/2019 10:51:02 am,6.5000,0.22279,-0.11480,2.75854
04/28/2019 10:51:02 am,6.5250,0.22065,-0.02318,3.44733
04/28/2019 10:51:02 am,6.5500,0.22145,0.07480,3.19407
04/28/2019 10:51:02 am,6.5750,0.22485,0.15269,2.06227
04/28/2019 10:51:02 am,6.6000,0.22982,0.18844,0.36879
04/28/2019 10:51:02 am,6.6250,0.23518,0.17251,-1.41438
04/28/2019 10:51:02 am,6.6500,0.23938,0.11029,-2.79573
04/28/2019 10:51:02 am,6.6750,0.24117,0.01868,-3.41795
04/28/2019 10:51:02 am,6.7000,0.24038,-0.07709,-3.12811
04/28/2019 10:51:02 am,6.7250,0.23698,-0.15280,-2.00314
04/28/2019 10:51:02 am,6.7500,0.23200,-0.18744,-0.33737
04/28/2019 10:51:02 am,6.7750,0.22663,-0.17143,1.42529
04/28/2019 10:51:02 am,6.8000,0.22262,-0.10906,2.79875
04/28/2019 10:51:02 am,6.8250,0.22065,-0.01739,3.41046
04/28/2019 10:51:02 am,6.8500,0.22162,0.07833,3.10232
04/28/2019 10:51:02 am,6.8750,0.22502,0.15275,1.96936
04/28/2019 10:51:02 am,6.9000,0.23000,0.18615,0.32154
04/28/2019 10:51:02 am,6.9250,0.23518,0.17019,-1.40713
04/28/2019 10:51:02 am,6.9500,0.23938,0.10911,-2.77240
04/28/2019 10:51:02 am,6.9750,0.24117,0.01871,-3.41012
04/28/2019 10:51:03 am,7.0000,0.24038,-0.07823,-3.12874
04/28/2019 10:51:03 am,7.0250,0.23699,-0.15398,-1.98102
04/28/2019 10:51:03 am,7.0500,0.23182,-0.18750,-0.28384
04/28/2019 10:51:03 am,7.0750,0.22663,-0.16917,1.47942
04/28/2019 10:51:03 am,7.1000,0.22261,-0.10562,2.83010
04/28/2019 10:51:03 am,7.1250,0.22082,-0.01395,3.41122
04/28/2019 10:51:03 am,7.1500,0.22179,0.08179,3.07276
04/28/2019 10:51:03 am,7.1750,0.22536,0.15510,1.90145
04/28/2019 10:51:03 am,7.2000,0.23034,0.18624,0.22226
04/28/2019 10:51:03 am,7.2250,0.23553,0.16682,-1.50750
04/28/2019 10:51:03 am,7.2500,0.23955,0.10342,-2.83528
04/28/2019 10:51:03 am,7.2750,0.24117,0.01180,-3.41189
04/28/2019 10:51:03 am,7.3000,0.24021,-0.08403,-3.06886
04/28/2019 10:51:03 am,7.3250,0.23664,-0.15752,-1.87433
04/28/2019 10:51:03 am,7.3500,0.23148,-0.18760,-0.16080
04/28/2019 10:51:03 am,7.3750,0.22628,-0.16578,1.58046
04/28/2019 10:51:03 am,7.4000,0.22244,-0.09988,2.87010
04/28/2019 10:51:03 am,7.4250,0.22082,-0.00816,3.38179
04/28/2019 10:51:03 am,7.4500,0.22196,0.08529,2.99651
04/28/2019 10:51:03 am,7.4750,0.22553,0.15631,1.81723
04/28/2019 10:51:03 am,7.5000,0.23051,0.18513,0.14569
04/28/2019 10:51:03 am,7.5250,0.23571,0.16459,-1.57692
04/28/2019 10:51:03 am,7.5500,0.23955,0.09886,-2.88267
04/28/2019 10:51:03 am,7.5750,0.24118,0.00604,-3.40619
04/28/2019 10:51:03 am,7.6000,0.23987,-0.08872,-2.99324
04/28/2019 10:51:03 am,7.6250,0.23630,-0.15876,-1.76679
04/28/2019 10:51:03 am,7.6500,0.23113,-0.18533,-0.06812
04/28/2019 10:51:03 am,7.6750,0.22611,-0.16237,1.64226
04/28/2019 10:51:03 am,7.7000,0.22226,-0.09532,2.90905
04/28/2019 10:51:03 am,7.7250,0.22081,-0.00243,3.39075
04/28/2019 10:51:03 am,7.7500,0.22213,0.09108,2.95226
04/28/2019 10:51:03 am,7.7750,0.22588,0.15984,1.71112
04/28/2019 10:51:03 am,7.8000,0.23086,0.18525,0.00758
04/28/2019 10:51:03 am,7.8250,0.23606,0.16007,-1.69363
04/28/2019 10:51:03 am,7.8500,0.23973,0.09198,-2.92325
04/28/2019 10:51:03 am,7.8750,0.24101,-9.39829E-4,-3.36164
04/28/2019 10:51:03 am,7.9000,0.23970,-0.09222,-2.90190
04/28/2019 10:51:03 am,7.9250,0.23595,-0.15997,-1.65966
04/28/2019 10:51:03 am,7.9500,0.23096,-0.18427,0.03938
04/28/2019 10:51:03 am,7.9750,0.22575,-0.15784,1.73560
04/28/2019 10:51:04 am,8.0000,0.22226,-0.08844,2.94177
04/28/2019 10:51:04 am,8.0250,0.22098,0.00454,3.33859
04/28/2019 10:51:04 am,8.0500,0.22247,0.09461,2.84527
04/28/2019 10:51:04 am,8.0750,0.22622,0.15990,1.60338
04/28/2019 10:51:04 am,8.1000,0.23121,0.18299,-0.06937
04/28/2019 10:51:04 am,8.1250,0.23623,0.15667,-1.74754
04/28/2019 10:51:04 am,8.1500,0.23991,0.08743,-2.96259
04/28/2019 10:51:04 am,8.1750,0.24102,-0.00667,-3.36340
04/28/2019 10:51:04 am,8.2000,0.23953,-0.09805,-2.84201
04/28/2019 10:51:04 am,8.2250,0.23560,-0.16236,-1.55256
04/28/2019 10:51:04 am,8.2500,0.23061,-0.18319,0.14734
04/28/2019 10:51:04 am,8.2750,0.22558,-0.15443,1.81290
04/28/2019 10:51:04 am,8.3000,0.22208,-0.08388,2.98858
04/28/2019 10:51:04 am,8.3250,0.22098,0.01028,3.34756
04/28/2019 10:51:04 am,8.3500,0.22264,0.10040,2.80081
04/28/2019 10:51:04 am,8.3750,0.22656,0.16342,1.50471
04/28/2019 10:51:04 am,8.4000,0.23155,0.18309,-0.19219
04/28/2019 10:51:04 am,8.4250,0.23658,0.15329,-1.84834
04/28/2019 10:51:04 am,8.4500,0.24009,0.08170,-3.01018
04/28/2019 10:51:04 am,8.4750,0.24102,-0.01244,-3.34964
04/28/2019 10:51:04 am,8.5000,0.23936,-0.10271,-2.77424
04/28/2019 10:51:04 am,8.5250,0.23544,-0.16474,-1.44568
04/28/2019 10:51:04 am,8.5500,0.23026,-0.18213,0.26329
04/28/2019 10:51:04 am,8.5750,0.22541,-0.14987,1.88353
04/28/2019 10:51:04 am,8.6000,0.22207,-0.07809,2.98975
04/28/2019 10:51:04 am,8.6250,0.22115,0.01374,3.30207
04/28/2019 10:51:04 am,8.6500,0.22281,0.10272,2.74009
04/28/2019 10:51:04 am,8.6750,0.22673,0.16463,1.42895
04/28/2019 10:51:04 am,8.7000,0.23190,0.18204,-0.29194
04/28/2019 10:51:04 am,8.7250,0.23675,0.14877,-1.93431
04/28/2019 10:51:04 am,8.7500,0.24009,0.07479,-3.02783
04/28/2019 10:51:04 am,8.7750,0.24085,-0.01827,-3.28193
04/28/2019 10:51:04 am,8.8000,0.23902,-0.10510,-2.66656
04/28/2019 10:51:04 am,8.8250,0.23509,-0.16363,-1.36044
04/28/2019 10:51:04 am,8.8500,0.23009,-0.17983,0.30966
04/28/2019 10:51:04 am,8.8750,0.22523,-0.14760,1.91430
04/28/2019 10:51:04 am,8.9000,0.22190,-0.07468,3.01362
04/28/2019 10:51:04 am,8.9250,0.22114,0.01836,3.28814
04/28/2019 10:51:04 am,8.9500,0.22298,0.10625,2.67170
04/28/2019 10:51:04 am,8.9750,0.22690,0.16469,1.34388
04/28/2019 10:51:05 am,9.0000,0.23207,0.17974,-0.33898
04/28/2019 10:51:05 am,9.0250,0.23675,0.14645,-1.93450
04/28/2019 10:51:05 am,9.0500,0.24009,0.07365,-3.02000
04/28/2019 10:51:05 am,9.0750,0.24085,-0.01939,-3.28258
04/28/2019 10:51:05 am,9.1000,0.23902,-0.10742,-2.64488
04/28/2019 10:51:05 am,9.1250,0.23492,-0.16487,-1.29203
04/28/2019 10:51:05 am,9.1500,0.22992,-0.17760,0.39460
04/28/2019 10:51:05 am,9.1750,0.22523,-0.14301,1.96903
04/28/2019 10:51:05 am,9.2000,0.22207,-0.07009,3.02222
04/28/2019 10:51:05 am,9.2250,0.22131,0.02297,3.25873
04/28/2019 10:51:05 am,9.2500,0.22332,0.10975,2.59652
04/28/2019 10:51:05 am,9.2750,0.22742,0.16596,1.22190
04/28/2019 10:51:05 am,9.3000,0.23242,0.17640,-0.47030
04/28/2019 10:51:05 am,9.3250,0.23711,0.13961,-2.01367
04/28/2019 10:51:05 am,9.3500,0.24010,0.06556,-2.99925
04/28/2019 10:51:05 am,9.3750,0.24069,-0.02525,-3.18367
04/28/2019 10:51:05 am,9.4000,0.23867,-0.10863,-2.52932
04/28/2019 10:51:05 am,9.4250,0.23474,-0.16375,-1.20702
04/28/2019 10:51:05 am,9.4500,0.22974,-0.17533,0.44876
04/28/2019 10:51:05 am,9.4750,0.22505,-0.13960,2.00058
04/28/2019 10:51:05 am,9.5000,0.22207,-0.06547,3.01573
04/28/2019 10:51:05 am,9.5250,0.22148,0.02647,3.20581
04/28/2019 10:51:05 am,9.5500,0.22349,0.11095,2.51991
04/28/2019 10:51:05 am,9.5750,0.22760,0.16485,1.15255
04/28/2019 10:51:05 am,9.6000,0.23260,0.17414,-0.51675
04/28/2019 10:51:05 am,9.6250,0.23711,0.13617,-2.03704
04/28/2019 10:51:05 am,9.6500,0.24010,0.06212,-3.00737
04/28/2019 10:51:05 am,9.6750,0.24051,-0.02869,-3.17669
04/28/2019 10:51:05 am,9.7000,0.23851,-0.11211,-2.49995
04/28/2019 10:51:05 am,9.7250,0.23440,-0.16611,-1.13171
04/28/2019 10:51:05 am,9.7500,0.22940,-0.17545,0.57115
04/28/2019 10:51:05 am,9.7750,0.22470,-0.13510,2.12470
04/28/2019 10:51:05 am,9.8000,0.22188,-0.05745,3.07178
04/28/2019 10:51:05 am,9.8250,0.22165,0.03459,3.16171
04/28/2019 10:51:05 am,9.8500,0.22384,0.11563,2.40592
04/28/2019 10:51:05 am,9.8750,0.22794,0.16608,1.01488
04/28/2019 10:51:05 am,9.9000,0.23294,0.17194,-0.64745
04/28/2019 10:51:05 am,9.9250,0.23746,0.13050,-2.13812
04/28/2019 10:51:05 am,9.9500,0.24011,0.05409,-3.04798
04/28/2019 10:51:05 am,9.9750,0.24035,-0.03678,-3.13317
04/28/2019 10:51:06 am,10.0000,0.23817,-0.11797,-2.37119
04/28/2019 10:51:06 am,10.0250,0.23388,-0.16741,-0.95514
04/28/2019 10:51:06 am,10.0500,0.22887,-0.17096,0.72639
04/28/2019 10:51:06 am,10.0750,0.22453,-0.12707,2.19592
04/28/2019 10:51:06 am,10.1000,0.22188,-0.04936,3.05037
04/28/2019 10:51:06 am,10.1250,0.22182,0.04038,3.07837
04/28/2019 10:51:06 am,10.1500,0.22418,0.11915,2.29151
04/28/2019 10:51:06 am,10.1750,0.22828,0.16618,0.89227
04/28/2019 10:51:06 am,10.2000,0.23329,0.16857,-0.75564
04/28/2019 10:51:06 am,10.2250,0.23764,0.12480,-2.20097
04/28/2019 10:51:06 am,10.2500,0.24011,0.04718,-3.04973
04/28/2019 10:51:06 am,10.2750,0.24018,-0.04258,-3.07331
04/28/2019 10:51:06 am,10.3000,0.23782,-0.12151,-2.26433
04/28/2019 10:51:06 am,10.3250,0.23354,-0.16750,-0.83956
04/28/2019 10:51:06 am,10.3500,0.22853,-0.16754,0.81157
04/28/2019 10:51:06 am,10.3750,0.22435,-0.12248,2.24239
04/28/2019 10:51:06 am,10.4000,0.22188,-0.04480,3.07383
04/28/2019 10:51:06 am,10.4250,0.22181,0.04611,3.07971
04/28/2019 10:51:06 am,10.4500,0.22434,0.12494,2.23962
04/28/2019 10:51:06 am,10.4750,0.22880,0.16974,0.77833
04/28/2019 10:51:06 am,10.5000,0.23363,0.16752,-0.89374
04/28/2019 10:51:06 am,10.5250,0.23799,0.12028,-2.31728
04/28/2019 10:51:06 am,10.5500,0.24029,0.04034,-3.10543
04/28/2019 10:51:06 am,10.5750,0.24019,-0.05067,-3.05254
04/28/2019 10:51:06 am,10.6000,0.23748,-0.12734,-2.16615
04/28/2019 10:51:06 am,10.6250,0.23320,-0.16992,-0.69418
04/28/2019 10:51:06 am,10.6500,0.22818,-0.16534,0.95812
04/28/2019 10:51:06 am,10.6750,0.22400,-0.11680,2.34397
04/28/2019 10:51:06 am,10.7000,0.22188,-0.03674,3.09126
04/28/2019 10:51:06 am,10.7250,0.22198,0.05308,3.01230
04/28/2019 10:51:06 am,10.7500,0.22469,0.12847,2.11758
04/28/2019 10:51:06 am,10.7750,0.22915,0.16983,0.64766
04/28/2019 10:51:06 am,10.8000,0.23398,0.16414,-0.99451
04/28/2019 10:51:06 am,10.8250,0.23816,0.11455,-2.36464
04/28/2019 10:51:06 am,10.8500,0.24029,0.03457,-3.09890
04/28/2019 10:51:06 am,10.8750,0.24002,-0.05529,-3.00733
04/28/2019 10:51:06 am,10.9000,0.23731,-0.13084,-2.09793
04/28/2019 10:51:06 am,10.9250,0.23285,-0.17113,-0.60276
04/28/2019 10:51:06 am,10.9500,0.22783,-0.16428,1.06562
04/28/2019 10:51:06 am,10.9750,0.22383,-0.11227,2.43710
04/28/2019 10:51:07 am,11.0000,0.22169,-0.02986,3.13161
04/28/2019 10:51:07 am,11.0250,0.22215,0.06001,2.96820
04/28/2019 10:51:07 am,11.0500,0.22503,0.13318,2.00359
04/28/2019 10:51:07 am,11.0750,0.22949,0.16992,0.50978
04/28/2019 10:51:07 am,11.1000,0.23433,0.16077,-1.11778
04/28/2019 10:51:07 am,11.1250,0.23834,0.10889,-2.45044
04/28/2019 10:51:07 am,11.1500,0.24030,0.02654,-3.12424
04/28/2019 10:51:07 am,11.1750,0.23985,-0.06342,-2.94831
04/28/2019 10:51:07 am,11.2000,0.23680,-0.13556,-1.96066
04/28/2019 10:51:07 am,11.2250,0.23233,-0.17125,-0.44849
04/28/2019 10:51:07 am,11.2500,0.22749,-0.15972,1.17457
04/28/2019 10:51:07 am,11.2750,0.22347,-0.10653,2.47691
04/28/2019 10:51:07 am,11.3000,0.22169,-0.02410,3.10940
04/28/2019 10:51:07 am,11.3250,0.22214,0.06466,2.91505
04/28/2019 10:51:07 am,11.3500,0.22520,0.13550,1.93482
04/28/2019 10:51:07 am,11.3750,0.22966,0.17113,0.44062
04/28/2019 10:51:07 am,11.4000,0.23450,0.15966,-1.17209
04/28/2019 10:51:07 am,11.4250,0.23852,0.10659,-2.47421
04/28/2019 10:51:07 am,11.4500,0.24030,0.02422,-3.11682
04/28/2019 10:51:07 am,11.4750,0.23985,-0.06457,-2.93303
04/28/2019 10:51:07 am,11.5000,0.23680,-0.13671,-1.94597
04/28/2019 10:51:07 am,11.5250,0.23233,-0.17243,-0.41127
04/28/2019 10:51:07 am,11.5500,0.22731,-0.15981,1.25081
04/28/2019 10:51:07 am,11.5750,0.22347,-0.10315,2.56217
04/28/2019 10:51:07 am,11.6000,0.22169,-0.01836,3.14980
04/28/2019 10:51:07 am,11.6250,0.22249,0.07045,2.87102
04/28/2019 10:51:07 am,11.6500,0.22554,0.13906,1.82107
04/28/2019 10:51:07 am,11.6750,0.23018,0.17008,0.29489
04/28/2019 10:51:07 am,11.7000,0.23485,0.15517,-1.29601
04/28/2019 10:51:07 am,11.7250,0.23869,0.09857,-2.53752
04/28/2019 10:51:07 am,11.7500,0.24031,0.01616,-3.10372
04/28/2019 10:51:07 am,11.7750,0.23951,-0.07154,-2.84256
04/28/2019 10:51:07 am,11.8000,0.23646,-0.14027,-1.80849
04/28/2019 10:51:07 am,11.8250,0.23181,-0.17138,-0.26487
04/28/2019 10:51:07 am,11.8500,0.22696,-0.15528,1.35971
04/28/2019 10:51:07 am,11.8750,0.22330,-0.09627,2.60216
04/28/2019 10:51:07 am,11.9000,0.22168,-0.01142,3.12034
04/28/2019 10:51:07 am,11.9250,0.22266,0.07509,2.79495
04/28/2019 10:51:07 am,11.9500,0.22589,0.14141,1.72941
04/28/2019 10:51:07 am,11.9750,0.23035,0.17014,0.20326
04/28/2019 10:51:08 am,12.0000,0.23520,0.15294,-1.38833
04/28/2019 10:51:08 am,12.0250,0.23887,0.09405,-2.60804
04/28/2019 10:51:08 am,12.0500,0.24031,0.00925,-3.11353
04/28/2019 10:51:08 am,12.0750,0.23934,-0.07737,-2.77503
04/28/2019 10:51:08 am,12.1000,0.23611,-0.14266,-1.69354
04/28/2019 10:51:08 am,12.1250,0.23146,-0.17029,-0.15672
04/28/2019 10:51:08 am,12.1500,0.22679,-0.15187,1.42957
04/28/2019 10:51:08 am,12.1750,0.22312,-0.09168,2.63350
04/28/2019 10:51:08 am,12.2000,0.22168,-0.00684,3.12107
04/28/2019 10:51:08 am,12.2250,0.22283,0.07971,2.76517
04/28/2019 10:51:08 am,12.2500,0.22606,0.14491,1.66891
04/28/2019 10:51:08 am,12.2750,0.23069,0.17135,0.11925
04/28/2019 10:51:08 am,12.3000,0.23555,0.15186,-1.47277
04/28/2019 10:51:08 am,12.3250,0.23904,0.09065,-2.67747
04/28/2019 10:51:08 am,12.3500,0.24049,0.00470,-3.16071
04/28/2019 10:51:08 am,12.3750,0.23935,-0.08311,-2.77694
04/28/2019 10:51:08 am,12.4000,0.23594,-0.14849,-1.62636
04/28/2019 10:51:08 am,12.4250,0.23112,-0.17271,-0.02688
04/28/2019 10:51:08 am,12.4500,0.22644,-0.14966,1.56866
04/28/2019 10:51:08 am,12.4750,0.22294,-0.08597,2.71979
04/28/2019 10:51:08 am,12.5000,0.22167,7.17070E-5,3.12303
04/28/2019 10:51:08 am,12.5250,0.22299,0.08553,2.68971
04/28/2019 10:51:08 am,12.5500,0.22640,0.14729,1.55412
04/28/2019 10:51:08 am,12.5750,0.23104,0.17026,0.01152
04/28/2019 10:51:08 am,12.6000,0.23572,0.14845,-1.55001
04/28/2019 10:51:08 am,12.6250,0.23922,0.08609,-2.72444
04/28/2019 10:51:08 am,12.6500,0.24049,-0.00104,-3.16990
04/28/2019 10:51:08 am,12.6750,0.23918,-0.08891,-2.73255
04/28/2019 10:51:08 am,12.7000,0.23560,-0.15203,-1.52732
04/28/2019 10:51:08 am,12.7250,0.23078,-0.17280,0.08871
04/28/2019 10:51:08 am,12.7500,0.22609,-0.14625,1.65401
04/28/2019 10:51:08 am,12.7750,0.22277,-0.08138,2.75879
04/28/2019 10:51:08 am,12.8000,0.22167,0.00466,3.13121
04/28/2019 10:51:08 am,12.8250,0.22299,0.09011,2.67562
04/28/2019 10:51:08 am,12.8500,0.22657,0.15194,1.49443
04/28/2019 10:51:08 am,12.8750,0.23139,0.17268,-0.10266
04/28/2019 10:51:08 am,12.9000,0.23607,0.14626,-1.68116
04/28/2019 10:51:08 am,12.9250,0.23940,0.08039,-2.81065
04/28/2019 10:51:08 am,12.9500,0.24050,-0.00795,-3.17950
04/28/2019 10:51:08 am,12.9750,0.23901,-0.09471,-2.67265
04/28/2019 10:51:09 am,13.0000,0.23526,-0.15557,-1.42063
04/28/2019 10:51:09 am,13.0250,0.23043,-0.17289,0.21153
04/28/2019 10:51:09 am,13.0500,0.22575,-0.14287,1.76229
04/28/2019 10:51:09 am,13.0750,0.22259,-0.07568,2.82150
04/28/2019 10:51:09 am,13.1000,0.22167,0.01157,3.13275
04/28/2019 10:51:09 am,13.1250,0.22316,0.09590,2.61567
04/28/2019 10:51:09 am,13.1500,0.22691,0.15547,1.38791
04/28/2019 10:51:09 am,13.1750,0.23173,0.17277,-0.22549
04/28/2019 10:51:09 am,13.2000,0.23641,0.14288,-1.78196
04/28/2019 10:51:09 am,13.2250,0.23957,0.07466,-2.85823
04/28/2019 10:51:09 am,13.2500,0.24050,-0.01372,-3.16552
04/28/2019 10:51:09 am,13.2750,0.23884,-0.09936,-2.61212
04/28/2019 10:51:09 am,13.3000,0.23509,-0.15792,-1.33668
04/28/2019 10:51:09 am,13.3250,0.23008,-0.17295,0.30376
04/28/2019 10:51:09 am,13.3500,0.22557,-0.14063,1.83957
04/28/2019 10:51:09 am,13.3750,0.22241,-0.07109,2.86854
04/28/2019 10:51:09 am,13.4000,0.22166,0.01615,3.13391
04/28/2019 10:51:09 am,13.4250,0.22333,0.10055,2.57083
04/28/2019 10:51:09 am,13.4500,0.22708,0.15782,1.30472
04/28/2019 10:51:09 am,13.4750,0.23208,0.17287,-0.34028
04/28/2019 10:51:09 am,13.5000,0.23659,0.13954,-1.89044
04/28/2019 10:51:09 am,13.5250,0.23975,0.06778,-2.91411
04/28/2019 10:51:09 am,13.5500,0.24034,-0.02066,-3.13667
04/28/2019 10:51:09 am,13.5750,0.23850,-0.10405,-2.52077
04/28/2019 10:51:09 am,13.6000,0.23474,-0.15913,-1.22933
04/28/2019 10:51:09 am,13.6250,0.22974,-0.17186,0.40364
04/28/2019 10:51:09 am,13.6500,0.22522,-0.13725,1.92468
04/28/2019 10:51:09 am,13.6750,0.22224,-0.06538,2.91615
04/28/2019 10:51:09 am,13.7000,0.22166,0.02309,3.11272
04/28/2019 10:51:09 am,13.7250,0.22350,0.10522,2.47970
04/28/2019 10:51:09 am,13.7500,0.22743,0.15906,1.18931
04/28/2019 10:51:09 am,13.7750,0.23225,0.17061,-0.42532
04/28/2019 10:51:09 am,13.8000,0.23676,0.13610,-1.93712
04/28/2019 10:51:09 am,13.8250,0.23975,0.06438,-2.93029
04/28/2019 10:51:09 am,13.8500,0.24034,-0.02528,-3.12249
04/28/2019 10:51:09 am,13.8750,0.23833,-0.10755,-2.46788
04/28/2019 10:51:09 am,13.9000,0.23440,-0.16034,-1.15260
04/28/2019 10:51:09 am,13.9250,0.22957,-0.17074,0.47274
04/28/2019 10:51:09 am,13.9500,0.22505,-0.13498,1.98605
04/28/2019 10:51:09 am,13.9750,0.22206,-0.06200,2.97040
04/28/2019 10:51:10 am,14.0000,0.22165,0.02882,3.13720
04/28/2019 10:51:10 am,14.0250,0.22366,0.11101,2.44311
04/28/2019 10:51:10 am,14.0500,0.22777,0.16258,1.09064
04/28/2019 10:51:10 am,14.0750,0.23260,0.17070,-0.54793
04/28/2019 10:51:10 am,14.1000,0.23711,0.13273,-2.04536
04/28/2019 10:51:10 am,14.1250,0.23993,0.05868,-2.99318
04/28/2019 10:51:10 am,14.1500,0.24035,-0.03219,-3.12424
04/28/2019 10:51:10 am,14.1750,0.23816,-0.11335,-2.40797
04/28/2019 10:51:10 am,14.2000,0.23405,-0.16388,-1.04590
04/28/2019 10:51:10 am,14.2250,0.22922,-0.17083,0.59576
04/28/2019 10:51:10 am,14.2500,0.22470,-0.13160,2.08687
04/28/2019 10:51:10 am,14.2750,0.22188,-0.05627,3.01782
04/28/2019 10:51:10 am,14.3000,0.22165,0.03459,3.12306
04/28/2019 10:51:10 am,14.3250,0.22384,0.11566,2.38257
04/28/2019 10:51:10 am,14.3500,0.22794,0.16494,1.00682
04/28/2019 10:51:10 am,14.3750,0.23294,0.17077,-0.64000
04/28/2019 10:51:10 am,14.4000,0.23728,0.13050,-2.12262
04/28/2019 10:51:10 am,14.4250,0.24011,0.05409,-3.04035
04/28/2019 10:51:10 am,14.4500,0.24035,-0.03678,-3.12574
04/28/2019 10:51:10 am,14.4750,0.23799,-0.11800,-2.35548
04/28/2019 10:51:10 am,14.5000,0.23388,-0.16626,-0.95431
04/28/2019 10:51:10 am,14.5250,0.22887,-0.16975,0.69603
04/28/2019 10:51:10 am,14.5500,0.22453,-0.12818,2.15670
04/28/2019 10:51:10 am,14.5750,0.22188,-0.05168,3.04916
04/28/2019 10:51:10 am,14.6000,0.22165,0.03917,3.12422
04/28/2019 10:51:10 am,14.6250,0.22400,0.12027,2.33835
04/28/2019 10:51:10 am,14.6500,0.22828,0.16850,0.90070
04/28/2019 10:51:10 am,14.6750,0.23329,0.16975,-0.77857
04/28/2019 10:51:10 am,14.7000,0.23764,0.12480,-2.22429
04/28/2019 10:51:10 am,14.7250,0.24011,0.04718,-3.05737
04/28/2019 10:51:10 am,14.7500,0.24018,-0.04258,-3.08055
04/28/2019 10:51:10 am,14.7750,0.23782,-0.12148,-2.28726
04/28/2019 10:51:10 am,14.8000,0.23354,-0.16862,-0.86329
04/28/2019 10:51:10 am,14.8250,0.22853,-0.16987,0.81841
04/28/2019 10:51:10 am,14.8500,0.22418,-0.12368,2.28081
04/28/2019 10:51:10 am,14.8750,0.22170,-0.04365,3.10542
04/28/2019 10:51:10 am,14.9000,0.22181,0.04729,3.07247
04/28/2019 10:51:10 am,14.9250,0.22435,0.12497,2.21608
04/28/2019 10:51:10 am,14.9500,0.22863,0.16856,0.77749
04/28/2019 10:51:10 am,14.9750,0.23364,0.16749,-0.86339
04/28/2019 10:51:11 am,15.0000,0.23781,0.12140,-2.27822
04/28/2019 10:51:11 am,15.0250,0.24029,0.04263,-3.09671
04/28/2019 10:51:11 am,15.0500,0.24018,-0.04832,-3.08249
04/28/2019 10:51:11 am,15.0750,0.23766,-0.12731,-2.21991
04/28/2019 10:51:11 am,15.1000,0.23320,-0.17104,-0.74070
04/28/2019 10:51:11 am,15.1250,0.22818,-0.16763,0.93459
04/28/2019 10:51:11 am,15.1500,0.22400,-0.11909,2.34320
04/28/2019 10:51:11 am,15.1750,0.22170,-0.03906,3.12125
04/28/2019 10:51:11 am,15.2000,0.22181,0.05187,3.06558
04/28/2019 10:51:11 am,15.2250,0.22452,0.12959,2.17909
04/28/2019 10:51:11 am,15.2500,0.22897,0.17209,0.69452
04/28/2019 10:51:11 am,15.2750,0.23398,0.16758,-0.98560
04/28/2019 10:51:11 am,15.3000,0.23816,0.11806,-2.40199
04/28/2019 10:51:11 am,15.3250,0.24047,0.03578,-3.16790
04/28/2019 10:51:11 am,15.3500,0.24019,-0.05641,-3.06936
04/28/2019 10:51:11 am,15.3750,0.23731,-0.13314,-2.12916
04/28/2019 10:51:11 am,15.4000,0.23285,-0.17343,-0.61081
04/28/2019 10:51:11 am,15.4250,0.22784,-0.16657,1.07290
04/28/2019 10:51:11 am,15.4500,0.22365,-0.11459,2.45966
04/28/2019 10:51:11 am,15.4750,0.22152,-0.03104,3.16964
04/28/2019 10:51:11 am,15.5000,0.22198,0.05998,3.01404
04/28/2019 10:51:11 am,15.5250,0.22486,0.13429,2.04961
04/28/2019 10:51:11 am,15.5500,0.22931,0.17218,0.54837
04/28/2019 10:51:11 am,15.5750,0.23433,0.16421,-1.09422
04/28/2019 10:51:11 am,15.6000,0.23833,0.11233,-2.44934
04/28/2019 10:51:11 am,15.6250,0.24047,0.03002,-3.16137
04/28/2019 10:51:11 am,15.6500,0.24002,-0.06103,-3.02435
04/28/2019 10:51:11 am,15.6750,0.23714,-0.13664,-2.05330
04/28/2019 10:51:11 am,15.7000,0.23251,-0.17467,-0.51115
04/28/2019 10:51:11 am,15.7250,0.22749,-0.16434,1.16571
04/28/2019 10:51:11 am,15.7500,0.22348,-0.11000,2.51418
04/28/2019 10:51:11 am,15.7750,0.22152,-0.02645,3.18548
04/28/2019 10:51:11 am,15.8000,0.22197,0.06457,3.00737
04/28/2019 10:51:11 am,15.8250,0.22503,0.13891,2.00541
04/28/2019 10:51:11 am,15.8500,0.22966,0.17574,0.44247
04/28/2019 10:51:11 am,15.8750,0.23467,0.16319,-1.24023
04/28/2019 10:51:11 am,15.9000,0.23869,0.10666,-2.56674
04/28/2019 10:51:11 am,15.9250,0.24048,0.02196,-3.17945
04/28/2019 10:51:11 am,15.9500,0.23985,-0.06804,-2.94134
04/28/2019 10:51:11 am,15.9750,0.23680,-0.13903,-1.93030
04/28/2019 10:51:12 am,16.0000,0.23216,-0.17355,-0.41082
04/28/2019 10:51:12 am,16.0250,0.22732,-0.16207,1.23478
04/28/2019 10:51:12 am,16.0500,0.22331,-0.10662,2.57589
04/28/2019 10:51:12 am,16.0750,0.22134,-0.02075,3.22541
04/28/2019 10:51:12 am,16.1000,0.22214,0.07151,2.97856
04/28/2019 10:51:12 am,16.1250,0.22537,0.14361,1.90650
04/28/2019 10:51:12 am,16.1500,0.23000,0.17581,0.32710
04/28/2019 10:51:12 am,16.1750,0.23502,0.16093,-1.32506
04/28/2019 10:51:12 am,16.2000,0.23886,0.10325,-2.62048
04/28/2019 10:51:12 am,16.2250,0.24065,0.01741,-3.22603
04/28/2019 10:51:12 am,16.2500,0.23986,-0.07374,-2.96620
04/28/2019 10:51:12 am,16.2750,0.23663,-0.14598,-1.88687
04/28/2019 10:51:12 am,16.3000,0.23182,-0.17829,-0.27435
04/28/2019 10:51:12 am,16.3250,0.22680,-0.16108,1.41974
04/28/2019 10:51:12 am,16.3500,0.22295,-0.09980,2.70886
04/28/2019 10:51:12 am,16.3750,0.22134,-0.01151,3.24304
04/28/2019 10:51:12 am,16.4000,0.22231,0.07847,2.90310
04/28/2019 10:51:12 am,16.4250,0.22571,0.14711,1.79213
04/28/2019 10:51:12 am,16.4500,0.23035,0.17705,0.20492
04/28/2019 10:51:12 am,16.4750,0.23536,0.15873,-1.44815
04/28/2019 10:51:12 am,16.5000,0.23921,0.09759,-2.71456
04/28/2019 10:51:12 am,16.5250,0.24066,0.00935,-3.23627
04/28/2019 10:51:12 am,16.5500,0.23969,-0.08075,-2.88339
04/28/2019 10:51:12 am,16.5750,0.23629,-0.14837,-1.75642
04/28/2019 10:51:12 am,16.6000,0.23147,-0.17721,-0.15833
04/28/2019 10:51:12 am,16.6250,0.22662,-0.15766,1.48960
04/28/2019 10:51:12 am,16.6500,0.22278,-0.09521,2.74019
04/28/2019 10:51:12 am,16.6750,0.22133,-0.00693,3.24377
04/28/2019 10:51:12 am,16.7000,0.22248,0.08309,2.87331
04/28/2019 10:51:12 am,16.7250,0.22588,0.15061,1.73163
04/28/2019 10:51:12 am,16.7500,0.23069,0.17825,0.12092
04/28/2019 10:51:12 am,16.7750,0.23571,0.15765,-1.53259
04/28/2019 10:51:12 am,16.8000,0.23939,0.09418,-2.78400
04/28/2019 10:51:12 am,16.8250,0.24083,0.00479,-3.28346
04/28/2019 10:51:12 am,16.8500,0.23970,-0.08649,-2.88511
04/28/2019 10:51:12 am,16.8750,0.23612,-0.15420,-1.69649
04/28/2019 10:51:12 am,16.9000,0.23113,-0.17959,-0.05142
04/28/2019 10:51:12 am,16.9250,0.22628,-0.15657,1.60497
04/28/2019 10:51:12 am,16.9500,0.22260,-0.09182,2.83293
04/28/2019 10:51:12 am,16.9750,0.22116,-0.00122,3.29901
04/28/2019 10:51:13 am,17.0000,0.22247,0.08999,2.86020
04/28/2019 10:51:13 am,17.0250,0.22623,0.15646,1.63353
04/28/2019 10:51:13 am,17.0500,0.23103,0.17952,-0.02462
04/28/2019 10:51:13 am,17.0750,0.23606,0.15428,-1.66413
04/28/2019 10:51:13 am,17.1000,0.23956,0.08848,-2.85472
04/28/2019 10:51:13 am,17.1250,0.24084,-0.00212,-3.28502
04/28/2019 10:51:13 am,17.1500,0.23953,-0.09229,-2.83266
04/28/2019 10:51:13 am,17.1750,0.23578,-0.15771,-1.60528
04/28/2019 10:51:13 am,17.2000,0.23078,-0.18083,0.06337
04/28/2019 10:51:13 am,17.2250,0.22593,-0.15437,1.72070
04/28/2019 10:51:13 am,17.2500,0.22225,-0.08612,2.91113
04/28/2019 10:51:13 am,17.2750,0.22115,0.00569,3.30799
04/28/2019 10:51:13 am,17.3000,0.22264,0.09578,2.81492
04/28/2019 10:51:13 am,17.3250,0.22639,0.15993,1.56542
04/28/2019 10:51:13 am,17.3500,0.23138,0.18188,-0.11541
04/28/2019 10:51:13 am,17.3750,0.23641,0.15441,-1.78639
04/28/2019 10:51:13 am,17.4000,0.23991,0.08399,-2.97896
04/28/2019 10:51:13 am,17.4250,0.24102,-0.01015,-3.34155
04/28/2019 10:51:13 am,17.4500,0.23936,-0.10041,-2.78106
04/28/2019 10:51:13 am,17.4750,0.23543,-0.16242,-1.48309
04/28/2019 10:51:13 am,17.5000,0.23044,-0.18089,0.19428
04/28/2019 10:51:13 am,17.5250,0.22558,-0.15213,1.82116
04/28/2019 10:51:13 am,17.5500,0.22208,-0.08156,2.97346
04/28/2019 10:51:13 am,17.5750,0.22097,0.01142,3.32501
04/28/2019 10:51:13 am,17.6000,0.22281,0.10158,2.76302
04/28/2019 10:51:13 am,17.6250,0.22656,0.16349,1.45122
04/28/2019 10:51:13 am,17.6500,0.23173,0.18083,-0.24673
04/28/2019 10:51:13 am,17.6750,0.23658,0.14985,-1.86489
04/28/2019 10:51:13 am,17.7000,0.23992,0.07820,-2.98005
04/28/2019 10:51:13 am,17.7250,0.24085,-0.01362,-3.30336
04/28/2019 10:51:13 am,17.7500,0.23919,-0.10271,-2.74303
04/28/2019 10:51:13 am,17.7750,0.23527,-0.16475,-1.43799
04/28/2019 10:51:13 am,17.8000,0.23009,-0.18213,0.27058
04/28/2019 10:51:13 am,17.8250,0.22523,-0.14990,1.90628
04/28/2019 10:51:13 am,17.8500,0.22190,-0.07697,3.02071
04/28/2019 10:51:13 am,17.8750,0.22097,0.01604,3.31812
04/28/2019 10:51:13 am,17.9000,0.22281,0.10504,2.72496
04/28/2019 10:51:13 am,17.9250,0.22673,0.16581,1.40539
04/28/2019 10:51:13 am,17.9500,0.23190,0.18200,-0.29232
04/28/2019 10:51:13 am,17.9750,0.23675,0.14989,-1.91815
04/28/2019 10:51:14 am,18.0000,0.24009,0.07712,-3.04164
04/28/2019 10:51:14 am,18.0250,0.24103,-0.01703,-3.35055
04/28/2019 10:51:14 am,18.0500,0.23919,-0.10733,-2.74452
04/28/2019 10:51:14 am,18.0750,0.23509,-0.16825,-1.38506
04/28/2019 10:51:14 am,18.1000,0.22992,-0.18334,0.34730
04/28/2019 10:51:14 am,18.1250,0.22506,-0.14878,1.97573
04/28/2019 10:51:14 am,18.1500,0.22173,-0.07471,3.06716
04/28/2019 10:51:14 am,18.1750,0.22097,0.01948,3.34161
04/28/2019 10:51:14 am,18.2000,0.22281,0.10848,2.72597
04/28/2019 10:51:14 am,18.2250,0.22690,0.16928,1.36845
04/28/2019 10:51:14 am,18.2500,0.23207,0.18439,-0.37551
04/28/2019 10:51:14 am,18.2750,0.23710,0.14884,-2.03342
04/28/2019 10:51:14 am,18.3000,0.24026,0.07260,-3.13530
04/28/2019 10:51:14 am,18.3250,0.24103,-0.02394,-3.37564
04/28/2019 10:51:14 am,18.3500,0.23903,-0.11313,-2.69246
04/28/2019 10:51:14 am,18.3750,0.23475,-0.17179,-1.27836
04/28/2019 10:51:14 am,18.4000,0.22958,-0.18343,0.47013
04/28/2019 10:51:14 am,18.4250,0.22471,-0.14539,2.08400
04/28/2019 10:51:14 am,18.4500,0.22155,-0.06900,3.13007
04/28/2019 10:51:14 am,18.4750,0.22097,0.02639,3.33570
04/28/2019 10:51:14 am,18.5000,0.22297,0.11430,2.65074
04/28/2019 10:51:14 am,18.5250,0.22725,0.17166,1.24645
04/28/2019 10:51:14 am,18.5500,0.23241,0.18334,-0.50618
04/28/2019 10:51:14 am,18.5750,0.23727,0.14432,-2.13445
04/28/2019 10:51:14 am,18.6000,0.24045,0.06572,-3.17570
04/28/2019 10:51:14 am,18.6250,0.24086,-0.03089,-3.33895
04/28/2019 10:51:14 am,18.6500,0.23868,-0.11781,-2.60110
04/28/2019 10:51:14 am,18.6750,0.23440,-0.17300,-1.17100
04/28/2019 10:51:14 am,18.7000,0.22923,-0.18234,0.57022
04/28/2019 10:51:14 am,18.7250,0.22436,-0.14201,2.16146
04/28/2019 10:51:14 am,18.7500,0.22137,-0.06326,3.16942
04/28/2019 10:51:14 am,18.7750,0.22096,0.03215,3.32900
04/28/2019 10:51:14 am,18.8000,0.22314,0.11892,2.60549
04/28/2019 10:51:14 am,18.8250,0.22742,0.17516,1.17813
04/28/2019 10:51:14 am,18.8500,0.23276,0.18455,-0.59019
04/28/2019 10:51:14 am,18.8750,0.23762,0.14323,-2.21891
04/28/2019 10:51:14 am,18.9000,0.24062,0.06231,-3.24536
04/28/2019 10:51:14 am,18.9250,0.24104,-0.03544,-3.37870
04/28/2019 10:51:14 am,18.9500,0.23869,-0.12358,-2.58751
04/28/2019 10:51:14 am,18.9750,0.23424,-0.17768,-1.09554
04/28/2019 10:51:15 am,19.0000,0.22888,-0.18358,0.68519
04/28/2019 10:51:15 am,19.0250,0.22419,-0.13978,2.26954
04/28/2019 10:51:15 am,19.0500,0.22120,-0.05871,3.23959
04/28/2019 10:51:15 am,19.0750,0.22096,0.03788,3.34583
04/28/2019 10:51:15 am,19.1000,0.22331,0.12470,2.56104
04/28/2019 10:51:15 am,19.1250,0.22776,0.17869,1.07946
04/28/2019 10:51:15 am,19.1500,0.23310,0.18464,-0.71301
04/28/2019 10:51:15 am,19.1750,0.23797,0.13986,-2.31993
04/28/2019 10:51:15 am,19.2000,0.24080,0.05658,-3.28553
04/28/2019 10:51:15 am,19.2250,0.24104,-0.04124,-3.34924
04/28/2019 10:51:15 am,19.2500,0.23852,-0.12709,-2.51870
04/28/2019 10:51:15 am,19.2750,0.23407,-0.17886,-1.02625
04/28/2019 10:51:15 am,19.3000,0.22871,-0.18361,0.73897
04/28/2019 10:51:15 am,19.3250,0.22402,-0.13866,2.31562
04/28/2019 10:51:15 am,19.3500,0.22102,-0.05644,3.27858
04/28/2019 10:51:15 am,19.3750,0.22096,0.04132,3.35465
04/28/2019 10:51:15 am,19.4000,0.22331,0.12820,2.52383
04/28/2019 10:51:15 am,19.4250,0.22793,0.17990,1.00306
04/28/2019 10:51:15 am,19.4500,0.23328,0.18356,-0.79045
04/28/2019 10:51:15 am,19.4750,0.23797,0.13642,-2.35941
04/28/2019 10:51:15 am,19.5000,0.24080,0.05311,-3.27876
04/28/2019 10:51:15 am,19.5250,0.24087,-0.04357,-3.31124
04/28/2019 10:51:15 am,19.5500,0.23834,-0.12827,-2.47280
04/28/2019 10:51:15 am,19.5750,0.23389,-0.17889,-0.98032
04/28/2019 10:51:15 am,19.6000,0.22854,-0.18249,0.78508
04/28/2019 10:51:15 am,19.6250,0.22384,-0.13639,2.35443
04/28/2019 10:51:15 am,19.6500,0.22102,-0.05300,3.29463
04/28/2019 10:51:15 am,19.6750,0.22095,0.04479,3.34013
04/28/2019 10:51:15 am,19.7000,0.22348,0.13053,2.47839
04/28/2019 10:51:15 am,19.7250,0.22810,0.18110,0.94196
04/28/2019 10:51:15 am,19.7500,0.23345,0.18244,-0.85175
04/28/2019 10:51:15 am,19.7750,0.23815,0.13416,-2.41334
04/28/2019 10:51:15 am,19.8000,0.24080,0.04970,-3.31766
04/28/2019 10:51:15 am,19.8250,0.24088,-0.04815,-3.32783
04/28/2019 10:51:15 am,19.8500,0.23818,-0.13289,-2.44366
04/28/2019 10:51:15 am,19.8750,0.23355,-0.18242,-0.89697
04/28/2019 10:51:15 am,19.9000,0.22820,-0.18258,0.90025
04/28/2019 10:51:15 am,19.9250,0.22350,-0.13301,2.45545
04/28/2019 10:51:15 am,19.9500,0.22084,-0.04726,3.33480
04/28/2019 10:51:15 am,19.9750,0.22095,0.05058,3.30327
04/28/2019 10:51:16 am,20.0000,0.22365,0.13405,2.38688
04/28/2019 10:51:16 am,20.0250,0.22827,0.18116,0.84184
04/28/2019 10:51:16 am,20.0500,0.23363,0.18018,-0.92175
04/28/2019 10:51:16 am,20.0750,0.23815,0.13073,-2.43733
04/28/2019 10:51:16 am,20.1000,0.24080,0.04623,-3.30305
04/28/2019 10:51:16 am,20.1250,0.24071,-0.05048,-3.28983
04/28/2019 10:51:16 am,20.1500,0.23800,-0.13407,-2.39775
04/28/2019 10:51:16 am,20.1750,0.23338,-0.18245,-0.85084
04/28/2019 10:51:16 am,20.2000,0.22802,-0.18146,0.93890
04/28/2019 10:51:16 am,20.2250,0.22332,-0.13071,2.47877
04/28/2019 10:51:16 am,20.2500,0.22084,-0.04497,3.34241
04/28/2019 10:51:16 am,20.2750,0.22095,0.05287,3.31088
04/28/2019 10:51:16 am,20.3000,0.22365,0.13631,2.39513
04/28/2019 10:51:16 am,20.3250,0.22845,0.18463,0.82761
04/28/2019 10:51:16 am,20.3500,0.23379,0.18254,-0.97458
04/28/2019 10:51:16 am,20.3750,0.23850,0.13079,-2.51416
04/28/2019 10:51:16 am,20.4000,0.24098,0.04397,-3.36527
04/28/2019 10:51:16 am,20.4250,0.24088,-0.05392,-3.31406
04/28/2019 10:51:16 am,20.4500,0.23800,-0.13754,-2.37586
04/28/2019 10:51:16 am,20.4750,0.23338,-0.18481,-0.79027
04/28/2019 10:51:16 am,20.5000,0.22785,-0.18152,1.02324
04/28/2019 10:51:16 am,20.5250,0.22332,-0.12848,2.55622
04/28/2019 10:51:16 am,20.5500,0.22084,-0.04038,3.38241
04/28/2019 10:51:16 am,20.5750,0.22112,0.05749,3.28210
04/28/2019 10:51:16 am,20.6000,0.22399,0.13987,2.29642
04/28/2019 10:51:16 am,20.6250,0.22879,0.18358,0.70459
04/28/2019 10:51:16 am,20.6500,0.23415,0.17799,-1.06790
04/28/2019 10:51:16 am,20.6750,0.23850,0.12506,-2.54623
04/28/2019 10:51:16 am,20.7000,0.24098,0.03821,-3.34368
04/28/2019 10:51:16 am,20.7250,0.24071,-0.05857,-3.24614
04/28/2019 10:51:16 am,20.7500,0.23766,-0.13993,-2.27622
04/28/2019 10:51:16 am,20.7750,0.23303,-0.18372,-0.69720
04/28/2019 10:51:16 am,20.8000,0.22767,-0.17808,1.07058
04/28/2019 10:51:16 am,20.8250,0.22314,-0.12501,2.54937
04/28/2019 10:51:16 am,20.8500,0.22084,-0.03806,3.34393
04/28/2019 10:51:16 am,20.8750,0.22112,0.05866,3.25068
04/28/2019 10:51:16 am,20.9000,0.22399,0.13984,2.29602
04/28/2019 10:51:16 am,20.9250,0.22879,0.18469,0.72052
04/28/2019 10:51:16 am,20.9500,0.23414,0.18031,-1.07428
04/28/2019 10:51:16 am,20.9750,0.23867,0.12627,-2.59932
04/28/2019 10:51:17 am,21.0000,0.24116,0.03712,-3.41355
04/28/2019 10:51:17 am,21.0250,0.24071,-0.06201,-3.27820
04/28/2019 10:51:17 am,21.0500,0.23767,-0.14343,-2.25413
04/28/2019 10:51:17 am,21.0750,0.23286,-0.18490,-0.64364
04/28/2019 10:51:17 am,21.1000,0.22750,-0.17811,1.12436
04/28/2019 10:51:17 am,21.1250,0.22315,-0.12389,2.59545
04/28/2019 10:51:17 am,21.1500,0.22066,-0.03580,3.38291
04/28/2019 10:51:17 am,21.1750,0.22111,0.06210,3.25949
04/28/2019 10:51:17 am,21.2000,0.22416,0.14334,2.25863
04/28/2019 10:51:17 am,21.2250,0.22896,0.18590,0.65179
04/28/2019 10:51:17 am,21.2500,0.23431,0.17920,-1.14365
04/28/2019 10:51:17 am,21.2750,0.23885,0.12401,-2.64603
04/28/2019 10:51:17 am,21.3000,0.24116,0.03368,-3.42972
04/28/2019 10:51:17 am,21.3250,0.24072,-0.06549,-3.26378
04/28/2019 10:51:17 am,21.3500,0.23749,-0.14576,-2.20885
04/28/2019 10:51:17 am,21.3750,0.23269,-0.18611,-0.57518
04/28/2019 10:51:17 am,21.4000,0.22733,-0.17702,1.20870
04/28/2019 10:51:17 am,21.4250,0.22297,-0.12050,2.67307
04/28/2019 10:51:17 am,21.4500,0.22066,-0.03006,3.41523
04/28/2019 10:51:17 am,21.4750,0.22128,0.06789,3.22287
04/28/2019 10:51:17 am,21.5000,0.22451,0.14687,2.15994
04/28/2019 10:51:17 am,21.5250,0.22931,0.18599,0.52898
04/28/2019 10:51:17 am,21.5500,0.23466,0.17583,-1.24442
04/28/2019 10:51:17 am,21.5750,0.23902,0.11828,-2.69340
04/28/2019 10:51:17 am,21.6000,0.24116,0.02792,-3.42300
04/28/2019 10:51:17 am,21.6250,0.24055,-0.07011,-3.22621
04/28/2019 10:51:17 am,21.6500,0.23733,-0.14923,-2.14866
04/28/2019 10:51:17 am,21.6750,0.23234,-0.18850,-0.47632
04/28/2019 10:51:17 am,21.7000,0.22698,-0.17599,1.33187
04/28/2019 10:51:17 am,21.7250,0.22262,-0.11480,2.76679
04/28/2019 10:51:17 am,21.7500,0.22065,-0.02315,3.43227
04/28/2019 10:51:17 am,21.7750,0.22145,0.07368,3.17034
04/28/2019 10:51:17 am,21.8000,0.22467,0.15037,2.06888
04/28/2019 10:51:17 am,21.8250,0.22965,0.18723,0.41441
04/28/2019 10:51:17 am,21.8500,0.23501,0.17363,-1.36007
04/28/2019 10:51:17 am,21.8750,0.23920,0.11258,-2.77175
04/28/2019 10:51:17 am,21.9000,0.24117,0.02101,-3.43260
04/28/2019 10:51:17 am,21.9250,0.24038,-0.07591,-3.16633
04/28/2019 10:51:17 am,21.9500,0.23698,-0.15277,-2.04178
04/28/2019 10:51:17 am,21.9750,0.23200,-0.18859,-0.36072
04/28/2019 10:51:18 am,22.0000,0.22663,-0.17258,1.41744
04/28/2019 10:51:18 am,22.0250,0.22244,-0.11021,2.79856
04/28/2019 10:51:18 am,22.0500,0.22065,-0.01854,3.41772
04/28/2019 10:51:18 am,22.0750,0.22145,0.07715,3.12505
04/28/2019 10:51:18 am,22.1000,0.22485,0.15272,2.00031
04/28/2019 10:51:18 am,22.1250,0.22982,0.18729,0.33783
04/28/2019 10:51:18 am,22.1500,0.23519,0.17137,-1.42945
04/28/2019 10:51:18 am,22.1750,0.23920,0.10918,-2.81848
04/28/2019 10:51:18 am,22.2000,0.24117,0.01642,-3.44921
04/28/2019 10:51:18 am,22.2250,0.24021,-0.08053,-3.13703
04/28/2019 10:51:18 am,22.2500,0.23664,-0.15631,-1.96569
04/28/2019 10:51:18 am,22.2750,0.23166,-0.18865,-0.26847
04/28/2019 10:51:18 am,22.3000,0.22628,-0.17031,1.49458
04/28/2019 10:51:18 am,22.3250,0.22227,-0.10679,2.90463
04/28/2019 10:51:18 am,22.3500,0.22048,-0.01398,
04/28/2019 10:51:18 am,22.3750,0.22144,0.09071,
04/28/2019 10:51:18 am,22.4000,0.22501,,
