Run #1,Run #1,Run #1,Run #1,Run #1
Date and Time,Time (s),Position (m),Velocity (m/s),Acceleration (m/s²)
04/28/2019 09:49:28 am,0.0000,0.24373,,
04/28/2019 09:49:28 am,0.0250,0.24346,-0.06192,
04/28/2019 09:49:28 am,0.0500,0.24064,-0.04416,0.76811
04/28/2019 09:49:28 am,0.0750,0.24028,-0.02352,0.69870
04/28/2019 09:49:28 am,0.1000,0.24028,-0.00239,0.47388
04/28/2019 09:49:28 am,0.1250,0.24028,0.00111,0.20371
04/28/2019 09:49:28 am,0.1500,0.24028,0.00229,0.02464
04/28/2019 09:49:28 am,0.1750,0.24046,0.00236,-0.03779
04/28/2019 09:49:28 am,0.2000,0.24046,6.40987E-5,-0.05458
04/28/2019 09:49:28 am,0.2250,0.24046,-0.00233,-0.01657
04/28/2019 09:49:28 am,0.2500,0.24028,-0.00121,0.03079
04/28/2019 09:49:28 am,0.2750,0.24028,0.00115,0.02422
04/28/2019 09:49:28 am,0.3000,0.24046,0.00121,-0.02251
04/28/2019 09:49:28 am,0.3250,0.24046,-0.00111,-0.03908
04/28/2019 09:49:28 am,0.3500,0.24028,-0.00233,-0.00850
04/28/2019 09:49:28 am,0.3750,0.24028,-0.00118,0.02293
04/28/2019 09:49:28 am,0.4000,0.24028,0.00000,0.02336
04/28/2019 09:49:28 am,0.4250,0.24028,0.00000,0.00786
04/28/2019 09:49:28 am,0.4500,0.24028,0.00000,0.00000
04/28/2019 09:49:28 am,0.4750,0.24028,0.00000,0.00000
04/28/2019 09:49:28 am,0.5000,0.24028,0.00000,0.00000
04/28/2019 09:49:28 am,0.5250,0.24028,0.00000,0.00000
04/28/2019 09:49:28 am,0.5500,0.24028,0.00000,0.00000
04/28/2019 09:49:28 am,0.5750,0.24028,0.00000,0.00000
04/28/2019 09:49:28 am,0.6000,0.24028,0.00000,0.00000
04/28/2019 09:49:28 am,0.6250,0.24028,0.00000,0.00000
04/28/2019 09:49:28 am,0.6500,0.24028,0.00000,0.00000
04/28/2019 09:49:28 am,0.6750,0.24028,0.00000,0.00000
04/28/2019 09:49:28 am,0.7000,0.24028,0.00000,0.00000
04/28/2019 09:49:28 am,0.7250,0.24028,0.00000,0.00000
04/28/2019 09:49:28 am,0.7500,0.24028,0.00000,0.00000
04/28/2019 09:49:28 am,0.7750,0.24028,0.00000,0.00000
04/28/2019 09:49:28 am,0.8000,0.24028,0.00000,0.00000
04/28/2019 09:49:28 am,0.8250,0.24028,0.00000,0.00000
04/28/2019 09:49:28 am,0.8500,0.24028,0.00000,0.00000
04/28/2019 09:49:28 am,0.8750,0.24028,0.00000,-2.13582E-4
04/28/2019 09:49:28 am,0.9000,0.24028,0.00000,0.00722
04/28/2019 09:49:28 am,0.9250,0.24028,-3.20372E-5,0.02251
04/28/2019 09:49:28 am,0.9500,0.24028,0.00111,0.03844
04/28/2019 09:49:28 am,0.9750,0.24028,0.00226,0.03207
04/28/2019 09:49:29 am,1.0000,0.24046,0.00347,-0.02058
04/28/2019 09:49:29 am,1.0250,0.24045,0.00242,-0.10510
04/28/2019 09:49:29 am,1.0500,0.24063,-0.00213,-0.17647
04/28/2019 09:49:29 am,1.0750,0.24047,-0.00790,-0.15652
04/28/2019 09:49:29 am,1.1000,0.24012,-0.01268,-0.02805
04/28/2019 09:49:29 am,1.1250,0.23978,-0.01051,0.15648
04/28/2019 09:49:29 am,1.1500,0.23942,-0.00373,0.30514
04/28/2019 09:49:29 am,1.1750,0.23959,0.00662,0.33212
04/28/2019 09:49:29 am,1.2000,0.23975,0.01596,0.21344
04/28/2019 09:49:29 am,1.2250,0.24044,0.01962,-0.03817
04/28/2019 09:49:29 am,1.2500,0.24096,0.01529,-0.31657
04/28/2019 09:49:29 am,1.2750,0.24132,0.00156,-0.48289
04/28/2019 09:49:29 am,1.3000,0.24116,-0.01347,-0.44259
04/28/2019 09:49:29 am,1.3250,0.24048,-0.02405,-0.20093
04/28/2019 09:49:29 am,1.3500,0.23979,-0.02548,0.15117
04/28/2019 09:49:29 am,1.3750,0.23909,-0.01656,0.49242
04/28/2019 09:49:29 am,1.4000,0.23873,0.00172,0.66124
04/28/2019 09:49:29 am,1.4250,0.23905,0.02261,0.53132
04/28/2019 09:49:29 am,1.4500,0.24008,0.03453,0.12091
04/28/2019 09:49:29 am,1.4750,0.24112,0.03033,-0.38022
04/28/2019 09:49:29 am,1.5000,0.24183,0.01214,-0.73279
04/28/2019 09:49:29 am,1.5250,0.24185,-0.01204,-0.78046
04/28/2019 09:49:29 am,1.5500,0.24118,-0.03303,-0.48893
04/28/2019 09:49:29 am,1.5750,0.23997,-0.04157,0.04582
04/28/2019 09:49:29 am,1.6000,0.23876,-0.03166,0.60285
04/28/2019 09:49:29 am,1.6250,0.23804,-0.00653,0.92710
04/28/2019 09:49:29 am,1.6500,0.23836,0.02236,0.86085
04/28/2019 09:49:29 am,1.6750,0.23939,0.04347,0.42329
04/28/2019 09:49:29 am,1.7000,0.24076,0.04746,-0.22768
04/28/2019 09:49:29 am,1.7250,0.24216,0.03186,-0.84079
04/28/2019 09:49:29 am,1.7500,0.24271,-1.81425E-4,-1.12997
04/28/2019 09:49:29 am,1.7750,0.24222,-0.03500,-0.92029
04/28/2019 09:49:29 am,1.8000,0.24068,-0.05517,-0.27426
04/28/2019 09:49:29 am,1.8250,0.23894,-0.05119,0.51898
04/28/2019 09:49:29 am,1.8500,0.23771,-0.02513,1.11272
04/28/2019 09:49:29 am,1.8750,0.23751,0.01280,1.24985
04/28/2019 09:49:29 am,1.9000,0.23834,0.04774,0.84792
04/28/2019 09:49:29 am,1.9250,0.24023,0.06341,0.04668
04/28/2019 09:49:29 am,1.9500,0.24215,0.05145,-0.81117
04/28/2019 09:49:29 am,1.9750,0.24321,0.01610,-1.33926
04/28/2019 09:49:30 am,2.0000,0.24307,-0.02662,-1.30126
04/28/2019 09:49:30 am,2.0250,0.24172,-0.05941,-0.70605
04/28/2019 09:49:30 am,2.0500,0.23965,-0.06824,0.21317
04/28/2019 09:49:30 am,2.0750,0.23773,-0.04819,1.08155
04/28/2019 09:49:30 am,2.1000,0.23683,-0.00586,1.51975
04/28/2019 09:49:30 am,2.1250,0.23731,0.04045,1.31395
04/28/2019 09:49:30 am,2.1500,0.23919,0.07108,0.52611
04/28/2019 09:49:30 am,2.1750,0.24143,0.07195,-0.52632
04/28/2019 09:49:30 am,2.2000,0.24337,0.04155,-1.39877
04/28/2019 09:49:30 am,2.2250,0.24393,-0.00897,-1.69471
04/28/2019 09:49:30 am,2.2500,0.24293,-0.05781,-1.25170
04/28/2019 09:49:30 am,2.2750,0.24052,-0.08289,-0.23817
04/28/2019 09:49:30 am,2.3000,0.23810,-0.07228,0.91150
04/28/2019 09:49:30 am,2.3250,0.23633,-0.03022,1.69586
04/28/2019 09:49:30 am,2.3500,0.23629,0.02625,1.76259
04/28/2019 09:49:30 am,2.3750,0.23780,0.07296,1.06492
04/28/2019 09:49:30 am,2.4000,0.24056,0.08892,-0.12074
04/28/2019 09:49:30 am,2.4250,0.24300,0.06684,-1.28224
04/28/2019 09:49:30 am,2.4500,0.24443,0.01426,-1.91669
04/28/2019 09:49:30 am,2.4750,0.24396,-0.04471,-1.73909
04/28/2019 09:49:30 am,2.5000,0.24174,-0.08703,-0.80104
04/28/2019 09:49:30 am,2.5250,0.23898,-0.09273,0.51183
04/28/2019 09:49:30 am,2.5500,0.23635,-0.05787,1.64754
04/28/2019 09:49:30 am,2.5750,0.23544,0.00290,2.08516
04/28/2019 09:49:30 am,2.6000,0.23660,0.06446,1.61519
04/28/2019 09:49:30 am,2.6250,0.23917,0.09771,0.43571
04/28/2019 09:49:30 am,2.6500,0.24229,0.08960,-0.94365
04/28/2019 09:49:30 am,2.6750,0.24440,0.04312,-1.92941
04/28/2019 09:49:30 am,2.7000,0.24480,-0.02250,-2.11509
04/28/2019 09:49:30 am,2.7250,0.24312,-0.07960,-1.40597
04/28/2019 09:49:30 am,2.7500,0.24020,-0.10494,-0.06972
04/28/2019 09:49:30 am,2.7750,0.23707,-0.08534,1.35244
04/28/2019 09:49:30 am,2.8000,0.23511,-0.02722,2.23540
04/28/2019 09:49:30 am,2.8250,0.23540,0.04555,2.14682
04/28/2019 09:49:30 am,2.8500,0.23778,0.09949,1.09785
04/28/2019 09:49:30 am,2.8750,0.24123,0.10998,-0.45141
04/28/2019 09:49:30 am,2.9000,0.24421,0.07302,-1.81832
04/28/2019 09:49:30 am,2.9250,0.24547,0.00430,-2.42071
04/28/2019 09:49:30 am,2.9500,0.24450,-0.06758,-1.99409
04/28/2019 09:49:30 am,2.9750,0.24159,-0.11252,-0.68787
04/28/2019 09:49:31 am,3.0000,0.23795,-0.10927,0.95959
04/28/2019 09:49:31 am,3.0250,0.23514,-0.05720,2.22494
04/28/2019 09:49:31 am,3.0500,0.23456,0.02103,2.52270
04/28/2019 09:49:31 am,3.0750,0.23641,0.09092,1.70986
04/28/2019 09:49:31 am,3.1000,0.23984,0.12102,0.14475
04/28/2019 09:49:31 am,3.1250,0.24349,0.09929,-1.49368
04/28/2019 09:49:31 am,3.1500,0.24562,0.03437,-2.49477
04/28/2019 09:49:31 am,3.1750,0.24552,-0.04648,-2.42473
04/28/2019 09:49:31 am,3.2000,0.24297,-0.10742,-1.30858
04/28/2019 09:49:31 am,3.2250,0.23917,-0.12262,0.37827
04/28/2019 09:49:31 am,3.2500,0.23585,-0.08578,1.92207
04/28/2019 09:49:31 am,3.2750,0.23424,-0.01139,2.67170
04/28/2019 09:49:31 am,3.3000,0.23503,0.06965,2.28624
04/28/2019 09:49:31 am,3.3250,0.23828,0.12270,0.89113
04/28/2019 09:49:31 am,3.3500,0.24226,0.12307,-0.92347
04/28/2019 09:49:31 am,3.3750,0.24542,0.06886,-2.35876
04/28/2019 09:49:31 am,3.4000,0.24636,-0.01503,-2.77472
04/28/2019 09:49:31 am,3.4250,0.24451,-0.09301,-1.99552
04/28/2019 09:49:31 am,3.4500,0.24091,-0.13126,-0.36309
04/28/2019 09:49:31 am,3.4750,0.23692,-0.11423,1.43541
04/28/2019 09:49:31 am,3.5000,0.23427,-0.04827,2.64347
04/28/2019 09:49:31 am,3.5250,0.23402,0.03931,2.73662
04/28/2019 09:49:31 am,3.5500,0.23656,0.11171,1.64808
04/28/2019 09:49:31 am,3.5750,0.24052,0.13627,-0.17275
04/28/2019 09:49:31 am,3.6000,0.24453,0.10198,-1.93889
04/28/2019 09:49:31 am,3.6250,0.24650,0.02314,-2.87607
04/28/2019 09:49:31 am,3.6500,0.24588,-0.06598,-2.57100
04/28/2019 09:49:31 am,3.6750,0.24264,-0.12718,-1.14698
04/28/2019 09:49:31 am,3.7000,0.23849,-0.13336,0.78228
04/28/2019 09:49:31 am,3.7250,0.23481,-0.08153,2.37864
04/28/2019 09:49:31 am,3.7500,0.23371,0.00572,2.93299
04/28/2019 09:49:31 am,3.7750,0.23519,0.09054,2.21677
04/28/2019 09:49:31 am,3.8000,0.23897,0.13451,0.56381
04/28/2019 09:49:31 am,3.8250,0.24313,0.12218,-1.30177
04/28/2019 09:49:31 am,3.8500,0.24595,0.05865,-2.60131
04/28/2019 09:49:31 am,3.8750,0.24654,-0.02886,-2.81817
04/28/2019 09:49:31 am,3.9000,0.24435,-0.10464,-1.85349
04/28/2019 09:49:31 am,3.9250,0.24039,-0.13725,-0.10310
04/28/2019 09:49:31 am,3.9500,0.23639,-0.11098,1.69876
04/28/2019 09:49:31 am,3.9750,0.23391,-0.03798,2.78612
04/28/2019 09:49:32 am,4.0000,0.23419,0.05090,2.69454
04/28/2019 09:49:32 am,4.0250,0.23690,0.11878,1.46551
04/28/2019 09:49:32 am,4.0500,0.24104,0.13644,-0.38885
04/28/2019 09:49:32 am,4.0750,0.24488,0.09631,-2.08012
04/28/2019 09:49:32 am,4.1000,0.24668,0.01505,-2.88677
04/28/2019 09:49:32 am,4.1250,0.24571,-0.07185,-2.47250
04/28/2019 09:49:32 am,4.1500,0.24246,-0.12842,-1.01592
04/28/2019 09:49:32 am,4.1750,0.23832,-0.13110,0.87576
04/28/2019 09:49:32 am,4.2000,0.23481,-0.07809,2.41048
04/28/2019 09:49:32 am,4.2250,0.23370,0.00919,2.91875
04/28/2019 09:49:32 am,4.2500,0.23536,0.09287,2.16435
04/28/2019 09:49:32 am,4.2750,0.23914,0.13576,0.47254
04/28/2019 09:49:32 am,4.3000,0.24330,0.11999,-1.40987
04/28/2019 09:49:32 am,4.3250,0.24613,0.05295,-2.67274
04/28/2019 09:49:32 am,4.3500,0.24637,-0.03580,-2.79762
04/28/2019 09:49:32 am,4.3750,0.24401,-0.10936,-1.74727
04/28/2019 09:49:32 am,4.4000,0.24005,-0.13735,0.03544
04/28/2019 09:49:32 am,4.4250,0.23605,-0.10760,1.80793
04/28/2019 09:49:32 am,4.4500,0.23373,-0.03225,2.81942
04/28/2019 09:49:32 am,4.4750,0.23418,0.05673,2.62806
04/28/2019 09:49:32 am,4.5000,0.23707,0.12123,1.31307
04/28/2019 09:49:32 am,4.5250,0.24121,0.13312,-0.55917
04/28/2019 09:49:32 am,4.5500,0.24489,0.08832,-2.17576
04/28/2019 09:49:32 am,4.5750,0.24634,0.00577,-2.84458
04/28/2019 09:49:32 am,4.6000,0.24520,-0.07778,-2.29812
04/28/2019 09:49:32 am,4.6250,0.24177,-0.12747,-0.78456
04/28/2019 09:49:32 am,4.6500,0.23779,-0.12316,1.04101
04/28/2019 09:49:32 am,4.6750,0.23463,-0.06653,2.40768
04/28/2019 09:49:32 am,4.7000,0.23387,0.01744,2.73737
04/28/2019 09:49:32 am,4.7250,0.23571,0.09309,1.90233
04/28/2019 09:49:32 am,4.7500,0.23932,0.12783,0.28418
04/28/2019 09:49:32 am,4.7750,0.24314,0.10843,-1.42250
04/28/2019 09:49:32 am,4.8000,0.24562,0.04472,-2.50718
04/28/2019 09:49:32 am,4.8250,0.24568,-0.03718,-2.53699
04/28/2019 09:49:32 am,4.8500,0.24349,-0.10264,-1.50676
04/28/2019 09:49:32 am,4.8750,0.23969,-0.12476,0.15522
04/28/2019 09:49:32 am,4.9000,0.23621,-0.09371,1.74372
04/28/2019 09:49:32 am,4.9250,0.23425,-0.02282,2.58430
04/28/2019 09:49:32 am,4.9500,0.23488,0.05698,2.32023
04/28/2019 09:49:32 am,4.9750,0.23760,0.11219,1.07849
04/28/2019 09:49:33 am,5.0000,0.24140,0.11931,-0.60296
04/28/2019 09:49:33 am,5.0250,0.24455,0.07663,-2.01830
04/28/2019 09:49:33 am,5.0500,0.24582,0.00210,-2.57660
04/28/2019 09:49:33 am,5.0750,0.24467,-0.07335,-2.04257
04/28/2019 09:49:33 am,5.1000,0.24159,-0.11721,-0.64224
04/28/2019 09:49:33 am,5.1250,0.23778,-0.11045,1.01482
04/28/2019 09:49:33 am,5.1500,0.23514,-0.05714,2.21841
04/28/2019 09:49:33 am,5.1750,0.23456,0.01880,2.47581
04/28/2019 09:49:33 am,5.2000,0.23624,0.08631,1.69985
04/28/2019 09:49:33 am,5.2250,0.23950,0.11748,0.21920
04/28/2019 09:49:33 am,5.2500,0.24315,0.09916,-1.34869
04/28/2019 09:49:33 am,5.2750,0.24527,0.03883,-2.33970
04/28/2019 09:49:33 am,5.3000,0.24534,-0.03734,-2.34436
04/28/2019 09:49:33 am,5.3250,0.24313,-0.09697,-1.36591
04/28/2019 09:49:33 am,5.3500,0.23969,-0.11670,0.18135
04/28/2019 09:49:33 am,5.3750,0.23638,-0.08670,1.65363
04/28/2019 09:49:33 am,5.4000,0.23459,-0.02041,2.43119
04/28/2019 09:49:33 am,5.4250,0.23523,0.05478,2.17333
04/28/2019 09:49:33 am,5.4500,0.23778,0.10649,0.99209
04/28/2019 09:49:33 am,5.4750,0.24141,0.11240,-0.60577
04/28/2019 09:49:33 am,5.5000,0.24438,0.07080,-1.92111
04/28/2019 09:49:33 am,5.5250,0.24548,-3.85275E-4,-2.40056
04/28/2019 09:49:33 am,5.5500,0.24432,-0.06889,-1.87113
04/28/2019 09:49:33 am,5.5750,0.24141,-0.10800,-0.58444
04/28/2019 09:49:33 am,5.6000,0.23812,-0.10226,0.91776
04/28/2019 09:49:33 am,5.6250,0.23548,-0.05468,2.03449
04/28/2019 09:49:33 am,5.6500,0.23491,0.01546,2.30531
04/28/2019 09:49:33 am,5.6750,0.23641,0.07946,1.61281
04/28/2019 09:49:33 am,5.7000,0.23950,0.10939,0.23935
04/28/2019 09:49:33 am,5.7250,0.24281,0.09330,-1.22814
04/28/2019 09:49:33 am,5.7500,0.24493,0.03752,-2.15603
04/28/2019 09:49:33 am,5.7750,0.24499,-0.03288,-2.16613
04/28/2019 09:49:33 am,5.8000,0.24295,-0.08783,-1.27029
04/28/2019 09:49:33 am,5.8250,0.23985,-0.10628,0.13906
04/28/2019 09:49:33 am,5.8500,0.23689,-0.07963,1.47923
04/28/2019 09:49:33 am,5.8750,0.23511,-0.02022,2.20058
04/28/2019 09:49:33 am,5.9000,0.23575,0.04800,1.98653
04/28/2019 09:49:33 am,5.9250,0.23796,0.09618,0.92692
04/28/2019 09:49:33 am,5.9500,0.24124,0.10195,-0.52473
04/28/2019 09:49:33 am,5.9750,0.24404,0.06487,-1.73092
04/28/2019 09:49:34 am,6.0000,0.24496,5.97977E-4,-2.17713
04/28/2019 09:49:34 am,6.0250,0.24397,-0.06211,-1.70711
04/28/2019 09:49:34 am,6.0500,0.24140,-0.09764,-0.54238
04/28/2019 09:49:34 am,6.0750,0.23828,-0.09296,0.82129
04/28/2019 09:49:34 am,6.1000,0.23600,-0.04991,1.82869
04/28/2019 09:49:34 am,6.1250,0.23543,0.01335,2.07368
04/28/2019 09:49:34 am,6.1500,0.23677,0.07035,1.46294
04/28/2019 09:49:34 am,6.1750,0.23951,0.09783,0.25757
04/28/2019 09:49:34 am,6.2000,0.24247,0.08505,-1.03901
04/28/2019 09:49:34 am,6.2250,0.24441,0.03729,-1.89440
04/28/2019 09:49:34 am,6.2500,0.24463,-0.02495,-1.96304
04/28/2019 09:49:34 am,6.2750,0.24294,-0.07632,-1.21993
04/28/2019 09:49:34 am,6.3000,0.24019,-0.09580,0.02731
04/28/2019 09:49:34 am,6.3250,0.23740,-0.07486,1.25811
04/28/2019 09:49:34 am,6.3500,0.23580,-0.02232,1.95364
04/28/2019 09:49:34 am,6.3750,0.23610,0.03892,1.82138
04/28/2019 09:49:34 am,6.4000,0.23814,0.08347,0.92968
04/28/2019 09:49:34 am,6.4250,0.24090,0.09255,-0.34344
04/28/2019 09:49:34 am,6.4500,0.24352,0.06350,-1.46932
04/28/2019 09:49:34 am,6.4750,0.24460,0.00738,-1.97428
04/28/2019 09:49:34 am,6.5000,0.24396,-0.05175,-1.64951
04/28/2019 09:49:34 am,6.5250,0.24157,-0.08834,-0.63158
04/28/2019 09:49:34 am,6.5500,0.23880,-0.08821,0.63818
04/28/2019 09:49:34 am,6.5750,0.23652,-0.05090,1.62822
04/28/2019 09:49:34 am,6.6000,0.23578,0.00653,1.93315
04/28/2019 09:49:34 am,6.6250,0.23695,0.06115,1.42920
04/28/2019 09:49:34 am,6.6500,0.23935,0.08971,0.33950
04/28/2019 09:49:34 am,6.6750,0.24212,0.08030,-0.87895
04/28/2019 09:49:34 am,6.7000,0.24406,0.03831,-1.71730
04/28/2019 09:49:34 am,6.7250,0.24428,-0.01929,-1.83026
04/28/2019 09:49:34 am,6.7500,0.24294,-0.06829,-1.18613
04/28/2019 09:49:34 am,6.7750,0.24036,-0.08764,-0.05447
04/28/2019 09:49:34 am,6.8000,0.23774,-0.07126,1.09033
04/28/2019 09:49:34 am,6.8250,0.23633,-0.02449,1.76828
04/28/2019 09:49:34 am,6.8500,0.23628,0.03211,1.70355
04/28/2019 09:49:34 am,6.8750,0.23815,0.07424,0.92605
04/28/2019 09:49:34 am,6.9000,0.24074,0.08555,-0.21610
04/28/2019 09:49:34 am,6.9250,0.24300,0.06098,-1.24743
04/28/2019 09:49:34 am,6.9500,0.24425,0.01295,-1.75698
04/28/2019 09:49:34 am,6.9750,0.24378,-0.04028,-1.54517
04/28/2019 09:49:35 am,7.0000,0.24190,-0.07674,-0.70422
04/28/2019 09:49:35 am,7.0250,0.23931,-0.08111,0.42513
04/28/2019 09:49:35 am,7.0500,0.23721,-0.05186,1.37379
04/28/2019 09:49:35 am,7.0750,0.23630,-0.00140,1.75312
04/28/2019 09:49:35 am,7.1000,0.23713,0.04962,1.40205
04/28/2019 09:49:35 am,7.1250,0.23918,0.08038,0.46708
04/28/2019 09:49:35 am,7.1500,0.24178,0.07667,-0.66453
04/28/2019 09:49:35 am,7.1750,0.24371,0.04162,-1.51576
04/28/2019 09:49:35 am,7.2000,0.24410,-0.01129,-1.72700
04/28/2019 09:49:35 am,7.2250,0.24310,-0.05902,-1.22114
04/28/2019 09:49:35 am,7.2500,0.24070,-0.08174,-0.20613
04/28/2019 09:49:35 am,7.2750,0.23826,-0.07110,0.89004
04/28/2019 09:49:35 am,7.3000,0.23668,-0.03013,1.61943
04/28/2019 09:49:35 am,7.3250,0.23646,0.02287,1.68447
04/28/2019 09:49:35 am,7.3500,0.23798,0.06720,1.04687
04/28/2019 09:49:35 am,7.3750,0.24039,0.08424,-0.03859
04/28/2019 09:49:35 am,7.4000,0.24283,0.06553,-1.12957
04/28/2019 09:49:35 am,7.4250,0.24425,0.01875,-1.75441
04/28/2019 09:49:35 am,7.4500,0.24395,-0.03675,-1.63627
04/28/2019 09:49:35 am,7.4750,0.24208,-0.07664,-0.81997
04/28/2019 09:49:35 am,7.5000,0.23949,-0.08452,0.34655
04/28/2019 09:49:35 am,7.5250,0.23722,-0.05648,1.37168
04/28/2019 09:49:35 am,7.5500,0.23613,-0.00493,1.82850
04/28/2019 09:49:35 am,7.5750,0.23696,0.04952,1.51734
04/28/2019 09:49:35 am,7.6000,0.23900,0.08376,0.56094
04/28/2019 09:49:35 am,7.6250,0.24177,0.08243,-0.64666
04/28/2019 09:49:35 am,7.6500,0.24388,0.04630,-1.59048
04/28/2019 09:49:35 am,7.6750,0.24445,-0.01001,-1.86483
04/28/2019 09:49:35 am,7.7000,0.24328,-0.06237,-1.35326
04/28/2019 09:49:35 am,7.7250,0.24088,-0.08863,-0.26284
04/28/2019 09:49:35 am,7.7500,0.23810,-0.07808,0.94867
04/28/2019 09:49:35 am,7.7750,0.23633,-0.03373,1.77190
04/28/2019 09:49:35 am,7.8000,0.23611,0.02504,1.85454
04/28/2019 09:49:35 am,7.8250,0.23780,0.07404,1.14942
04/28/2019 09:49:35 am,7.8500,0.24038,0.09233,-0.05108
04/28/2019 09:49:35 am,7.8750,0.24317,0.07139,-1.24313
04/28/2019 09:49:35 am,7.9000,0.24459,0.02003,-1.90815
04/28/2019 09:49:35 am,7.9250,0.24430,-0.04012,-1.76054
04/28/2019 09:49:35 am,7.9500,0.24225,-0.08238,-0.87564
04/28/2019 09:49:35 am,7.9750,0.23949,-0.09028,0.36779
04/28/2019 09:49:36 am,8.0000,0.23704,-0.06116,1.45495
04/28/2019 09:49:36 am,8.0250,0.23597,-0.00617,1.94338
04/28/2019 09:49:36 am,8.0500,0.23661,0.05175,1.62561
04/28/2019 09:49:36 am,8.0750,0.23900,0.08831,0.62379
04/28/2019 09:49:36 am,8.1000,0.24177,0.08820,-0.64470
04/28/2019 09:49:36 am,8.1250,0.24405,0.05095,-1.65774
04/28/2019 09:49:36 am,8.1500,0.24479,-0.00759,-1.98715
04/28/2019 09:49:36 am,8.1750,0.24363,-0.06456,-1.47712
04/28/2019 09:49:36 am,8.2000,0.24105,-0.09436,-0.33402
04/28/2019 09:49:36 am,8.2250,0.23810,-0.08385,0.96206
04/28/2019 09:49:36 am,8.2500,0.23616,-0.03841,1.85517
04/28/2019 09:49:36 am,8.2750,0.23594,0.02379,1.96941
04/28/2019 09:49:36 am,8.3000,0.23745,0.07627,1.25768
04/28/2019 09:49:36 am,8.3250,0.24038,0.09688,0.01199
04/28/2019 09:49:36 am,8.3500,0.24316,0.07716,-1.24838
04/28/2019 09:49:36 am,8.3750,0.24476,0.02471,-1.99814
04/28/2019 09:49:36 am,8.4000,0.24464,-0.03881,-1.91409
04/28/2019 09:49:36 am,8.4250,0.24261,-0.08687,-1.00863
04/28/2019 09:49:36 am,8.4500,0.23950,-0.09838,0.34144
04/28/2019 09:49:36 am,8.4750,0.23688,-0.06702,1.55265
04/28/2019 09:49:36 am,8.5000,0.23562,-0.00745,2.10456
04/28/2019 09:49:36 am,8.5250,0.23643,0.05510,1.76553
04/28/2019 09:49:36 am,8.5500,0.23882,0.09519,0.68050
04/28/2019 09:49:36 am,8.5750,0.24194,0.09517,-0.70347
04/28/2019 09:49:36 am,8.6000,0.24439,0.05455,-1.80276
04/28/2019 09:49:36 am,8.6250,0.24514,-0.00979,-2.14178
04/28/2019 09:49:36 am,8.6500,0.24380,-0.07027,-1.57166
04/28/2019 09:49:36 am,8.6750,0.24106,-0.10128,-0.32913
04/28/2019 09:49:36 am,8.7000,0.23793,-0.08971,1.06742
04/28/2019 09:49:36 am,8.7250,0.23582,-0.03971,2.02399
04/28/2019 09:49:36 am,8.7500,0.23559,0.02829,2.11759
04/28/2019 09:49:36 am,8.7750,0.23745,0.08433,1.29952
04/28/2019 09:49:36 am,8.8000,0.24055,0.10389,-0.07757
04/28/2019 09:49:36 am,8.8250,0.24351,0.07961,-1.41695
04/28/2019 09:49:36 am,8.8500,0.24511,0.02137,-2.15341
04/28/2019 09:49:36 am,8.8750,0.24482,-0.04569,-1.98572
04/28/2019 09:49:36 am,8.9000,0.24244,-0.09382,-0.97997
04/28/2019 09:49:36 am,8.9250,0.23933,-0.10306,0.44002
04/28/2019 09:49:36 am,8.9500,0.23653,-0.06826,1.68306
04/28/2019 09:49:36 am,8.9750,0.23527,-0.00525,2.22090
04/28/2019 09:49:37 am,9.0000,0.23626,0.06083,1.82135
04/28/2019 09:49:37 am,9.0250,0.23882,0.10099,0.65185
04/28/2019 09:49:37 am,9.0500,0.24211,0.09871,-0.80239
04/28/2019 09:49:37 am,9.0750,0.24456,0.05465,-1.91848
04/28/2019 09:49:37 am,9.1000,0.24532,-0.01319,-2.22017
04/28/2019 09:49:37 am,9.1250,0.24381,-0.07489,-1.58103
04/28/2019 09:49:37 am,9.1500,0.24089,-0.10478,-0.27624
04/28/2019 09:49:37 am,9.1750,0.23776,-0.09092,1.14432
04/28/2019 09:49:37 am,9.2000,0.23564,-0.03860,2.08600
04/28/2019 09:49:37 am,9.2250,0.23541,0.03058,2.14900
04/28/2019 09:49:37 am,9.2500,0.23745,0.08662,1.29993
04/28/2019 09:49:37 am,9.2750,0.24055,0.10621,-0.09264
04/28/2019 09:49:37 am,9.3000,0.24350,0.08076,-1.43965
04/28/2019 09:49:37 am,9.3250,0.24529,0.02255,-2.18398
04/28/2019 09:49:37 am,9.3500,0.24482,-0.04566,-2.01652
04/28/2019 09:49:37 am,9.3750,0.24261,-0.09496,-1.00355
04/28/2019 09:49:37 am,9.4000,0.23933,-0.10421,0.43959
04/28/2019 09:49:37 am,9.4250,0.23653,-0.06944,1.69835
04/28/2019 09:49:37 am,9.4500,0.23527,-0.00525,2.23641
04/28/2019 09:49:37 am,9.4750,0.23626,0.06083,1.82921
04/28/2019 09:49:37 am,9.5000,0.23882,0.10099,0.65185
04/28/2019 09:49:37 am,9.5250,0.24211,0.09871,-0.80239
04/28/2019 09:49:37 am,9.5500,0.24456,0.05465,-1.91869
04/28/2019 09:49:37 am,9.5750,0.24532,-0.01319,-2.21295
04/28/2019 09:49:37 am,9.6000,0.24381,-0.07492,-1.55810
04/28/2019 09:49:37 am,9.6250,0.24089,-0.10367,-0.25247
04/28/2019 09:49:37 am,9.6500,0.23776,-0.08859,1.13795
04/28/2019 09:49:37 am,9.6750,0.23582,-0.03739,2.03314
04/28/2019 09:49:37 am,9.7000,0.23559,0.02950,2.07194
04/28/2019 09:49:37 am,9.7250,0.23745,0.08322,1.24493
04/28/2019 09:49:37 am,9.7500,0.24055,0.10160,-0.09459
04/28/2019 09:49:37 am,9.7750,0.24334,0.07725,-1.37238
04/28/2019 09:49:37 am,9.8000,0.24494,0.02127,-2.06166
04/28/2019 09:49:37 am,9.8250,0.24465,-0.04232,-1.89224
04/28/2019 09:49:37 am,9.8500,0.24243,-0.08808,-0.94661
04/28/2019 09:49:37 am,9.8750,0.23950,-0.09723,0.37353
04/28/2019 09:49:37 am,9.9000,0.23688,-0.06581,1.53037
04/28/2019 09:49:37 am,9.9250,0.23562,-0.00856,2.05784
04/28/2019 09:49:37 am,9.9500,0.23644,0.05281,1.74853
04/28/2019 09:49:37 am,9.9750,0.23865,0.09283,0.72507
04/28/2019 09:49:38 am,10.0000,0.24176,0.09508,-0.61196
04/28/2019 09:49:38 am,10.0250,0.24422,0.05793,-1.70229
04/28/2019 09:49:38 am,10.0500,0.24513,-0.00408,-2.07845
04/28/2019 09:49:38 am,10.0750,0.24397,-0.06335,-1.58418
04/28/2019 09:49:38 am,10.1000,0.24140,-0.09541,-0.44151
04/28/2019 09:49:38 am,10.1250,0.23845,-0.08837,0.86884
04/28/2019 09:49:38 am,10.1500,0.23634,-0.04529,1.81464
04/28/2019 09:49:38 am,10.1750,0.23577,0.01685,2.01316
04/28/2019 09:49:38 am,10.2000,0.23728,0.07156,1.37869
04/28/2019 09:49:38 am,10.2250,0.24004,0.09675,0.18034
04/28/2019 09:49:38 am,10.2500,0.24281,0.08161,-1.08548
04/28/2019 09:49:38 am,10.2750,0.24476,0.03385,-1.91779
04/28/2019 09:49:38 am,10.3000,0.24480,-0.02836,-1.97138
04/28/2019 09:49:38 am,10.3250,0.24312,-0.08094,-1.20595
04/28/2019 09:49:38 am,10.3500,0.24019,-0.09930,0.08718
04/28/2019 09:49:38 am,10.3750,0.23723,-0.07610,1.36493
04/28/2019 09:49:38 am,10.4000,0.23580,-0.02013,2.06936
04/28/2019 09:49:38 am,10.4250,0.23609,0.04462,1.90037
04/28/2019 09:49:38 am,10.4500,0.23831,0.09038,0.91741
04/28/2019 09:49:38 am,10.4750,0.24142,0.09845,-0.46398
04/28/2019 09:49:38 am,10.5000,0.24404,0.06366,-1.65341
04/28/2019 09:49:38 am,10.5250,0.24513,0.00175,-2.13786
04/28/2019 09:49:38 am,10.5500,0.24414,-0.06093,-1.70692
04/28/2019 09:49:38 am,10.5750,0.24157,-0.09764,-0.55069
04/28/2019 09:49:38 am,10.6000,0.23845,-0.09299,0.83612
04/28/2019 09:49:38 am,10.6250,0.23617,-0.04879,1.85967
04/28/2019 09:49:38 am,10.6500,0.23560,0.01564,2.09004
04/28/2019 09:49:38 am,10.6750,0.23711,0.07268,1.44111
04/28/2019 09:49:38 am,10.7000,0.23986,0.09905,0.19711
04/28/2019 09:49:38 am,10.7250,0.24281,0.08397,-1.12328
04/28/2019 09:49:38 am,10.7500,0.24476,0.03392,-1.97237
04/28/2019 09:49:38 am,10.7750,0.24481,-0.03069,-1.98838
04/28/2019 09:49:38 am,10.8000,0.24295,-0.08215,-1.16050
04/28/2019 09:49:38 am,10.8250,0.24002,-0.09822,0.14985
04/28/2019 09:49:38 am,10.8500,0.23723,-0.07263,1.37471
04/28/2019 09:49:38 am,10.8750,0.23580,-0.01774,2.00141
04/28/2019 09:49:38 am,10.9000,0.23627,0.04357,1.79929
04/28/2019 09:49:38 am,10.9250,0.23831,0.08579,0.87620
04/28/2019 09:49:38 am,10.9500,0.24125,0.09373,-0.39690
04/28/2019 09:49:38 am,10.9750,0.24369,0.06353,-1.52238
04/28/2019 09:49:39 am,11.0000,0.24495,0.00630,-2.04332
04/28/2019 09:49:39 am,11.0250,0.24414,-0.05513,-1.71220
04/28/2019 09:49:39 am,11.0500,0.24175,-0.09411,-0.64180
04/28/2019 09:49:39 am,11.0750,0.23863,-0.09289,0.72037
04/28/2019 09:49:39 am,11.1000,0.23635,-0.05220,1.78132
04/28/2019 09:49:39 am,11.1250,0.23560,0.01102,2.08071
04/28/2019 09:49:39 am,11.1500,0.23694,0.06917,1.49375
04/28/2019 09:49:39 am,11.1750,0.23969,0.09783,0.28117
04/28/2019 09:49:39 am,11.2000,0.24264,0.08505,-1.03835
04/28/2019 09:49:39 am,11.2250,0.24458,0.03732,-1.91712
04/28/2019 09:49:39 am,11.2500,0.24480,-0.02607,-1.99407
04/28/2019 09:49:39 am,11.2750,0.24312,-0.07862,-1.23631
04/28/2019 09:49:39 am,11.3000,0.24019,-0.09812,0.04917
04/28/2019 09:49:39 am,11.3250,0.23740,-0.07607,1.31885
04/28/2019 09:49:39 am,11.3500,0.23580,-0.02124,2.03050
04/28/2019 09:49:39 am,11.3750,0.23609,0.04233,1.88380
04/28/2019 09:49:39 am,11.4000,0.23831,0.08806,0.94670
04/28/2019 09:49:39 am,11.4250,0.24124,0.09721,-0.38754
04/28/2019 09:49:39 am,11.4500,0.24386,0.06589,-1.57523
04/28/2019 09:49:39 am,11.4750,0.24512,0.00637,-2.12041
04/28/2019 09:49:39 am,11.5000,0.24431,-0.05739,-1.76723
04/28/2019 09:49:39 am,11.5250,0.24175,-0.09758,-0.64309
04/28/2019 09:49:39 am,11.5500,0.23863,-0.09525,0.76582
04/28/2019 09:49:39 am,11.5750,0.23617,-0.05224,1.84269
04/28/2019 09:49:39 am,11.6000,0.23560,0.01214,2.13464
04/28/2019 09:49:39 am,11.6250,0.23694,0.07143,1.53305
04/28/2019 09:49:39 am,11.6500,0.23968,0.10127,0.28290
04/28/2019 09:49:39 am,11.6750,0.24281,0.08859,-1.09842
04/28/2019 09:49:39 am,11.7000,0.24493,0.03742,-2.01716
04/28/2019 09:49:39 am,11.7250,0.24498,-0.02948,-2.07247
04/28/2019 09:49:39 am,11.7500,0.24312,-0.08324,-1.24567
04/28/2019 09:49:39 am,11.7750,0.24019,-0.10163,0.10185
04/28/2019 09:49:39 am,11.8000,0.23723,-0.07728,1.40316
04/28/2019 09:49:39 am,11.8250,0.23563,-0.02016,2.10822
04/28/2019 09:49:39 am,11.8500,0.23609,0.04577,1.91629
04/28/2019 09:49:39 am,11.8750,0.23831,0.09156,0.90998
04/28/2019 09:49:39 am,11.9000,0.24142,0.09845,-0.47969
04/28/2019 09:49:39 am,11.9250,0.24404,0.06366,-1.65404
04/28/2019 09:49:39 am,11.9500,0.24513,0.00171,-2.11514
04/28/2019 09:49:39 am,11.9750,0.24414,-0.05981,-1.67570
04/28/2019 09:49:40 am,12.0000,0.24157,-0.09535,-0.54156
04/28/2019 09:49:40 am,12.0250,0.23863,-0.09063,0.79152
04/28/2019 09:49:40 am,12.0500,0.23634,-0.04870,1.76773
04/28/2019 09:49:40 am,12.0750,0.23577,0.01227,2.00384
04/28/2019 09:49:40 am,12.1000,0.23712,0.06691,1.43070
04/28/2019 09:49:40 am,12.1250,0.23969,0.09433,0.28733
04/28/2019 09:49:40 am,12.1500,0.24246,0.08384,-0.97720
04/28/2019 09:49:40 am,12.1750,0.24458,0.03844,-1.85512
04/28/2019 09:49:40 am,12.2000,0.24480,-0.02377,-1.96243
04/28/2019 09:49:40 am,12.2250,0.24311,-0.07632,-1.24247
04/28/2019 09:49:40 am,12.2500,0.24036,-0.09576,-0.01072
04/28/2019 09:49:40 am,12.2750,0.23757,-0.07594,1.21162
04/28/2019 09:49:40 am,12.3000,0.23598,-0.02576,1.92903
04/28/2019 09:49:40 am,12.3250,0.23610,0.03542,1.85812
04/28/2019 09:49:40 am,12.3500,0.23797,0.08223,1.02118
04/28/2019 09:49:40 am,12.3750,0.24090,0.09478,-0.24300
04/28/2019 09:49:40 am,12.4000,0.24352,0.06805,-1.40599
04/28/2019 09:49:40 am,12.4250,0.24477,0.01315,-1.98719
04/28/2019 09:49:40 am,12.4500,0.24430,-0.04704,-1.74763
04/28/2019 09:49:40 am,12.4750,0.24209,-0.08821,-0.77774
04/28/2019 09:49:40 am,12.5000,0.23915,-0.09274,0.52092
04/28/2019 09:49:40 am,12.5250,0.23670,-0.05781,1.60253
04/28/2019 09:49:40 am,12.5500,0.23578,7.05023E-4,2.00770
04/28/2019 09:49:40 am,12.5750,0.23678,0.05873,1.57423
04/28/2019 09:49:40 am,12.6000,0.23917,0.09188,0.49408
04/28/2019 09:49:40 am,12.6250,0.24212,0.08715,-0.78420
04/28/2019 09:49:40 am,12.6500,0.24423,0.04640,-1.72934
04/28/2019 09:49:40 am,12.6750,0.24480,-0.01342,-1.95852
04/28/2019 09:49:40 am,12.7000,0.24345,-0.06695,-1.37794
04/28/2019 09:49:40 am,12.7250,0.24088,-0.09328,-0.22569
04/28/2019 09:49:40 am,12.7500,0.23810,-0.08044,1.02513
04/28/2019 09:49:40 am,12.7750,0.23616,-0.03379,1.84941
04/28/2019 09:49:40 am,12.8000,0.23611,0.02733,1.89381
04/28/2019 09:49:40 am,12.8250,0.23780,0.07637,1.14984
04/28/2019 09:49:40 am,12.8500,0.24056,0.09348,-0.06657
04/28/2019 09:49:40 am,12.8750,0.24316,0.07254,-1.25075
04/28/2019 09:49:40 am,12.9000,0.24477,0.02117,-1.91536
04/28/2019 09:49:40 am,12.9250,0.24447,-0.03894,-1.78307
04/28/2019 09:49:40 am,12.9500,0.24243,-0.08235,-0.91368
04/28/2019 09:49:40 am,12.9750,0.23966,-0.09140,0.32170
04/28/2019 09:49:41 am,13.0000,0.23722,-0.06342,1.41588
04/28/2019 09:49:41 am,13.0250,0.23597,-0.00962,1.93426
04/28/2019 09:49:41 am,13.0500,0.23661,0.04825,1.67020
04/28/2019 09:49:41 am,13.0750,0.23883,0.08707,0.71552
04/28/2019 09:49:41 am,13.1000,0.24159,0.09043,-0.55169
04/28/2019 09:49:41 am,13.1250,0.24404,0.05554,-1.60994
04/28/2019 09:49:41 am,13.1500,0.24496,-0.00297,-2.00815
04/28/2019 09:49:41 am,13.1750,0.24379,-0.06103,-1.56780
04/28/2019 09:49:41 am,13.2000,0.24140,-0.09423,-0.46464
04/28/2019 09:49:41 am,13.2250,0.23845,-0.08837,0.85269
04/28/2019 09:49:41 am,13.2500,0.23617,-0.04532,1.82970
04/28/2019 09:49:41 am,13.2750,0.23577,0.01797,2.03694
04/28/2019 09:49:41 am,13.3000,0.23728,0.07389,1.37277
04/28/2019 09:49:41 am,13.3250,0.24003,0.09796,0.11283
04/28/2019 09:49:41 am,13.3500,0.24299,0.08059,-1.20103
04/28/2019 09:49:41 am,13.3750,0.24476,0.02818,-2.00492
04/28/2019 09:49:41 am,13.4000,0.24464,-0.03649,-1.95188
04/28/2019 09:49:41 am,13.4250,0.24260,-0.08569,-1.06193
04/28/2019 09:49:41 am,13.4500,0.23967,-0.09831,0.27986
04/28/2019 09:49:41 am,13.4750,0.23688,-0.06928,1.50572
04/28/2019 09:49:41 am,13.5000,0.23562,-0.01092,2.09565
04/28/2019 09:49:41 am,13.5250,0.23626,0.05277,1.80289
04/28/2019 09:49:41 am,13.5500,0.23865,0.09398,0.74906
04/28/2019 09:49:41 am,13.5750,0.24176,0.09625,-0.62640
04/28/2019 09:49:41 am,13.6000,0.24422,0.05796,-1.74751
04/28/2019 09:49:41 am,13.6250,0.24513,-0.00517,-2.14747
04/28/2019 09:49:41 am,13.6500,0.24397,-0.06673,-1.64705
04/28/2019 09:49:41 am,13.6750,0.24123,-0.10118,-0.44425
04/28/2019 09:49:41 am,13.7000,0.23811,-0.09308,0.96613
04/28/2019 09:49:41 am,13.7250,0.23582,-0.04545,1.99089
04/28/2019 09:49:41 am,13.7500,0.23542,0.02246,2.17706
04/28/2019 09:49:41 am,13.7750,0.23710,0.08191,1.42179
04/28/2019 09:49:41 am,13.8000,0.24020,0.10612,0.04597
04/28/2019 09:49:41 am,13.8250,0.24333,0.08416,-1.33902
04/28/2019 09:49:41 am,13.8500,0.24511,0.02710,-2.12893
04/28/2019 09:49:41 am,13.8750,0.24481,-0.03993,-2.01434
04/28/2019 09:49:41 am,13.9000,0.24278,-0.08913,-1.07809
04/28/2019 09:49:41 am,13.9250,0.23967,-0.10175,0.29431
04/28/2019 09:49:41 am,13.9500,0.23688,-0.07279,1.55076
04/28/2019 09:49:41 am,13.9750,0.23545,-0.01213,2.17231
04/28/2019 09:49:42 am,14.0000,0.23609,0.05386,1.87316
04/28/2019 09:49:42 am,14.0250,0.23865,0.09745,0.76583
04/28/2019 09:49:42 am,14.0500,0.24176,0.09861,-0.66419
04/28/2019 09:49:42 am,14.0750,0.24439,0.05799,-1.80208
04/28/2019 09:49:42 am,14.1000,0.24513,-0.00631,-2.16404
04/28/2019 09:49:42 am,14.1250,0.24397,-0.06794,-1.61690
04/28/2019 09:49:42 am,14.1500,0.24123,-0.10007,-0.39754
04/28/2019 09:49:42 am,14.1750,0.23811,-0.09079,0.98332
04/28/2019 09:49:42 am,14.2000,0.23599,-0.04309,1.93887
04/28/2019 09:49:42 am,14.2250,0.23559,0.02259,2.06963
04/28/2019 09:49:42 am,14.2500,0.23728,0.07739,1.32730
04/28/2019 09:49:42 am,14.2750,0.24021,0.09917,0.05040
04/28/2019 09:49:42 am,14.3000,0.24299,0.07942,-1.21758
04/28/2019 09:49:42 am,14.3250,0.24476,0.02812,-1.97411
04/28/2019 09:49:42 am,14.3500,0.24464,-0.03419,-1.92723
04/28/2019 09:49:42 am,14.3750,0.24277,-0.08333,-1.09889
04/28/2019 09:49:42 am,14.4000,0.23984,-0.09822,0.19554
04/28/2019 09:49:42 am,14.4250,0.23705,-0.07269,1.42780
04/28/2019 09:49:42 am,14.4500,0.23563,-0.01551,2.07082
04/28/2019 09:49:42 am,14.4750,0.23609,0.04812,1.84747
04/28/2019 09:49:42 am,14.5000,0.23848,0.09159,0.84055
04/28/2019 09:49:42 am,14.5250,0.24142,0.09733,-0.52597
04/28/2019 09:49:42 am,14.5500,0.24404,0.06137,-1.68485
04/28/2019 09:49:42 am,14.5750,0.24513,-5.47966E-4,-2.13873
04/28/2019 09:49:42 am,14.6000,0.24397,-0.06325,-1.67698
04/28/2019 09:49:42 am,14.6250,0.24140,-0.09885,-0.49715
04/28/2019 09:49:42 am,14.6500,0.23828,-0.09187,0.89029
04/28/2019 09:49:42 am,14.6750,0.23599,-0.04650,1.89088
04/28/2019 09:49:42 am,14.7000,0.23560,0.01794,2.09809
04/28/2019 09:49:42 am,14.7250,0.23711,0.07497,1.43411
04/28/2019 09:49:42 am,14.7500,0.23985,0.10137,0.16740
04/28/2019 09:49:42 am,14.7750,0.24298,0.08518,-1.18401
04/28/2019 09:49:42 am,14.8000,0.24493,0.03283,-2.04947
04/28/2019 09:49:42 am,14.8250,0.24481,-0.03410,-2.04340
04/28/2019 09:49:42 am,14.8500,0.24295,-0.08677,-1.16241
04/28/2019 09:49:42 am,14.8750,0.23985,-0.10172,0.21718
04/28/2019 09:49:42 am,14.9000,0.23688,-0.07390,1.49681
04/28/2019 09:49:42 am,14.9250,0.23563,-0.01439,2.13305
04/28/2019 09:49:42 am,14.9500,0.23609,0.05042,1.87148
04/28/2019 09:49:42 am,14.9750,0.23848,0.09392,0.82590
04/28/2019 09:49:43 am,15.0000,0.24159,0.09851,-0.56397
04/28/2019 09:49:43 am,15.0250,0.24422,0.06140,-1.73092
04/28/2019 09:49:43 am,15.0500,0.24513,-0.00166,-2.17760
04/28/2019 09:49:43 am,15.0750,0.24415,-0.06555,-1.69335
04/28/2019 09:49:43 am,15.1000,0.24141,-0.10118,-0.47529
04/28/2019 09:49:43 am,15.1250,0.23811,-0.09309,0.95124
04/28/2019 09:49:43 am,15.1500,0.23599,-0.04542,1.96053
04/28/2019 09:49:43 am,15.1750,0.23560,0.02138,2.13802
04/28/2019 09:49:43 am,15.2000,0.23710,0.07844,1.41289
04/28/2019 09:49:43 am,15.2250,0.24020,0.10376,0.08376
04/28/2019 09:49:43 am,15.2500,0.24315,0.08413,-1.28466
04/28/2019 09:49:43 am,15.2750,0.24511,0.02825,-2.10515
04/28/2019 09:49:43 am,15.3000,0.24481,-0.03875,-2.02199
04/28/2019 09:49:43 am,15.3250,0.24278,-0.08913,-1.08616
04/28/2019 09:49:43 am,15.3500,0.23967,-0.10179,0.30194
04/28/2019 09:49:43 am,15.3750,0.23688,-0.07164,1.55925
04/28/2019 09:49:43 am,15.4000,0.23544,-0.01095,2.15023
04/28/2019 09:49:43 am,15.4250,0.23626,0.05392,1.81924
04/28/2019 09:49:43 am,15.4500,0.23865,0.09519,0.72612
04/28/2019 09:49:43 am,15.4750,0.24176,0.09511,-0.65040
04/28/2019 09:49:43 am,15.5000,0.24422,0.05678,-1.73350
04/28/2019 09:49:43 am,15.5250,0.24496,-0.00523,-2.08651
04/28/2019 09:49:43 am,15.5500,0.24397,-0.06450,-1.57717
04/28/2019 09:49:43 am,15.5750,0.24123,-0.09659,-0.41156
04/28/2019 09:49:43 am,15.6000,0.23828,-0.08843,0.92236
04/28/2019 09:49:43 am,15.6250,0.23617,-0.04303,1.86943
04/28/2019 09:49:43 am,15.6500,0.23577,0.02029,2.02272
04/28/2019 09:49:43 am,15.6750,0.23728,0.07510,1.31881
04/28/2019 09:49:43 am,15.7000,0.24021,0.09685,0.07289
04/28/2019 09:49:43 am,15.7250,0.24299,0.07824,-1.17958
04/28/2019 09:49:43 am,15.7500,0.24458,0.02809,-1.92823
04/28/2019 09:49:43 am,15.7750,0.24464,-0.03308,-1.88135
04/28/2019 09:49:43 am,15.8000,0.24277,-0.08107,-1.05217
04/28/2019 09:49:43 am,15.8250,0.23984,-0.09481,0.21292
04/28/2019 09:49:43 am,15.8500,0.23722,-0.06801,1.36875
04/28/2019 09:49:43 am,15.8750,0.23597,-0.01420,1.93324
04/28/2019 09:49:43 am,15.9000,0.23644,0.04363,1.70693
04/28/2019 09:49:43 am,15.9250,0.23849,0.08353,0.80614
04/28/2019 09:49:43 am,15.9500,0.24125,0.09030,-0.42134
04/28/2019 09:49:43 am,15.9750,0.24369,0.06006,-1.49333
04/28/2019 09:49:44 am,16.0000,0.24478,0.00391,-1.95988
04/28/2019 09:49:44 am,16.0250,0.24396,-0.05408,-1.60409
04/28/2019 09:49:44 am,16.0500,0.24157,-0.08955,-0.57021
04/28/2019 09:49:44 am,16.0750,0.23880,-0.08710,0.69254
04/28/2019 09:49:44 am,16.1000,0.23651,-0.04861,1.65220
04/28/2019 09:49:44 am,16.1250,0.23595,0.00886,1.91807
04/28/2019 09:49:44 am,16.1500,0.23712,0.06233,1.40586
04/28/2019 09:49:44 am,16.1750,0.23952,0.08968,0.33189
04/28/2019 09:49:44 am,16.2000,0.24229,0.08145,-0.88571
04/28/2019 09:49:44 am,16.2250,0.24423,0.03952,-1.75467
04/28/2019 09:49:44 am,16.2500,0.24463,-0.02037,-1.89995
04/28/2019 09:49:44 am,16.2750,0.24311,-0.07170,-1.22631
04/28/2019 09:49:44 am,16.3000,0.24036,-0.09232,-0.02518
04/28/2019 09:49:44 am,16.3250,0.23775,-0.07247,1.16678
04/28/2019 09:49:44 am,16.3500,0.23615,-0.02338,1.84579
04/28/2019 09:49:44 am,16.3750,0.23645,0.03437,1.74285
04/28/2019 09:49:44 am,16.4000,0.23814,0.07771,0.92734
04/28/2019 09:49:44 am,16.4250,0.24090,0.08787,-0.26087
04/28/2019 09:49:44 am,16.4500,0.24335,0.06222,-1.33130
04/28/2019 09:49:44 am,16.4750,0.24443,0.01072,-1.84938
04/28/2019 09:49:44 am,16.5000,0.24395,-0.04484,-1.61571
04/28/2019 09:49:44 am,16.5250,0.24191,-0.08248,-0.71420
04/28/2019 09:49:44 am,16.5500,0.23914,-0.08694,0.49926
04/28/2019 09:49:44 am,16.5750,0.23687,-0.05431,1.53370
04/28/2019 09:49:44 am,16.6000,0.23596,0.00188,1.93868
04/28/2019 09:49:44 am,16.6250,0.23695,0.05876,1.51309
04/28/2019 09:49:44 am,16.6500,0.23934,0.09080,0.43273
04/28/2019 09:49:44 am,16.6750,0.24229,0.08374,-0.83858
04/28/2019 09:49:44 am,16.7000,0.24423,0.04181,-1.75358
04/28/2019 09:49:44 am,16.7250,0.24462,-0.01804,-1.93688
04/28/2019 09:49:44 am,16.7500,0.24329,-0.07046,-1.31019
04/28/2019 09:49:44 am,16.7750,0.24053,-0.09452,-0.11884
04/28/2019 09:49:44 am,16.8000,0.23775,-0.07824,1.14087
04/28/2019 09:49:44 am,16.8250,0.23598,-0.02809,1.92796
04/28/2019 09:49:44 am,16.8500,0.23610,0.03424,1.89635
04/28/2019 09:49:44 am,16.8750,0.23797,0.08220,1.06005
04/28/2019 09:49:44 am,16.9000,0.24090,0.09593,-0.22685
04/28/2019 09:49:44 am,16.9250,0.24351,0.06923,-1.42085
04/28/2019 09:49:44 am,16.9500,0.24495,0.01318,-2.01821
04/28/2019 09:49:44 am,16.9750,0.24430,-0.04818,-1.76357
04/28/2019 09:49:45 am,17.0000,0.24209,-0.08939,-0.77052
04/28/2019 09:49:45 am,17.0250,0.23915,-0.09274,0.54365
04/28/2019 09:49:45 am,17.0500,0.23670,-0.05784,1.63290
04/28/2019 09:49:45 am,17.0750,0.23578,0.00182,2.04613
04/28/2019 09:49:45 am,17.1000,0.23677,0.06099,1.60608
04/28/2019 09:49:45 am,17.1250,0.23934,0.09535,0.48053
04/28/2019 09:49:45 am,17.1500,0.24229,0.08954,-0.85955
04/28/2019 09:49:45 am,17.1750,0.24457,0.04535,-1.84466
04/28/2019 09:49:45 am,17.2000,0.24497,-0.01794,-2.05243
04/28/2019 09:49:45 am,17.2250,0.24346,-0.07387,-1.39581
04/28/2019 09:49:45 am,17.2500,0.24071,-0.09911,-0.15092
04/28/2019 09:49:45 am,17.2750,0.23776,-0.08286,1.16276
04/28/2019 09:49:45 am,17.3000,0.23581,-0.03159,1.98871
04/28/2019 09:49:45 am,17.3250,0.23593,0.03303,1.97300
04/28/2019 09:49:45 am,17.3500,0.23780,0.08331,1.12968
04/28/2019 09:49:45 am,17.3750,0.24072,0.09819,-0.18713
04/28/2019 09:49:45 am,17.4000,0.24351,0.07270,-1.43442
04/28/2019 09:49:45 am,17.4250,0.24494,0.01557,-2.09379
04/28/2019 09:49:45 am,17.4500,0.24448,-0.04923,-1.87188
04/28/2019 09:49:45 am,17.4750,0.24209,-0.09395,-0.83445
04/28/2019 09:49:45 am,17.5000,0.23898,-0.09857,0.57956
04/28/2019 09:49:45 am,17.5250,0.23635,-0.06026,1.75522
04/28/2019 09:49:45 am,17.5500,0.23544,0.00402,2.17076
04/28/2019 09:49:45 am,17.5750,0.23660,0.06675,1.64683
04/28/2019 09:49:45 am,17.6000,0.23934,0.10003,0.42807
04/28/2019 09:49:45 am,17.6250,0.24246,0.09075,-0.95191
04/28/2019 09:49:45 am,17.6500,0.24457,0.04423,-1.91452
04/28/2019 09:49:45 am,17.6750,0.24497,-0.02024,-2.08387
04/28/2019 09:49:45 am,17.7000,0.24346,-0.07616,-1.39666
04/28/2019 09:49:45 am,17.7250,0.24054,-0.10144,-0.12117
04/28/2019 09:49:45 am,17.7500,0.23758,-0.08407,1.22352
04/28/2019 09:49:45 am,17.7750,0.23564,-0.03051,2.06578
04/28/2019 09:49:45 am,17.8000,0.23576,0.03644,2.02818
04/28/2019 09:49:45 am,17.8250,0.23779,0.08793,1.12374
04/28/2019 09:49:45 am,17.8500,0.24089,0.10173,-0.25549
04/28/2019 09:49:45 am,17.8750,0.24369,0.07277,-1.51956
04/28/2019 09:49:45 am,17.9000,0.24512,0.01328,-2.14116
04/28/2019 09:49:45 am,17.9250,0.24448,-0.05156,-1.86489
04/28/2019 09:49:45 am,17.9500,0.24209,-0.09512,-0.80366
04/28/2019 09:49:45 am,17.9750,0.23898,-0.09857,0.60314
04/28/2019 09:49:46 am,18.0000,0.23635,-0.06026,1.75565
04/28/2019 09:49:46 am,18.0250,0.23544,0.00405,2.15548
04/28/2019 09:49:46 am,18.0500,0.23660,0.06561,1.63133
04/28/2019 09:49:46 am,18.0750,0.23934,0.09889,0.42022
04/28/2019 09:49:46 am,18.1000,0.24229,0.08960,-0.95214
04/28/2019 09:49:46 am,18.1250,0.24458,0.04309,-1.90775
04/28/2019 09:49:46 am,18.1500,0.24480,-0.02142,-2.04649
04/28/2019 09:49:46 am,18.1750,0.24329,-0.07626,-1.32742
04/28/2019 09:49:46 am,18.2000,0.24036,-0.09803,-0.06552
04/28/2019 09:49:46 am,18.2250,0.23758,-0.07942,1.20292
04/28/2019 09:49:46 am,18.2500,0.23581,-0.02809,1.95919
04/28/2019 09:49:46 am,18.2750,0.23593,0.03424,1.90397
04/28/2019 09:49:46 am,18.3000,0.23780,0.08220,1.06702
04/28/2019 09:49:46 am,18.3250,0.24073,0.09590,-0.19694
04/28/2019 09:49:46 am,18.3500,0.24334,0.07031,-1.36712
04/28/2019 09:49:46 am,18.3750,0.24477,0.01659,-1.97081
04/28/2019 09:49:46 am,18.4000,0.24430,-0.04356,-1.76927
04/28/2019 09:49:46 am,18.4250,0.24226,-0.08585,-0.84571
04/28/2019 09:49:46 am,18.4500,0.23932,-0.09264,0.42132
04/28/2019 09:49:46 am,18.4750,0.23687,-0.06119,1.50911
04/28/2019 09:49:46 am,18.5000,0.23579,-0.00503,1.97460
04/28/2019 09:49:46 am,18.5250,0.23661,0.05290,1.63346
04/28/2019 09:49:46 am,18.5500,0.23883,0.08946,0.62400
04/28/2019 09:49:46 am,18.5750,0.24177,0.08934,-0.65213
04/28/2019 09:49:46 am,18.6000,0.24405,0.05213,-1.67303
04/28/2019 09:49:46 am,18.6250,0.24479,-0.00759,-2.00265
04/28/2019 09:49:46 am,18.6500,0.24363,-0.06456,-1.48497
04/28/2019 09:49:46 am,18.6750,0.24105,-0.09436,-0.33380
04/28/2019 09:49:46 am,18.7000,0.23810,-0.08385,0.95484
04/28/2019 09:49:46 am,18.7250,0.23616,-0.03838,1.83245
04/28/2019 09:49:46 am,18.7500,0.23594,0.02268,1.93842
04/28/2019 09:49:46 am,18.7750,0.23746,0.07398,1.24155
04/28/2019 09:49:46 am,18.8000,0.24021,0.09456,0.02640
04/28/2019 09:49:46 am,18.8250,0.24299,0.07598,-1.20318
04/28/2019 09:49:46 am,18.8500,0.24459,0.02465,-1.92934
04/28/2019 09:49:46 am,18.8750,0.24447,-0.03658,-1.84420
04/28/2019 09:49:46 am,18.9000,0.24243,-0.08228,-0.97611
04/28/2019 09:49:46 am,18.9250,0.23967,-0.09372,0.30491
04/28/2019 09:49:46 am,18.9500,0.23705,-0.06463,1.45410
04/28/2019 09:49:46 am,18.9750,0.23579,-0.00850,1.97418
04/28/2019 09:49:47 am,19.0000,0.23661,0.05061,1.64854
04/28/2019 09:49:47 am,19.0250,0.23883,0.08717,0.64607
04/28/2019 09:49:47 am,19.0500,0.24160,0.08699,-0.59971
04/28/2019 09:49:47 am,19.0750,0.24388,0.05203,-1.58129
04/28/2019 09:49:47 am,19.1000,0.24461,-0.00422,-1.90918
04/28/2019 09:49:47 am,19.1250,0.24362,-0.05883,-1.45161
04/28/2019 09:49:47 am,19.1500,0.24122,-0.08853,-0.40029
04/28/2019 09:49:47 am,19.1750,0.23844,-0.08139,0.80214
04/28/2019 09:49:47 am,19.2000,0.23651,-0.04169,1.66938
04/28/2019 09:49:47 am,19.2250,0.23612,0.01465,1.86582
04/28/2019 09:49:47 am,19.2500,0.23729,0.06583,1.30757
04/28/2019 09:49:47 am,19.2750,0.23986,0.09096,0.19432
04/28/2019 09:49:47 am,19.3000,0.24264,0.07814,-1.02524
04/28/2019 09:49:47 am,19.3250,0.24441,0.03149,-1.82672
04/28/2019 09:49:47 am,19.3500,0.24446,-0.02849,-1.85625
04/28/2019 09:49:47 am,19.3750,0.24277,-0.07642,-1.10418
04/28/2019 09:49:47 am,19.4000,0.24001,-0.09239,0.10547
04/28/2019 09:49:47 am,19.4250,0.23740,-0.07024,1.27446
04/28/2019 09:49:47 am,19.4500,0.23597,-0.01885,1.93090
04/28/2019 09:49:47 am,19.4750,0.23627,0.04121,1.79123
04/28/2019 09:49:47 am,19.5000,0.23831,0.08580,0.88470
04/28/2019 09:49:47 am,19.5250,0.24124,0.09380,-0.41965
04/28/2019 09:49:47 am,19.5500,0.24387,0.06127,-1.55449
04/28/2019 09:49:47 am,19.5750,0.24478,0.00279,-2.02189
04/28/2019 09:49:47 am,19.6000,0.24396,-0.05637,-1.63573
04/28/2019 09:49:47 am,19.6250,0.24157,-0.09184,-0.56384
04/28/2019 09:49:47 am,19.6500,0.23863,-0.08945,0.74500
04/28/2019 09:49:47 am,19.6750,0.23634,-0.04870,1.74393
04/28/2019 09:49:47 am,19.7000,0.23577,0.01223,2.01170
04/28/2019 09:49:47 am,19.7250,0.23712,0.06806,1.43177
04/28/2019 09:49:47 am,19.7500,0.23969,0.09554,0.24996
04/28/2019 09:49:47 am,19.7750,0.24264,0.08276,-1.04623
04/28/2019 09:49:47 am,19.8000,0.24458,0.03503,-1.91716
04/28/2019 09:49:47 am,19.8250,0.24463,-0.02836,-1.99429
04/28/2019 09:49:47 am,19.8500,0.24295,-0.08091,-1.22927
04/28/2019 09:49:47 am,19.8750,0.24002,-0.10045,0.07893
04/28/2019 09:49:47 am,19.9000,0.23706,-0.07728,1.37981
04/28/2019 09:49:47 am,19.9250,0.23545,-0.02016,2.10013
04/28/2019 09:49:47 am,19.9500,0.23592,0.04577,1.92348
04/28/2019 09:49:47 am,19.9750,0.23813,0.09153,0.93267
04/28/2019 09:49:48 am,20.0000,0.24124,0.09956,-0.44848
04/28/2019 09:49:48 am,20.0250,0.24386,0.06595,-1.64489
04/28/2019 09:49:48 am,20.0500,0.24513,0.00407,-2.15993
04/28/2019 09:49:48 am,20.0750,0.24414,-0.05972,-1.76022
04/28/2019 09:49:48 am,20.1000,0.24157,-0.09876,-0.61248
04/28/2019 09:49:48 am,20.1250,0.23846,-0.09525,0.79643
04/28/2019 09:49:48 am,20.1500,0.23600,-0.05227,1.94862
04/28/2019 09:49:48 am,20.1750,0.23543,0.01326,
04/28/2019 09:49:48 am,20.2000,0.23676,0.08503,
04/28/2019 09:49:48 am,20.2250,0.23968,,
