Run #1,Run #1,Run #1,Run #1,Run #1
Date and Time,Time (s),Position (m),Velocity (m/s),Acceleration (m/s²)
04/28/2019 09:55:14 am,0.0000,0.21913,,
04/28/2019 09:55:14 am,0.0250,0.21914,-0.01015,
04/28/2019 09:55:14 am,0.0500,0.21862,-0.02717,-0.62447
04/28/2019 09:55:14 am,0.0750,0.21833,-0.04137,-0.14672
04/28/2019 09:55:14 am,0.1000,0.21586,-0.03828,0.28584
04/28/2019 09:55:14 am,0.1250,0.21569,-0.02105,0.47708
04/28/2019 09:55:14 am,0.1500,0.21552,-0.00462,0.35689
04/28/2019 09:55:14 am,0.1750,0.21552,-0.00347,0.14777
04/28/2019 09:55:14 am,0.2000,0.21534,-0.00232,0.04606
04/28/2019 09:55:14 am,0.2250,0.21534,-0.00118,0.03861
04/28/2019 09:55:14 am,0.2500,0.21534,0.00000,0.02332
04/28/2019 09:55:14 am,0.2750,0.21534,0.00000,0.00784
04/28/2019 09:55:14 am,0.3000,0.21534,0.00000,0.00000
04/28/2019 09:55:14 am,0.3250,0.21534,0.00000,0.00000
04/28/2019 09:55:14 am,0.3500,0.21534,0.00000,0.00000
04/28/2019 09:55:14 am,0.3750,0.21534,0.00000,0.00000
04/28/2019 09:55:14 am,0.4000,0.21534,0.00000,0.00000
04/28/2019 09:55:14 am,0.4250,0.21534,0.00000,-5.74216E-4
04/28/2019 09:55:14 am,0.4500,0.21534,0.00000,0.02063
04/28/2019 09:55:14 am,0.4750,0.21534,-8.61324E-5,0.10871
04/28/2019 09:55:14 am,0.5000,0.21534,0.00318,0.33533
04/28/2019 09:55:14 am,0.5250,0.21533,0.01312,0.95898
04/28/2019 09:55:14 am,0.5500,0.21583,0.03709,2.28559
04/28/2019 09:55:14 am,0.5750,0.21682,0.10985,4.00045
04/28/2019 09:55:14 am,0.6000,0.21942,0.24929,4.68905
04/28/2019 09:55:14 am,0.6250,0.22823,0.40099,2.77178
04/28/2019 09:55:14 am,0.6500,0.24182,0.44931,-1.61090
04/28/2019 09:55:14 am,0.6750,0.25456,0.32560,-6.26782
04/28/2019 09:55:14 am,0.7000,0.26048,0.08304,-8.62349
04/28/2019 09:55:14 am,0.7250,0.25841,-0.17292,-7.55251
04/28/2019 09:55:14 am,0.7500,0.25043,-0.34570,-3.66238
04/28/2019 09:55:14 am,0.7750,0.23867,-0.37854,1.45697
04/28/2019 09:55:14 am,0.8000,0.22836,-0.26069,5.82513
04/28/2019 09:55:14 am,0.8250,0.22370,-0.03937,7.70009
04/28/2019 09:55:14 am,0.8500,0.22630,0.18891,6.32264
04/28/2019 09:55:14 am,0.8750,0.23483,0.32687,2.36323
04/28/2019 09:55:14 am,0.9000,0.24557,0.32146,-2.40665
04/28/2019 09:55:14 am,0.9250,0.25346,0.18257,-5.98103
04/28/2019 09:55:14 am,0.9500,0.25589,-0.02778,-6.95310
04/28/2019 09:55:14 am,0.9750,0.25190,-0.22105,-4.99313
04/28/2019 09:55:15 am,1.0000,0.24296,-0.31790,-0.96152
04/28/2019 09:55:15 am,1.0250,0.23323,-0.27629,3.39716
04/28/2019 09:55:15 am,1.0500,0.22687,-0.11677,6.20121
04/28/2019 09:55:15 am,1.0750,0.22655,0.08740,6.26471
04/28/2019 09:55:15 am,1.1000,0.23213,0.24860,3.62925
04/28/2019 09:55:15 am,1.1250,0.24108,0.29805,-0.49096
04/28/2019 09:55:15 am,1.1500,0.24963,0.21697,-4.27557
04/28/2019 09:55:15 am,1.1750,0.25376,0.04539,-6.09545
04/28/2019 09:55:15 am,1.2000,0.25200,-0.14007,-5.23393
04/28/2019 09:55:15 am,1.2250,0.24552,-0.25923,-2.14385
04/28/2019 09:55:15 am,1.2500,0.23686,-0.26351,1.79823
04/28/2019 09:55:15 am,1.2750,0.23001,-0.15275,4.86421
04/28/2019 09:55:15 am,1.3000,0.22798,0.02319,5.72698
04/28/2019 09:55:15 am,1.3250,0.23148,0.18371,4.05343
04/28/2019 09:55:15 am,1.3500,0.23887,0.25908,0.64291
04/28/2019 09:55:15 am,1.3750,0.24668,0.21937,-2.97203
04/28/2019 09:55:15 am,1.4000,0.25164,0.08396,-5.21713
04/28/2019 09:55:15 am,1.4250,0.25161,-0.08698,-5.12909
04/28/2019 09:55:15 am,1.4500,0.24653,-0.21714,-2.76812
04/28/2019 09:55:15 am,1.4750,0.23875,-0.24889,0.78615
04/28/2019 09:55:15 am,1.5000,0.23193,-0.16935,3.92578
04/28/2019 09:55:15 am,1.5250,0.22887,-0.01685,5.26585
04/28/2019 09:55:15 am,1.5500,0.23100,0.13969,4.25294
04/28/2019 09:55:15 am,1.5750,0.23716,0.23195,1.37915
04/28/2019 09:55:15 am,1.6000,0.24460,0.21979,-2.05641
04/28/2019 09:55:15 am,1.6250,0.25006,0.10992,-4.52259
04/28/2019 09:55:15 am,1.6500,0.25106,-0.04674,-4.92965
04/28/2019 09:55:15 am,1.6750,0.24718,-0.17990,-3.12459
04/28/2019 09:55:15 am,1.7000,0.24047,-0.22983,0.04517
04/28/2019 09:55:15 am,1.7250,0.23367,-0.17568,3.13750
04/28/2019 09:55:15 am,1.7500,0.23010,-0.04419,4.77075
04/28/2019 09:55:15 am,1.7750,0.23120,0.10508,4.25533
04/28/2019 09:55:15 am,1.8000,0.23631,0.20502,1.86180
04/28/2019 09:55:15 am,1.8250,0.24322,0.21341,-1.33474
04/28/2019 09:55:15 am,1.8500,0.24883,0.12675,-3.91467
04/28/2019 09:55:15 am,1.8750,0.25069,-0.01686,-4.73218
04/28/2019 09:55:15 am,1.9000,0.24786,-0.15191,-3.42143
04/28/2019 09:55:15 am,1.9250,0.24167,-0.21776,-0.58181
04/28/2019 09:55:15 am,1.9500,0.23506,-0.18557,2.49417
04/28/2019 09:55:15 am,1.9750,0.23082,-0.07048,4.43697
04/28/2019 09:55:16 am,2.0000,0.23088,0.07493,4.39008
04/28/2019 09:55:16 am,2.0250,0.23529,0.18729,2.38558
04/28/2019 09:55:16 am,2.0500,0.24183,0.21518,-0.68012
04/28/2019 09:55:16 am,2.0750,0.24795,0.14712,-3.43752
04/28/2019 09:55:16 am,2.1000,0.25049,0.01309,-4.63619
04/28/2019 09:55:16 am,2.1250,0.24870,-0.12625,-3.74270
04/28/2019 09:55:16 am,2.1500,0.24305,-0.20689,-1.17786
04/28/2019 09:55:16 am,2.1750,0.23646,-0.19431,1.86858
04/28/2019 09:55:16 am,2.2000,0.23170,-0.09553,4.02868
04/28/2019 09:55:16 am,2.2250,0.23090,0.04268,4.37867
04/28/2019 09:55:16 am,2.2500,0.23427,0.16043,2.79860
04/28/2019 09:55:16 am,2.2750,0.24029,0.20654,8.84680E-4
04/28/2019 09:55:16 am,2.3000,0.24638,0.16040,-2.78581
04/28/2019 09:55:16 am,2.3250,0.24977,0.04283,-4.32400
04/28/2019 09:55:16 am,2.3500,0.24885,-0.09374,-3.92248
04/28/2019 09:55:16 am,2.3750,0.24425,-0.18792,-1.76394
04/28/2019 09:55:16 am,2.4000,0.23785,-0.19722,1.17371
04/28/2019 09:55:16 am,2.4250,0.23259,-0.11828,3.56586
04/28/2019 09:55:16 am,2.4500,0.23093,0.01268,4.34449
04/28/2019 09:55:16 am,2.4750,0.23343,0.13706,3.18240
04/28/2019 09:55:16 am,2.5000,0.23891,0.19911,0.60616
04/28/2019 09:55:16 am,2.5250,0.24516,0.17265,-2.23479
04/28/2019 09:55:16 am,2.5500,0.24906,0.06802,-4.06776
04/28/2019 09:55:16 am,2.5750,0.24918,-0.06706,-4.07366
04/28/2019 09:55:16 am,2.6000,0.24510,-0.17134,-2.25039
04/28/2019 09:55:16 am,2.6250,0.23906,-0.19904,0.57254
04/28/2019 09:55:16 am,2.6500,0.23347,-0.13756,3.12767
04/28/2019 09:55:16 am,2.6750,0.23095,-0.01496,4.27294
04/28/2019 09:55:16 am,2.7000,0.23258,0.11373,3.49678
04/28/2019 09:55:16 am,2.7250,0.23771,0.19061,1.16363
04/28/2019 09:55:16 am,2.7500,0.24377,0.18139,-1.66283
04/28/2019 09:55:16 am,2.7750,0.24835,0.09193,-3.72022
04/28/2019 09:55:16 am,2.8000,0.24915,-0.03701,-4.11578
04/28/2019 09:55:16 am,2.8250,0.24612,-0.14903,-2.69580
04/28/2019 09:55:16 am,2.8500,0.24044,-0.19503,-0.08798
04/28/2019 09:55:16 am,2.8750,0.23470,-0.15443,2.55940
04/28/2019 09:55:16 am,2.9000,0.23132,-0.04481,4.06935
04/28/2019 09:55:16 am,2.9250,0.23208,0.08467,3.75526
04/28/2019 09:55:16 am,2.9500,0.23633,0.17628,1.75832
04/28/2019 09:55:16 am,2.9750,0.24238,0.18777,-1.01410
04/28/2019 09:55:17 am,3.0000,0.24746,0.11583,-3.31099
04/28/2019 09:55:17 am,3.0250,0.24912,-0.00700,-4.11945
04/28/2019 09:55:17 am,3.0500,0.24697,-0.12560,-3.11012
04/28/2019 09:55:17 am,3.0750,0.24182,-0.18872,-0.73235
04/28/2019 09:55:17 am,3.1000,0.23592,-0.16897,1.97664
04/28/2019 09:55:17 am,3.1250,0.23186,-0.07348,3.82008
04/28/2019 09:55:17 am,3.1500,0.23159,0.05566,3.95963
04/28/2019 09:55:17 am,3.1750,0.23514,0.15966,2.32119
04/28/2019 09:55:17 am,3.2000,0.24099,0.19183,-0.35117
04/28/2019 09:55:17 am,3.2250,0.24640,0.13853,-2.84828
04/28/2019 09:55:17 am,3.2500,0.24910,0.02412,-4.06916
04/28/2019 09:55:17 am,3.2750,0.24781,-0.09987,-3.48553
04/28/2019 09:55:17 am,3.3000,0.24320,-0.18014,-1.36040
04/28/2019 09:55:17 am,3.3250,0.23732,-0.18004,1.37211
04/28/2019 09:55:17 am,3.3500,0.23257,-0.09977,3.50240
04/28/2019 09:55:17 am,3.3750,0.23144,0.02557,4.07873
04/28/2019 09:55:17 am,3.4000,0.23411,0.13961,2.84402
04/28/2019 09:55:17 am,3.4250,0.23961,0.19240,0.34148
04/28/2019 09:55:17 am,3.4500,0.24534,0.16001,-2.32384
04/28/2019 09:55:17 am,3.4750,0.24907,0.05639,-3.97895
04/28/2019 09:55:17 am,3.5000,0.24865,-0.07296,-3.88234
04/28/2019 09:55:17 am,3.5250,0.24476,-0.17147,-2.06468
04/28/2019 09:55:17 am,3.5500,0.23871,-0.19448,0.68219
04/28/2019 09:55:17 am,3.5750,0.23329,-0.13179,3.14483
04/28/2019 09:55:17 am,3.6000,0.23095,-0.01031,4.21978
04/28/2019 09:55:17 am,3.6250,0.23275,0.11609,3.42733
04/28/2019 09:55:17 am,3.6500,0.23770,0.19061,1.11716
04/28/2019 09:55:17 am,3.6750,0.24395,0.18139,-1.68595
04/28/2019 09:55:17 am,3.7000,0.24834,0.09196,-3.73552
04/28/2019 09:55:17 am,3.7250,0.24932,-0.03816,-4.13133
04/28/2019 09:55:17 am,3.7500,0.24612,-0.15017,-2.70348
04/28/2019 09:55:17 am,3.7750,0.24044,-0.19618,-0.09541
04/28/2019 09:55:17 am,3.8000,0.23470,-0.15554,2.54395
04/28/2019 09:55:17 am,3.8250,0.23132,-0.04710,4.06068
04/28/2019 09:55:17 am,3.8500,0.23191,0.08234,3.78431
04/28/2019 09:55:17 am,3.8750,0.23616,0.17504,1.84148
04/28/2019 09:55:17 am,3.9000,0.24221,0.18996,-0.89858
04/28/2019 09:55:17 am,3.9250,0.24728,0.12150,-3.22403
04/28/2019 09:55:17 am,3.9500,0.24929,0.00109,-4.13147
04/28/2019 09:55:17 am,3.9750,0.24731,-0.11970,-3.23843
04/28/2019 09:55:18 am,4.0000,0.24235,-0.18856,-0.92444
04/28/2019 09:55:18 am,4.0250,0.23627,-0.17461,1.81310
04/28/2019 09:55:18 am,4.0500,0.23204,-0.08266,3.76262
04/28/2019 09:55:18 am,4.0750,0.23142,0.04637,4.04779
04/28/2019 09:55:18 am,4.1000,0.23480,0.15485,2.54130
04/28/2019 09:55:18 am,4.1250,0.24047,0.19504,-0.07390
04/28/2019 09:55:18 am,4.1500,0.24622,0.14986,-2.64385
04/28/2019 09:55:18 am,4.1750,0.24925,0.04028,-4.06195
04/28/2019 09:55:18 am,4.2000,0.24849,-0.08696,-3.73296
04/28/2019 09:55:18 am,4.2250,0.24424,-0.17743,-1.78916
04/28/2019 09:55:18 am,4.2500,0.23819,-0.19237,0.95306
04/28/2019 09:55:18 am,4.2750,0.23294,-0.12268,3.30236
04/28/2019 09:55:18 am,4.3000,0.23094,0.00125,4.20864
04/28/2019 09:55:18 am,4.3250,0.23309,0.12430,3.26065
04/28/2019 09:55:18 am,4.3500,0.23823,0.19194,0.89388
04/28/2019 09:55:18 am,4.3750,0.24429,0.17572,-1.84963
04/28/2019 09:55:18 am,4.4000,0.24853,0.08391,-3.78423
04/28/2019 09:55:18 am,4.4250,0.24915,-0.04511,-4.07937
04/28/2019 09:55:18 am,4.4500,0.24596,-0.15486,-2.59686
04/28/2019 09:55:18 am,4.4750,0.24010,-0.19742,0.02783
04/28/2019 09:55:18 am,4.5000,0.23435,-0.15331,2.63741
04/28/2019 09:55:18 am,4.5250,0.23114,-0.04248,4.09248
04/28/2019 09:55:18 am,4.5500,0.23191,0.08581,3.76920
04/28/2019 09:55:18 am,4.5750,0.23616,0.17733,1.81856
04/28/2019 09:55:18 am,4.6000,0.24220,0.19226,-0.92082
04/28/2019 09:55:18 am,4.6250,0.24745,0.12386,-3.26923
04/28/2019 09:55:18 am,4.6500,0.24946,0.00116,-4.20052
04/28/2019 09:55:18 am,4.6750,0.24748,-0.12196,-3.30030
04/28/2019 09:55:18 am,4.7000,0.24235,-0.19200,-0.96311
04/28/2019 09:55:18 am,4.7250,0.23627,-0.17802,1.78959
04/28/2019 09:55:18 am,4.7500,0.23187,-0.08724,3.76144
04/28/2019 09:55:18 am,4.7750,0.23126,0.04172,4.09218
04/28/2019 09:55:18 am,4.8000,0.23428,0.15247,2.64014
04/28/2019 09:55:18 am,4.8250,0.24013,0.19609,0.04150
04/28/2019 09:55:18 am,4.8500,0.24587,0.15441,-2.55806
04/28/2019 09:55:18 am,4.8750,0.24908,0.04601,-4.03700
04/28/2019 09:55:18 am,4.9000,0.24849,-0.08116,-3.77706
04/28/2019 09:55:18 am,4.9250,0.24441,-0.17389,-1.89516
04/28/2019 09:55:18 am,4.9500,0.23836,-0.19225,0.80735
04/28/2019 09:55:18 am,4.9750,0.23312,-0.12717,3.17012
04/28/2019 09:55:19 am,5.0000,0.23095,-0.00678,4.15946
04/28/2019 09:55:19 am,5.0250,0.23275,0.11615,3.33473
04/28/2019 09:55:19 am,5.0500,0.23771,0.18835,1.05384
04/28/2019 09:55:19 am,5.0750,0.24377,0.17791,-1.67285
04/28/2019 09:55:19 am,5.1000,0.24818,0.08954,-3.64444
04/28/2019 09:55:19 am,5.1250,0.24897,-0.03597,-4.01467
04/28/2019 09:55:19 am,5.1500,0.24594,-0.14444,-2.65414
04/28/2019 09:55:19 am,5.1750,0.24061,-0.19031,-0.16931
04/28/2019 09:55:19 am,5.2000,0.23487,-0.15424,2.37574
04/28/2019 09:55:19 am,5.2250,0.23150,-0.05156,3.88956
04/28/2019 09:55:19 am,5.2500,0.23192,0.07317,3.71852
04/28/2019 09:55:19 am,5.2750,0.23583,0.16571,1.94459
04/28/2019 09:55:19 am,5.3000,0.24152,0.18627,-0.65452
04/28/2019 09:55:19 am,5.3250,0.24676,0.12703,-2.96068
04/28/2019 09:55:19 am,5.3500,0.24893,0.01367,-3.98795
04/28/2019 09:55:19 am,5.3750,0.24747,-0.10580,-3.30164
04/28/2019 09:55:19 am,5.4000,0.24286,-0.17909,-1.18916
04/28/2019 09:55:19 am,5.4250,0.23696,-0.17545,1.43694
04/28/2019 09:55:19 am,5.4500,0.23257,-0.09505,3.43531
04/28/2019 09:55:19 am,5.4750,0.23144,0.02570,3.94750
04/28/2019 09:55:19 am,5.5000,0.23412,0.13505,2.75627
04/28/2019 09:55:19 am,5.5250,0.23927,0.18657,0.38361
04/28/2019 09:55:19 am,5.5500,0.24500,0.15752,-2.14957
04/28/2019 09:55:19 am,5.5750,0.24854,0.06078,-3.74717
04/28/2019 09:55:19 am,5.6000,0.24847,-0.06159,-3.73100
04/28/2019 09:55:19 am,5.6250,0.24491,-0.15640,-2.12670
04/28/2019 09:55:19 am,5.6500,0.23940,-0.18496,0.37202
04/28/2019 09:55:19 am,5.6750,0.23416,-0.13486,2.70591
04/28/2019 09:55:19 am,5.7000,0.23148,-0.02732,3.89041
04/28/2019 09:55:19 am,5.7250,0.23260,0.09186,3.40255
04/28/2019 09:55:19 am,5.7500,0.23686,0.17189,1.43966
04/28/2019 09:55:19 am,5.7750,0.24256,0.17631,-1.14283
04/28/2019 09:55:19 am,5.8000,0.24730,0.10417,-3.20834
04/28/2019 09:55:19 am,5.8250,0.24860,-0.01185,-3.85933
04/28/2019 09:55:19 am,5.8500,0.24644,-0.12120,-2.85286
04/28/2019 09:55:19 am,5.8750,0.24164,-0.17721,-0.64885
04/28/2019 09:55:19 am,5.9000,0.23608,-0.15839,1.80545
04/28/2019 09:55:19 am,5.9250,0.23238,-0.07199,3.47463
04/28/2019 09:55:19 am,5.9500,0.23194,0.04439,3.66202
04/28/2019 09:55:19 am,5.9750,0.23498,0.14120,2.28184
04/28/2019 09:55:20 am,6.0000,0.24014,0.17773,-0.07367
04/28/2019 09:55:20 am,6.0250,0.24537,0.13695,-2.38101
04/28/2019 09:55:20 am,6.0500,0.24822,0.03758,-3.63362
04/28/2019 09:55:20 am,6.0750,0.24744,-0.07581,-3.30605
04/28/2019 09:55:20 am,6.1000,0.24370,-0.15455,-1.57982
04/28/2019 09:55:20 am,6.1250,0.23852,-0.16682,0.78643
04/28/2019 09:55:20 am,6.1500,0.23397,-0.10838,2.79257
04/28/2019 09:55:20 am,6.1750,0.23215,-0.00402,3.59869
04/28/2019 09:55:20 am,6.2000,0.23380,0.10153,2.86716
04/28/2019 09:55:20 am,6.2250,0.23808,0.16307,0.91328
04/28/2019 09:55:20 am,6.2500,0.24327,0.15460,-1.42763
04/28/2019 09:55:20 am,6.2750,0.24714,0.07990,-3.14789
04/28/2019 09:55:20 am,6.3000,0.24793,-0.02945,-3.50400
04/28/2019 09:55:20 am,6.3250,0.24541,-0.12506,-2.35388
04/28/2019 09:55:20 am,6.3500,0.24059,-0.16603,-0.21354
04/28/2019 09:55:20 am,6.3750,0.23572,-0.13660,1.99014
04/28/2019 09:55:20 am,6.4000,0.23271,-0.04995,3.33621
04/28/2019 09:55:20 am,6.4250,0.23280,0.05738,3.26664
04/28/2019 09:55:20 am,6.4500,0.23602,0.14043,1.80446
04/28/2019 09:55:20 am,6.4750,0.24102,0.16302,-0.42547
04/28/2019 09:55:20 am,6.5000,0.24556,0.11508,-2.45064
04/28/2019 09:55:20 am,6.5250,0.24771,0.01891,-3.40150
04/28/2019 09:55:20 am,6.5500,0.24658,-0.08306,-2.90018
04/28/2019 09:55:20 am,6.5750,0.24283,-0.14907,-1.19250
04/28/2019 09:55:20 am,6.6000,0.23799,-0.15197,0.99969
04/28/2019 09:55:20 am,6.6250,0.23395,-0.09105,2.76037
04/28/2019 09:55:20 am,6.6500,0.23266,0.00888,3.34168
04/28/2019 09:55:20 am,6.6750,0.23449,0.10414,2.49883
04/28/2019 09:55:20 am,6.7000,0.23878,0.15409,0.59443
04/28/2019 09:55:20 am,6.7250,0.24346,0.13856,-1.54941
04/28/2019 09:55:20 am,6.7500,0.24681,0.06362,-3.01578
04/28/2019 09:55:20 am,6.7750,0.24724,-0.03780,-3.17656
04/28/2019 09:55:20 am,6.8000,0.24454,-0.12191,-1.97571
04/28/2019 09:55:20 am,6.8250,0.24006,-0.15239,0.04541
04/28/2019 09:55:20 am,6.8500,0.23571,-0.11815,2.01232
04/28/2019 09:55:20 am,6.8750,0.23322,-0.03476,3.10336
04/28/2019 09:55:20 am,6.9000,0.23366,0.06231,2.87622
04/28/2019 09:55:20 am,6.9250,0.23689,0.13266,1.43238
04/28/2019 09:55:20 am,6.9500,0.24138,0.14586,-0.60854
04/28/2019 09:55:20 am,6.9750,0.24540,0.09654,-2.37270
04/28/2019 09:55:21 am,7.0000,0.24703,0.00715,-3.10600
04/28/2019 09:55:21 am,7.0250,0.24572,-0.08453,-2.50868
04/28/2019 09:55:21 am,7.0500,0.24213,-0.13897,-0.85047
04/28/2019 09:55:21 am,7.0750,0.23762,-0.13364,1.14531
04/28/2019 09:55:21 am,7.1000,0.23428,-0.07131,2.61413
04/28/2019 09:55:21 am,7.1250,0.23352,0.01960,2.94588
04/28/2019 09:55:21 am,7.1500,0.23554,0.09990,2.03544
04/28/2019 09:55:21 am,7.1750,0.23931,0.13703,0.30269
04/28/2019 09:55:21 am,7.2000,0.24348,0.11658,-1.51966
04/28/2019 09:55:21 am,7.2250,0.24613,0.04833,-2.68276
04/28/2019 09:55:21 am,7.2500,0.24620,-0.03934,-2.72224
04/28/2019 09:55:21 am,7.2750,0.24384,-0.10946,-1.63214
04/28/2019 09:55:21 am,7.3000,0.23987,-0.13397,0.13653
04/28/2019 09:55:21 am,7.3250,0.23604,-0.10187,1.84846
04/28/2019 09:55:21 am,7.3500,0.23390,-0.02645,2.77564
04/28/2019 09:55:21 am,7.3750,0.23453,0.06030,2.50641
04/28/2019 09:55:21 am,7.4000,0.23742,0.12022,1.16617
04/28/2019 09:55:21 am,7.4250,0.24157,0.12743,-0.64666
04/28/2019 09:55:21 am,7.4500,0.24489,0.08134,-2.14034
04/28/2019 09:55:21 am,7.4750,0.24617,0.00217,-2.70720
04/28/2019 09:55:21 am,7.5000,0.24502,-0.07558,-2.15071
04/28/2019 09:55:21 am,7.5250,0.24177,-0.12173,-0.71298
04/28/2019 09:55:21 am,7.5500,0.23796,-0.11736,1.01230
04/28/2019 09:55:21 am,7.5750,0.23497,-0.06299,2.30869
04/28/2019 09:55:21 am,7.6000,0.23421,0.01753,2.62188
04/28/2019 09:55:21 am,7.6250,0.23606,0.08968,1.81682
04/28/2019 09:55:21 am,7.6500,0.23950,0.12325,0.25214
04/28/2019 09:55:21 am,7.6750,0.24314,0.10381,-1.40088
04/28/2019 09:55:21 am,7.7000,0.24562,0.04122,-2.43970
04/28/2019 09:55:21 am,7.7250,0.24551,-0.03842,-2.42254
04/28/2019 09:55:21 am,7.7500,0.24331,-0.10047,-1.38252
04/28/2019 09:55:21 am,7.7750,0.23969,-0.11788,0.21212
04/28/2019 09:55:21 am,7.8000,0.23637,-0.08671,1.67765
04/28/2019 09:55:21 am,7.8250,0.23477,-0.02037,2.41636
04/28/2019 09:55:21 am,7.8500,0.23523,0.05367,2.14234
04/28/2019 09:55:21 am,7.8750,0.23778,0.10420,0.97551
04/28/2019 09:55:21 am,7.9000,0.24141,0.11007,-0.57650
04/28/2019 09:55:21 am,7.9250,0.24421,0.06955,-1.84467
04/28/2019 09:55:21 am,7.9500,0.24530,0.00184,-2.32258
04/28/2019 09:55:21 am,7.9750,0.24432,-0.06427,-1.84646
04/28/2019 09:55:22 am,8.0000,0.24158,-0.10449,-0.62204
04/28/2019 09:55:22 am,8.0250,0.23829,-0.10108,0.85656
04/28/2019 09:55:22 am,8.0500,0.23565,-0.05465,1.97331
04/28/2019 09:55:22 am,8.0750,0.23508,0.01437,2.24375
04/28/2019 09:55:22 am,8.1000,0.23659,0.07605,1.56527
04/28/2019 09:55:22 am,8.1250,0.23951,0.10478,0.25250
04/28/2019 09:55:22 am,8.1500,0.24263,0.08973,-1.13728
04/28/2019 09:55:22 am,8.1750,0.24476,0.03857,-2.03264
04/28/2019 09:55:22 am,8.2000,0.24480,-0.02833,-2.07945
04/28/2019 09:55:22 am,8.2250,0.24312,-0.08206,-1.27539
04/28/2019 09:55:22 am,8.2500,0.24002,-0.10156,0.04113
04/28/2019 09:55:22 am,8.2750,0.23724,-0.07951,1.32569
04/28/2019 09:55:22 am,8.3000,0.23546,-0.02471,2.06768
04/28/2019 09:55:22 am,8.3250,0.23576,0.03994,1.96001
04/28/2019 09:55:22 am,8.3500,0.23779,0.08914,1.03201
04/28/2019 09:55:22 am,8.3750,0.24089,0.10064,-0.34787
04/28/2019 09:55:22 am,8.4000,0.24369,0.06939,-1.59053
04/28/2019 09:55:22 am,8.4250,0.24495,0.00751,-2.13653
04/28/2019 09:55:22 am,8.4500,0.24414,-0.05631,-1.75170
04/28/2019 09:55:22 am,8.4750,0.24157,-0.09414,-0.63351
04/28/2019 09:55:22 am,8.5000,0.23863,-0.09172,0.70637
04/28/2019 09:55:22 am,8.5250,0.23635,-0.05211,1.72019
04/28/2019 09:55:22 am,8.5500,0.23561,0.00762,2.01808
04/28/2019 09:55:22 am,8.5750,0.23677,0.06456,1.48418
04/28/2019 09:55:22 am,8.6000,0.23934,0.09433,0.34077
04/28/2019 09:55:22 am,8.6250,0.24229,0.08380,-0.92437
04/28/2019 09:55:22 am,8.6500,0.24424,0.03948,-1.77823
04/28/2019 09:55:22 am,8.6750,0.24445,-0.01925,-1.89865
04/28/2019 09:55:22 am,8.7000,0.24311,-0.06934,-1.27045
04/28/2019 09:55:22 am,8.7250,0.24053,-0.09216,-0.13283
04/28/2019 09:55:22 am,8.7500,0.23775,-0.07817,1.07973
04/28/2019 09:55:22 am,8.7750,0.23598,-0.03035,1.86575
04/28/2019 09:55:22 am,8.8000,0.23593,0.03080,1.87235
04/28/2019 09:55:22 am,8.8250,0.23780,0.07873,1.07446
04/28/2019 09:55:22 am,8.8500,0.24056,0.09360,-0.18167
04/28/2019 09:55:22 am,8.8750,0.24317,0.06802,-1.35251
04/28/2019 09:55:22 am,8.9000,0.24460,0.01426,-1.93388
04/28/2019 09:55:22 am,8.9250,0.24395,-0.04481,-1.68558
04/28/2019 09:55:22 am,8.9500,0.24191,-0.08366,-0.74500
04/28/2019 09:55:22 am,8.9750,0.23914,-0.08691,0.47719
04/28/2019 09:55:23 am,9.0000,0.23687,-0.05539,1.48043
04/28/2019 09:55:23 am,9.0250,0.23596,-0.00149,1.87585
04/28/2019 09:55:23 am,9.0500,0.23678,0.05300,1.51074
04/28/2019 09:55:23 am,9.0750,0.23900,0.08608,0.51550
04/28/2019 09:55:23 am,9.1000,0.24177,0.08364,-0.70802
04/28/2019 09:55:23 am,9.1250,0.24388,0.04518,-1.64485
04/28/2019 09:55:23 am,9.1500,0.24445,-0.01231,-1.88905
04/28/2019 09:55:23 am,9.1750,0.24310,-0.06469,-1.33117
04/28/2019 09:55:23 am,9.2000,0.24071,-0.08984,-0.20931
04/28/2019 09:55:23 am,9.2250,0.23792,-0.07696,1.00326
04/28/2019 09:55:23 am,9.2500,0.23616,-0.03143,1.78867
04/28/2019 09:55:23 am,9.2750,0.23611,0.02739,1.81694
04/28/2019 09:55:23 am,9.3000,0.23780,0.07411,1.08762
04/28/2019 09:55:23 am,9.3250,0.24038,0.09004,-0.09081
04/28/2019 09:55:23 am,9.3500,0.24300,0.06907,-1.22892
04/28/2019 09:55:23 am,9.3750,0.24442,0.01881,-1.85464
04/28/2019 09:55:23 am,9.4000,0.24413,-0.03901,-1.70616
04/28/2019 09:55:23 am,9.4250,0.24208,-0.08009,-0.85141
04/28/2019 09:55:23 am,9.4500,0.23949,-0.08796,0.34571
04/28/2019 09:55:23 am,9.4750,0.23704,-0.05995,1.40143
04/28/2019 09:55:23 am,9.5000,0.23597,-0.00729,1.88902
04/28/2019 09:55:23 am,9.5250,0.23661,0.04946,1.60161
04/28/2019 09:55:23 am,9.5500,0.23883,0.08599,0.63843
04/28/2019 09:55:23 am,9.5750,0.24160,0.08702,-0.60672
04/28/2019 09:55:23 am,9.6000,0.24388,0.05092,-1.61168
04/28/2019 09:55:23 am,9.6250,0.24462,-0.00648,-1.94827
04/28/2019 09:55:23 am,9.6500,0.24345,-0.06227,-1.46095
04/28/2019 09:55:23 am,9.6750,0.24105,-0.09204,-0.34844
04/28/2019 09:55:23 am,9.7000,0.23810,-0.08267,0.91682
04/28/2019 09:55:23 am,9.7250,0.23616,-0.03835,1.78637
04/28/2019 09:55:23 am,9.7500,0.23594,0.02157,1.89956
04/28/2019 09:55:23 am,9.7750,0.23746,0.07169,1.22497
04/28/2019 09:55:23 am,9.8000,0.24004,0.09223,0.05589
04/28/2019 09:55:23 am,9.8250,0.24282,0.07473,-1.13418
04/28/2019 09:55:23 am,9.8500,0.24442,0.02691,-1.86667
04/28/2019 09:55:23 am,9.8750,0.24429,-0.03311,-1.83481
04/28/2019 09:55:23 am,9.9000,0.24260,-0.07992,-1.02919
04/28/2019 09:55:23 am,9.9250,0.23967,-0.09366,0.23525
04/28/2019 09:55:23 am,9.9500,0.23705,-0.06692,1.41417
04/28/2019 09:55:23 am,9.9750,0.23579,-0.01082,1.99564
04/28/2019 09:55:24 am,10.0000,0.23644,0.04937,1.72498
04/28/2019 09:55:24 am,10.0250,0.23865,0.08939,0.72420
04/28/2019 09:55:24 am,10.0500,0.24159,0.09160,-0.58206
04/28/2019 09:55:24 am,10.0750,0.24405,0.05557,-1.64880
04/28/2019 09:55:24 am,10.1000,0.24479,-0.00412,-2.02428
04/28/2019 09:55:24 am,10.1250,0.24380,-0.06220,-1.55314
04/28/2019 09:55:24 am,10.1500,0.24123,-0.09427,-0.42620
04/28/2019 09:55:24 am,10.1750,0.23828,-0.08725,0.88434
04/28/2019 09:55:24 am,10.2000,0.23617,-0.04300,1.82312
04/28/2019 09:55:24 am,10.2250,0.23577,0.01918,1.99107
04/28/2019 09:55:24 am,10.2500,0.23728,0.07277,1.32539
04/28/2019 09:55:24 am,10.2750,0.24004,0.09564,0.11876
04/28/2019 09:55:24 am,10.3000,0.24282,0.07935,-1.13244
04/28/2019 09:55:24 am,10.3250,0.24458,0.03041,-1.92695
04/28/2019 09:55:24 am,10.3500,0.24464,-0.03187,-1.92700
04/28/2019 09:55:24 am,10.3750,0.24277,-0.08219,-1.10675
04/28/2019 09:55:24 am,10.4000,0.23984,-0.09710,0.19573
04/28/2019 09:55:24 am,10.4250,0.23705,-0.07037,1.42078
04/28/2019 09:55:24 am,10.4500,0.23580,-0.01433,2.04067
04/28/2019 09:55:24 am,10.4750,0.23627,0.04816,1.80142
04/28/2019 09:55:24 am,10.5000,0.23848,0.09048,0.80148
04/28/2019 09:55:24 am,10.5250,0.24159,0.09504,-0.53513
04/28/2019 09:55:24 am,10.5500,0.24404,0.05901,-1.64006
04/28/2019 09:55:24 am,10.5750,0.24496,-6.44485E-4,-2.05398
04/28/2019 09:55:24 am,10.6000,0.24396,-0.05985,-1.61367
04/28/2019 09:55:24 am,10.6250,0.24157,-0.09420,-0.51054
04/28/2019 09:55:24 am,10.6500,0.23845,-0.08949,0.80660
04/28/2019 09:55:24 am,10.6750,0.23634,-0.04759,1.79044
04/28/2019 09:55:24 am,10.7000,0.23577,0.01453,2.03526
04/28/2019 09:55:24 am,10.7250,0.23711,0.07035,1.43241
04/28/2019 09:55:24 am,10.7500,0.23986,0.09787,0.22726
04/28/2019 09:55:24 am,10.7750,0.24281,0.08394,-1.07700
04/28/2019 09:55:24 am,10.8000,0.24476,0.03503,-1.94072
04/28/2019 09:55:24 am,10.8250,0.24480,-0.02836,-1.99473
04/28/2019 09:55:24 am,10.8500,0.24312,-0.08094,-1.21380
04/28/2019 09:55:24 am,10.8750,0.24019,-0.09930,0.08718
04/28/2019 09:55:24 am,10.9000,0.23723,-0.07610,1.36493
04/28/2019 09:55:24 am,10.9250,0.23580,-0.02013,2.06936
04/28/2019 09:55:24 am,10.9500,0.23609,0.04462,1.90015
04/28/2019 09:55:24 am,10.9750,0.23831,0.09038,0.92462
04/28/2019 09:55:25 am,11.0000,0.24142,0.09842,-0.44126
04/28/2019 09:55:25 am,11.0250,0.24404,0.06477,-1.62238
04/28/2019 09:55:25 am,11.0500,0.24512,0.00404,-2.12149
04/28/2019 09:55:25 am,11.0750,0.24431,-0.05860,-1.72901
04/28/2019 09:55:25 am,11.1000,0.24175,-0.09643,-0.60422
04/28/2019 09:55:25 am,11.1250,0.23863,-0.09411,0.78175
04/28/2019 09:55:25 am,11.1500,0.23635,-0.05109,1.83568
04/28/2019 09:55:25 am,11.1750,0.23560,0.01332,2.10491
04/28/2019 09:55:25 am,11.2000,0.23711,0.07150,1.47169
04/28/2019 09:55:25 am,11.2250,0.23986,0.09905,0.22768
04/28/2019 09:55:25 am,11.2500,0.24281,0.08394,-1.09292
04/28/2019 09:55:25 am,11.2750,0.24476,0.03503,-1.93392
04/28/2019 09:55:25 am,11.3000,0.24480,-0.02843,-1.95651
04/28/2019 09:55:25 am,11.3250,0.24312,-0.07868,-1.17410
04/28/2019 09:55:25 am,11.3500,0.24018,-0.09583,0.07423
04/28/2019 09:55:25 am,11.3750,0.23757,-0.07368,1.26640
04/28/2019 09:55:25 am,11.4000,0.23597,-0.02229,1.93772
04/28/2019 09:55:25 am,11.4250,0.23628,0.03774,1.82797
04/28/2019 09:55:25 am,11.4500,0.23814,0.08341,0.97534
04/28/2019 09:55:25 am,11.4750,0.24107,0.09482,-0.28905
04/28/2019 09:55:25 am,11.5000,0.24369,0.06694,-1.44507
04/28/2019 09:55:25 am,11.5250,0.24495,0.01086,-1.99614
04/28/2019 09:55:25 am,11.5500,0.24430,-0.04939,-1.70985
04/28/2019 09:55:25 am,11.5750,0.24209,-0.08828,-0.72317
04/28/2019 09:55:25 am,11.6000,0.23914,-0.09041,0.53771
04/28/2019 09:55:25 am,11.6250,0.23687,-0.05660,1.56432
04/28/2019 09:55:25 am,11.6500,0.23596,-4.09863E-4,1.96822
04/28/2019 09:55:25 am,11.6750,0.23678,0.05637,1.58125
04/28/2019 09:55:25 am,11.7000,0.23917,0.09185,0.52530
04/28/2019 09:55:25 am,11.7250,0.24211,0.08833,-0.77571
04/28/2019 09:55:25 am,11.7500,0.24440,0.04643,-1.75250
04/28/2019 09:55:25 am,11.7750,0.24480,-0.01457,-1.97445
04/28/2019 09:55:25 am,11.8000,0.24345,-0.06813,-1.37051
04/28/2019 09:55:25 am,11.8250,0.24088,-0.09328,-0.21018
04/28/2019 09:55:25 am,11.8500,0.23810,-0.08044,1.03299
04/28/2019 09:55:25 am,11.8750,0.23616,-0.03379,1.84963
04/28/2019 09:55:25 am,11.9000,0.23611,0.02733,1.88638
04/28/2019 09:55:25 am,11.9250,0.23780,0.07640,1.13434
04/28/2019 09:55:25 am,11.9500,0.24056,0.09233,-0.07464
04/28/2019 09:55:25 am,11.9750,0.24317,0.07136,-1.24310
04/28/2019 09:55:26 am,12.0000,0.24459,0.02117,-1.90728
04/28/2019 09:55:26 am,12.0250,0.24447,-0.03891,-1.79092
04/28/2019 09:55:26 am,12.0500,0.24243,-0.08349,-0.91475
04/28/2019 09:55:26 am,12.0750,0.23949,-0.09261,0.35906
04/28/2019 09:55:26 am,12.1000,0.23704,-0.06234,1.48532
04/28/2019 09:55:26 am,12.1250,0.23597,-0.00621,1.98226
04/28/2019 09:55:26 am,12.1500,0.23661,0.05290,1.64175
04/28/2019 09:55:26 am,12.1750,0.23900,0.08949,0.60893
04/28/2019 09:55:26 am,12.2000,0.24195,0.08823,-0.67570
04/28/2019 09:55:26 am,12.2250,0.24405,0.04980,-1.67367
04/28/2019 09:55:26 am,12.2500,0.24479,-0.00877,-1.97993
04/28/2019 09:55:26 am,12.2750,0.24363,-0.06456,-1.45439
04/28/2019 09:55:26 am,12.3000,0.24105,-0.09439,-0.30344
04/28/2019 09:55:26 am,12.3250,0.23810,-0.08273,0.99326
04/28/2019 09:55:26 am,12.3500,0.23616,-0.03612,1.86408
04/28/2019 09:55:26 am,12.3750,0.23611,0.02615,1.93226
04/28/2019 09:55:26 am,12.4000,0.23762,0.07634,1.18127
04/28/2019 09:55:26 am,12.4250,0.24056,0.09465,-0.06594
04/28/2019 09:55:26 am,12.4500,0.24316,0.07257,-1.27348
04/28/2019 09:55:26 am,12.4750,0.24477,0.02003,-1.94615
04/28/2019 09:55:26 am,12.5000,0.24429,-0.04006,-1.80662
04/28/2019 09:55:26 am,12.5250,0.24243,-0.08464,-0.91515
04/28/2019 09:55:26 am,12.5500,0.23950,-0.09376,0.37373
04/28/2019 09:55:26 am,12.5750,0.23687,-0.06355,1.52332
04/28/2019 09:55:26 am,12.6000,0.23579,-0.00509,2.02874
04/28/2019 09:55:26 am,12.6250,0.23661,0.05519,1.66575
04/28/2019 09:55:26 am,12.6500,0.23900,0.09182,0.59429
04/28/2019 09:55:26 am,12.6750,0.24194,0.08941,-0.71392
04/28/2019 09:55:26 am,12.7000,0.24423,0.04984,-1.71254
04/28/2019 09:55:26 am,12.7250,0.24479,-0.00992,-1.99565
04/28/2019 09:55:26 am,12.7500,0.24363,-0.06574,-1.45440
04/28/2019 09:55:26 am,12.7750,0.24105,-0.09436,-0.30322
04/28/2019 09:55:26 am,12.8000,0.23810,-0.08388,0.98542
04/28/2019 09:55:26 am,12.8250,0.23616,-0.03726,1.86344
04/28/2019 09:55:26 am,12.8500,0.23594,0.02497,1.95476
04/28/2019 09:55:26 am,12.8750,0.23763,0.07631,1.21926
04/28/2019 09:55:26 am,12.9000,0.24038,0.09577,-0.01965
04/28/2019 09:55:26 am,12.9250,0.24316,0.07483,-1.24224
04/28/2019 09:55:26 am,12.9500,0.24477,0.02350,-1.93784
04/28/2019 09:55:26 am,12.9750,0.24447,-0.03776,-1.82127
04/28/2019 09:55:27 am,13.0000,0.24260,-0.08232,-0.95255
04/28/2019 09:55:27 am,13.0250,0.23966,-0.09255,0.30575
04/28/2019 09:55:27 am,13.0500,0.23722,-0.06460,1.42353
04/28/2019 09:55:27 am,13.0750,0.23597,-0.00962,1.94277
04/28/2019 09:55:27 am,13.1000,0.23661,0.04828,1.64792
04/28/2019 09:55:27 am,13.1250,0.23883,0.08599,0.66900
04/28/2019 09:55:27 am,13.1500,0.24160,0.08699,-0.57657
04/28/2019 09:55:27 am,13.1750,0.24388,0.05203,-1.56601
04/28/2019 09:55:27 am,13.2000,0.24461,-0.00425,-1.89367
04/28/2019 09:55:27 am,13.2250,0.24362,-0.05768,-1.44353
04/28/2019 09:55:27 am,13.2500,0.24122,-0.08735,-0.40792
04/28/2019 09:55:27 am,13.2750,0.23862,-0.08139,0.79385
04/28/2019 09:55:27 am,13.3000,0.23651,-0.04172,1.68466
04/28/2019 09:55:27 am,13.3250,0.23612,0.01577,1.88216
04/28/2019 09:55:27 am,13.3500,0.23746,0.06819,1.28550
04/28/2019 09:55:27 am,13.3750,0.24004,0.09102,0.14040
04/28/2019 09:55:27 am,13.4000,0.24282,0.07585,-1.06474
04/28/2019 09:55:27 am,13.4250,0.24441,0.02917,-1.81993
04/28/2019 09:55:27 am,13.4500,0.24446,-0.02967,-1.81824
04/28/2019 09:55:27 am,13.4750,0.24277,-0.07645,-1.05831
04/28/2019 09:55:27 am,13.5000,0.24001,-0.09127,0.15176
04/28/2019 09:55:27 am,13.5250,0.23739,-0.06798,1.30629
04/28/2019 09:55:27 am,13.5500,0.23615,-0.01538,1.91709
04/28/2019 09:55:27 am,13.5750,0.23644,0.04360,1.72309
04/28/2019 09:55:27 am,13.6000,0.23866,0.08471,0.79215
04/28/2019 09:55:27 am,13.6250,0.24142,0.09039,-0.48228
04/28/2019 09:55:27 am,13.6500,0.24387,0.05665,-1.56343
04/28/2019 09:55:27 am,13.6750,0.24479,-6.77853E-4,-1.98476
04/28/2019 09:55:27 am,13.7000,0.24379,-0.05873,-1.55992
04/28/2019 09:55:27 am,13.7250,0.24140,-0.09194,-0.46422
04/28/2019 09:55:27 am,13.7500,0.23845,-0.08608,0.83844
04/28/2019 09:55:27 am,13.7750,0.23634,-0.04297,1.77725
04/28/2019 09:55:27 am,13.8000,0.23594,0.01806,1.94502
04/28/2019 09:55:27 am,13.8250,0.23746,0.07051,1.28656
04/28/2019 09:55:27 am,13.8500,0.24004,0.09220,0.10240
04/28/2019 09:55:27 am,13.8750,0.24282,0.07588,-1.11103
04/28/2019 09:55:27 am,13.9000,0.24441,0.02805,-1.85138
04/28/2019 09:55:27 am,13.9250,0.24447,-0.03200,-1.81911
04/28/2019 09:55:27 am,13.9500,0.24260,-0.07763,-1.02772
04/28/2019 09:55:27 am,13.9750,0.23984,-0.09130,0.18321
04/28/2019 09:55:28 am,14.0000,0.23740,-0.06680,1.30716
04/28/2019 09:55:28 am,14.0250,0.23597,-0.01535,1.88673
04/28/2019 09:55:28 am,14.0500,0.23644,0.04249,1.68378
04/28/2019 09:55:28 am,14.0750,0.23849,0.08242,0.79041
04/28/2019 09:55:28 am,14.1000,0.24125,0.08800,-0.42243
04/28/2019 09:55:28 am,14.1250,0.24352,0.05770,-1.45575
04/28/2019 09:55:28 am,14.1500,0.24461,0.00384,-1.89807
04/28/2019 09:55:28 am,14.1750,0.24379,-0.05179,-1.56456
04/28/2019 09:55:28 am,14.2000,0.24157,-0.08722,-0.57742
04/28/2019 09:55:28 am,14.2250,0.23880,-0.08592,0.66897
04/28/2019 09:55:28 am,14.2500,0.23651,-0.04864,1.65155
04/28/2019 09:55:28 am,14.2750,0.23595,0.00997,1.94163
04/28/2019 09:55:28 am,14.3000,0.23712,0.06462,1.40757
04/28/2019 09:55:28 am,14.3250,0.23969,0.09207,0.27160
04/28/2019 09:55:28 am,14.3500,0.24247,0.08040,-0.97831
04/28/2019 09:55:28 am,14.3750,0.24441,0.03493,-1.81777
04/28/2019 09:55:28 am,14.4000,0.24446,-0.02499,-1.89360
04/28/2019 09:55:28 am,14.4250,0.24294,-0.07521,-1.17341
04/28/2019 09:55:28 am,14.4500,0.24019,-0.09350,0.05066
04/28/2019 09:55:28 am,14.4750,0.23740,-0.07256,1.26616
04/28/2019 09:55:28 am,14.5000,0.23597,-0.02003,1.94641
04/28/2019 09:55:28 am,14.5250,0.23627,0.04125,1.79910
04/28/2019 09:55:28 am,14.5500,0.23831,0.08465,0.88427
04/28/2019 09:55:28 am,14.5750,0.24125,0.09262,-0.40478
04/28/2019 09:55:28 am,14.6000,0.24369,0.06124,-1.52368
04/28/2019 09:55:28 am,14.6250,0.24478,0.00394,-1.99873
04/28/2019 09:55:28 am,14.6500,0.24396,-0.05523,-1.62023
04/28/2019 09:55:28 am,14.6750,0.24157,-0.09073,-0.55557
04/28/2019 09:55:28 am,14.7000,0.23862,-0.08713,0.73077
04/28/2019 09:55:28 am,14.7250,0.23651,-0.04749,1.69107
04/28/2019 09:55:28 am,14.7500,0.23595,0.01115,1.93464
04/28/2019 09:55:28 am,14.7750,0.23712,0.06465,1.37634
04/28/2019 09:55:28 am,14.8000,0.23969,0.09093,0.26244
04/28/2019 09:55:28 am,14.8250,0.24247,0.07919,-0.93351
04/28/2019 09:55:28 am,14.8500,0.24424,0.03598,-1.73280
04/28/2019 09:55:28 am,14.8750,0.24445,-0.02043,-1.83750
04/28/2019 09:55:28 am,14.9000,0.24311,-0.06938,-1.20908
04/28/2019 09:55:28 am,14.9250,0.24053,-0.09108,-0.07848
04/28/2019 09:55:28 am,14.9500,0.23775,-0.07473,1.10413
04/28/2019 09:55:28 am,14.9750,0.23615,-0.02685,1.83601
04/28/2019 09:55:29 am,15.0000,0.23628,0.03201,1.81057
04/28/2019 09:55:29 am,15.0250,0.23797,0.07758,1.03543
04/28/2019 09:55:29 am,15.0500,0.24073,0.09243,-0.18907
04/28/2019 09:55:29 am,15.0750,0.24334,0.06805,-1.36695
04/28/2019 09:55:29 am,15.1000,0.24478,0.01318,-1.97978
04/28/2019 09:55:29 am,15.1250,0.24413,-0.04822,-1.73297
04/28/2019 09:55:29 am,15.1500,0.24191,-0.08828,-0.73950
04/28/2019 09:55:29 am,15.1750,0.23897,-0.09044,0.56002
04/28/2019 09:55:29 am,15.2000,0.23670,-0.05552,1.61103
04/28/2019 09:55:29 am,15.2250,0.23578,0.00303,1.98518
04/28/2019 09:55:29 am,15.2500,0.23677,0.05991,1.53599
04/28/2019 09:55:29 am,15.2750,0.23935,0.09191,0.45544
04/28/2019 09:55:29 am,15.3000,0.24212,0.08600,-0.80733
04/28/2019 09:55:29 am,15.3250,0.24423,0.04525,-1.74463
04/28/2019 09:55:29 am,15.3500,0.24480,-0.01454,-1.97403
04/28/2019 09:55:29 am,15.3750,0.24346,-0.06925,-1.38645
04/28/2019 09:55:29 am,15.4000,0.24071,-0.09560,-0.20359
04/28/2019 09:55:29 am,15.4250,0.23793,-0.08165,1.07845
04/28/2019 09:55:29 am,15.4500,0.23598,-0.03268,1.91121
04/28/2019 09:55:29 am,15.4750,0.23593,0.02959,1.93351
04/28/2019 09:55:29 am,15.5000,0.23780,0.07984,1.13604
04/28/2019 09:55:29 am,15.5250,0.24055,0.09587,-0.13472
04/28/2019 09:55:29 am,15.5500,0.24334,0.07146,-1.34334
04/28/2019 09:55:29 am,15.5750,0.24477,0.01777,-1.97824
04/28/2019 09:55:29 am,15.6000,0.24430,-0.04356,-1.78498
04/28/2019 09:55:29 am,15.6250,0.24226,-0.08585,-0.84655
04/28/2019 09:55:29 am,15.6500,0.23932,-0.09267,0.45126
04/28/2019 09:55:29 am,15.6750,0.23687,-0.06011,1.56303
04/28/2019 09:55:29 am,15.7000,0.23578,-0.00162,2.01472
04/28/2019 09:55:29 am,15.7250,0.23678,0.05755,1.60524
04/28/2019 09:55:29 am,15.7500,0.23917,0.09188,0.51023
04/28/2019 09:55:29 am,15.7750,0.24212,0.08718,-0.79907
04/28/2019 09:55:29 am,15.8000,0.24423,0.04528,-1.76057
04/28/2019 09:55:29 am,15.8250,0.24480,-0.01571,-1.96746
04/28/2019 09:55:29 am,15.8500,0.24328,-0.06931,-1.34035
04/28/2019 09:55:29 am,15.8750,0.24071,-0.09334,-0.16387
04/28/2019 09:55:29 am,15.9000,0.23792,-0.07814,1.06443
04/28/2019 09:55:29 am,15.9250,0.23616,-0.03147,1.84984
04/28/2019 09:55:29 am,15.9500,0.23611,0.02848,1.87874
04/28/2019 09:55:29 am,15.9750,0.23780,0.07752,1.12756
04/28/2019 09:55:30 am,16.0000,0.24055,0.09469,-0.11179
04/28/2019 09:55:30 am,16.0250,0.24334,0.07146,-1.31978
04/28/2019 09:55:30 am,16.0500,0.24477,0.01777,-1.97782
04/28/2019 09:55:30 am,16.0750,0.24430,-0.04353,-1.80027
04/28/2019 09:55:30 am,16.1000,0.24226,-0.08700,-0.86205
04/28/2019 09:55:30 am,16.1250,0.23932,-0.09382,0.44319
04/28/2019 09:55:30 am,16.1500,0.23670,-0.06125,1.57026
04/28/2019 09:55:30 am,16.1750,0.23579,-0.00280,2.03723
04/28/2019 09:55:30 am,16.2000,0.23661,0.05752,1.64345
04/28/2019 09:55:30 am,16.2250,0.23899,0.09299,0.54907
04/28/2019 09:55:30 am,16.2500,0.24212,0.08947,-0.78272
04/28/2019 09:55:30 am,16.2750,0.24423,0.04761,-1.78221
04/28/2019 09:55:30 am,16.3000,0.24480,-0.01450,-2.03561
04/28/2019 09:55:30 am,16.3250,0.24346,-0.07036,-1.43316
04/28/2019 09:55:30 am,16.3500,0.24071,-0.09790,-0.21994
04/28/2019 09:55:30 am,16.3750,0.23776,-0.08397,1.10054
04/28/2019 09:55:30 am,16.4000,0.23581,-0.03389,1.96451
04/28/2019 09:55:30 am,16.4250,0.23576,0.03071,1.99507
04/28/2019 09:55:30 am,16.4500,0.23762,0.08210,1.18317
04/28/2019 09:55:30 am,16.4750,0.24055,0.09930,-0.13279
04/28/2019 09:55:30 am,16.5000,0.24334,0.07499,-1.41041
04/28/2019 09:55:30 am,16.5250,0.24494,0.01790,-2.10843
04/28/2019 09:55:30 am,16.5500,0.24448,-0.04805,-1.90968
04/28/2019 09:55:30 am,16.5750,0.24209,-0.09391,-0.88755
04/28/2019 09:55:30 am,16.6000,0.23898,-0.09965,0.51056
04/28/2019 09:55:30 am,16.6250,0.23636,-0.06364,1.69240
04/28/2019 09:55:30 am,16.6500,0.23527,-0.00174,2.16823
04/28/2019 09:55:30 am,16.6750,0.23626,0.06204,1.73704
04/28/2019 09:55:30 am,16.7000,0.23882,0.09990,0.57411
04/28/2019 09:55:30 am,16.7250,0.24211,0.09527,-0.83470
04/28/2019 09:55:30 am,16.7500,0.24440,0.05114,-1.88898
04/28/2019 09:55:30 am,16.7750,0.24497,-0.01441,-2.15134
04/28/2019 09:55:30 am,16.8000,0.24363,-0.07377,-1.51155
04/28/2019 09:55:30 am,16.8250,0.24071,-0.10252,-0.22929
04/28/2019 09:55:30 am,16.8500,0.23758,-0.08748,1.15323
04/28/2019 09:55:30 am,16.8750,0.23564,-0.03509,2.04861
04/28/2019 09:55:30 am,16.9000,0.23559,0.03179,2.08000
04/28/2019 09:55:30 am,16.9250,0.23745,0.08551,1.23794
04/28/2019 09:55:30 am,16.9500,0.24055,0.10392,-0.12408
04/28/2019 09:55:30 am,16.9750,0.24351,0.07846,-1.44032
04/28/2019 09:55:31 am,17.0000,0.24511,0.02022,-2.16148
04/28/2019 09:55:31 am,17.0250,0.24465,-0.04684,-1.97849
04/28/2019 09:55:31 am,17.0500,0.24244,-0.09500,-0.95765
04/28/2019 09:55:31 am,17.0750,0.23916,-0.10309,0.48589
04/28/2019 09:55:31 am,17.1000,0.23636,-0.06718,1.72998
04/28/2019 09:55:31 am,17.1250,0.23527,-0.00178,2.23002
04/28/2019 09:55:31 am,17.1500,0.23625,0.06319,1.77611
04/28/2019 09:55:31 am,17.1750,0.23899,0.10105,0.58198
04/28/2019 09:55:31 am,17.2000,0.24211,0.09641,-0.83468
04/28/2019 09:55:31 am,17.2250,0.24457,0.05229,-1.88897
04/28/2019 09:55:31 am,17.2500,0.24514,-0.01326,-2.15093
04/28/2019 09:55:31 am,17.2750,0.24381,-0.07262,-1.52602
04/28/2019 09:55:31 am,17.3000,0.24088,-0.10131,-0.27475
04/28/2019 09:55:31 am,17.3250,0.23793,-0.08856,1.09122
04/28/2019 09:55:31 am,17.3500,0.23582,-0.03854,2.01656
04/28/2019 09:55:31 am,17.3750,0.23559,0.02829,2.10209
04/28/2019 09:55:31 am,17.4000,0.23745,0.08433,1.29166
04/28/2019 09:55:31 am,17.4250,0.24055,0.10389,-0.07757
04/28/2019 09:55:31 am,17.4500,0.24351,0.07961,-1.41695
04/28/2019 09:55:31 am,17.4750,0.24511,0.02137,-2.15362
04/28/2019 09:55:31 am,17.5000,0.24482,-0.04569,-1.97829
04/28/2019 09:55:31 am,17.5250,0.24244,-0.09385,-0.96447
04/28/2019 09:55:31 am,17.5500,0.23933,-0.10191,0.44851
04/28/2019 09:55:31 am,17.5750,0.23653,-0.06708,1.66098
04/28/2019 09:55:31 am,17.6000,0.23544,-0.00519,2.16719
04/28/2019 09:55:31 am,17.6250,0.23626,0.05857,1.77421
04/28/2019 09:55:31 am,17.6500,0.23882,0.09751,0.65034
04/28/2019 09:55:31 am,17.6750,0.24194,0.09635,-0.74933
04/28/2019 09:55:31 am,17.7000,0.24439,0.05459,-1.84883
04/28/2019 09:55:31 am,17.7250,0.24514,-0.01090,-2.18065
04/28/2019 09:55:31 am,17.7500,0.24381,-0.07256,-1.58781
04/28/2019 09:55:31 am,17.7750,0.24089,-0.10360,-0.31425
04/28/2019 09:55:31 am,17.8000,0.23776,-0.09088,1.09824
04/28/2019 09:55:31 am,17.8250,0.23564,-0.03971,2.04715
04/28/2019 09:55:31 am,17.8500,0.23542,0.02829,2.13265
04/28/2019 09:55:31 am,17.8750,0.23727,0.08430,1.32199
04/28/2019 09:55:31 am,17.9000,0.24037,0.10500,-0.03915
04/28/2019 09:55:31 am,17.9250,0.24333,0.08187,-1.38508
04/28/2019 09:55:31 am,17.9500,0.24511,0.02484,-2.16718
04/28/2019 09:55:31 am,17.9750,0.24482,-0.04330,-2.05387
04/28/2019 09:55:32 am,18.0000,0.24261,-0.09490,-1.07278
04/28/2019 09:55:32 am,18.0250,0.23933,-0.10647,0.38459
04/28/2019 09:55:32 am,18.0500,0.23636,-0.07291,1.69666
04/28/2019 09:55:32 am,18.0750,0.23510,-0.00760,2.29650
04/28/2019 09:55:32 am,18.1000,0.23591,0.06074,1.92876
04/28/2019 09:55:32 am,18.1250,0.23865,0.10436,0.74504
04/28/2019 09:55:32 am,18.1500,0.24193,0.10444,-0.76159
04/28/2019 09:55:32 am,18.1750,0.24474,0.06045,-1.96960
04/28/2019 09:55:32 am,18.2000,0.24548,-0.00959,-2.35713
04/28/2019 09:55:32 am,18.2250,0.24416,-0.07705,-1.74353
04/28/2019 09:55:32 am,18.2500,0.24107,-0.11163,-0.37161
04/28/2019 09:55:32 am,18.2750,0.23759,-0.09904,1.17959
04/28/2019 09:55:32 am,18.3000,0.23530,-0.04334,2.23063
04/28/2019 09:55:32 am,18.3250,0.23507,0.03160,2.31907
04/28/2019 09:55:32 am,18.3500,0.23709,0.09232,1.40246
04/28/2019 09:55:32 am,18.3750,0.24054,0.11315,-0.10537
04/28/2019 09:55:32 am,18.4000,0.24368,0.08547,-1.54558
04/28/2019 09:55:32 am,18.4250,0.24546,0.02265,-2.32965
04/28/2019 09:55:32 am,18.4500,0.24500,-0.04901,-2.14821
04/28/2019 09:55:32 am,18.4750,0.24262,-0.10181,-1.07513
04/28/2019 09:55:32 am,18.5000,0.23917,-0.11230,0.46702
04/28/2019 09:55:32 am,18.5250,0.23602,-0.07533,1.84194
04/28/2019 09:55:32 am,18.5500,0.23475,-0.00544,2.44406
04/28/2019 09:55:32 am,18.5750,0.23573,0.06761,1.99350
04/28/2019 09:55:32 am,18.6000,0.23864,0.11137,0.67880
04/28/2019 09:55:32 am,18.6250,0.24228,0.10689,-0.92275
04/28/2019 09:55:32 am,18.6500,0.24491,0.05711,-2.11020
04/28/2019 09:55:32 am,18.6750,0.24549,-0.01654,-2.39072
04/28/2019 09:55:32 am,18.7000,0.24399,-0.08174,-1.66814
04/28/2019 09:55:32 am,18.7250,0.24072,-0.11287,-0.25584
04/28/2019 09:55:32 am,18.7500,0.23742,-0.09678,1.25777
04/28/2019 09:55:32 am,18.7750,0.23512,-0.03987,2.24719
04/28/2019 09:55:32 am,18.8000,0.23507,0.03393,2.28868
04/28/2019 09:55:32 am,18.8250,0.23709,0.09350,1.36381
04/28/2019 09:55:32 am,18.8500,0.24054,0.11315,-0.12850
04/28/2019 09:55:32 am,18.8750,0.24368,0.08547,-1.56086
04/28/2019 09:55:32 am,18.9000,0.24546,0.02268,-2.34515
04/28/2019 09:55:32 am,18.9250,0.24500,-0.05015,-2.15671
04/28/2019 09:55:32 am,18.9500,0.24262,-0.10299,-1.05284
04/28/2019 09:55:32 am,18.9750,0.23899,-0.11236,0.51353
04/28/2019 09:55:33 am,19.0000,0.23602,-0.07304,1.86614
04/28/2019 09:55:33 am,19.0250,0.23475,-0.00308,2.42155
04/28/2019 09:55:33 am,19.0500,0.23591,0.06765,1.95422
04/28/2019 09:55:33 am,19.0750,0.23864,0.11019,0.67775
04/28/2019 09:55:33 am,19.1000,0.24228,0.10683,-0.88429
04/28/2019 09:55:33 am,19.1250,0.24491,0.05940,-2.07854
04/28/2019 09:55:33 am,19.1500,0.24566,-0.01421,-2.39751
04/28/2019 09:55:33 am,19.1750,0.24416,-0.08056,-1.70618
04/28/2019 09:55:33 am,19.2000,0.24089,-0.11284,-0.30174
04/28/2019 09:55:33 am,19.2250,0.23759,-0.09789,1.21147
04/28/2019 09:55:33 am,19.2500,0.23530,-0.04213,2.21557
04/28/2019 09:55:33 am,19.2750,0.23507,0.03045,2.29529
04/28/2019 09:55:33 am,19.3000,0.23710,0.09114,1.40925
04/28/2019 09:55:33 am,19.3250,0.24036,0.11312,-0.06737
04/28/2019 09:55:33 am,19.3500,0.24368,0.08659,-1.49993
04/28/2019 09:55:33 am,19.3750,0.24546,0.02491,-2.27590
04/28/2019 09:55:33 am,19.4000,0.24499,-0.04563,-2.10104
04/28/2019 09:55:33 am,19.4250,0.24278,-0.09605,-1.07322
04/28/2019 09:55:33 am,19.4500,0.23951,-0.10762,0.39966
04/28/2019 09:55:33 am,19.4750,0.23654,-0.07409,1.71959
04/28/2019 09:55:33 am,19.5000,0.23510,-0.00764,2.32028
04/28/2019 09:55:33 am,19.5250,0.23608,0.06191,1.92220
04/28/2019 09:55:33 am,19.5500,0.23882,0.10442,0.69920
04/28/2019 09:55:33 am,19.5750,0.24210,0.10218,-0.80873
04/28/2019 09:55:33 am,19.6000,0.24474,0.05698,-1.97090
04/28/2019 09:55:33 am,19.6250,0.24549,-0.01195,-2.31149
04/28/2019 09:55:33 am,19.6500,0.24398,-0.07708,-1.68915
04/28/2019 09:55:33 am,19.6750,0.24107,-0.11048,-0.34739
04/28/2019 09:55:33 am,19.7000,0.23759,-0.09786,1.15751
04/28/2019 09:55:33 am,19.7250,0.23530,-0.04328,2.17691
04/28/2019 09:55:33 am,19.7500,0.23507,0.02934,2.27172
04/28/2019 09:55:33 am,19.7750,0.23710,0.08885,1.40818
04/28/2019 09:55:33 am,19.8000,0.24019,0.11077,-0.02959
04/28/2019 09:55:33 am,19.8250,0.24350,0.08652,-1.44535
04/28/2019 09:55:33 am,19.8500,0.24528,0.02723,-2.25911
04/28/2019 09:55:33 am,19.8750,0.24499,-0.04442,-2.13883
04/28/2019 09:55:33 am,19.9000,0.24279,-0.09716,-1.12738
04/28/2019 09:55:33 am,19.9250,0.23933,-0.10991,0.36824
04/28/2019 09:55:33 am,19.9500,0.23637,-0.07638,1.71878
04/28/2019 09:55:33 am,19.9750,0.23493,-0.00996,2.35024
04/28/2019 09:55:34 am,20.0000,0.23574,0.06070,1.97568
04/28/2019 09:55:34 am,20.0250,0.23847,0.10554,0.75329
04/28/2019 09:55:34 am,20.0500,0.24193,0.10447,-0.77755
04/28/2019 09:55:34 am,20.0750,0.24456,0.05927,-1.96281
04/28/2019 09:55:34 am,20.1000,0.24531,-0.00966,-2.31866
04/28/2019 09:55:34 am,20.1250,0.24398,-0.07476,-1.71184
04/28/2019 09:55:34 am,20.1500,0.24107,-0.10930,-0.37818
04/28/2019 09:55:34 am,20.1750,0.23759,-0.09786,1.13414
04/28/2019 09:55:34 am,20.2000,0.23530,-0.04328,2.16904
04/28/2019 09:55:34 am,20.2250,0.23507,0.02934,2.27194
04/28/2019 09:55:34 am,20.2500,0.23710,0.08885,1.40097
04/28/2019 09:55:34 am,20.2750,0.24019,0.11080,-0.05231
04/28/2019 09:55:34 am,20.3000,0.24350,0.08541,-1.47659
04/28/2019 09:55:34 am,20.3250,0.24529,0.02494,-2.26827
04/28/2019 09:55:34 am,20.3500,0.24482,-0.04678,-2.09423
04/28/2019 09:55:34 am,20.3750,0.24262,-0.09726,-1.03541
04/28/2019 09:55:34 am,20.4000,0.23916,-0.10653,0.45468
04/28/2019 09:55:34 am,20.4250,0.23636,-0.07062,1.72194
04/28/2019 09:55:34 am,20.4500,0.23510,-0.00522,2.23684
04/28/2019 09:55:34 am,20.4750,0.23609,0.05972,1.81282
04/28/2019 09:55:34 am,20.5000,0.23865,0.09866,0.67260
04/28/2019 09:55:34 am,20.5250,0.24176,0.09743,-0.70388
04/28/2019 09:55:34 am,20.5500,0.24422,0.05796,-1.78656
04/28/2019 09:55:34 am,20.5750,0.24513,-0.00517,-2.15554
04/28/2019 09:55:34 am,20.6000,0.24397,-0.06673,-1.63983
04/28/2019 09:55:34 am,20.6250,0.24123,-0.10121,-0.42132
04/28/2019 09:55:34 am,20.6500,0.23811,-0.09197,0.99011
04/28/2019 09:55:34 am,20.6750,0.23582,-0.04312,1.97708
04/28/2019 09:55:34 am,20.7000,0.23559,0.02370,2.10849
04/28/2019 09:55:34 am,20.7250,0.23728,0.07968,1.34388
04/28/2019 09:55:34 am,20.7500,0.24020,0.10150,0.02112
04/28/2019 09:55:34 am,20.7750,0.24316,0.08066,-1.29402
04/28/2019 09:55:34 am,20.8000,0.24494,0.02589,-2.05229
04/28/2019 09:55:34 am,20.8250,0.24464,-0.03881,-1.94488
04/28/2019 09:55:34 am,20.8500,0.24260,-0.08687,-1.03114
04/28/2019 09:55:34 am,20.8750,0.23967,-0.09831,0.30322
04/28/2019 09:55:34 am,20.9000,0.23688,-0.06928,1.51359
04/28/2019 09:55:34 am,20.9250,0.23562,-0.01092,2.09565
04/28/2019 09:55:34 am,20.9500,0.23626,0.05277,1.80289
04/28/2019 09:55:34 am,20.9750,0.23865,0.09398,0.74906
04/28/2019 09:55:35 am,21.0000,0.24176,0.09625,-0.62683
04/28/2019 09:55:35 am,21.0250,0.24422,0.05796,-1.73329
04/28/2019 09:55:35 am,21.0500,0.24513,-0.00523,-2.09481
04/28/2019 09:55:35 am,21.0750,0.24397,-0.06453,-1.56211
04/28/2019 09:55:35 am,21.1000,0.24122,-0.09548,-0.38778
04/28/2019 09:55:35 am,21.1250,0.23845,-0.08611,0.91577
04/28/2019 09:55:35 am,21.1500,0.23634,-0.04182,1.82356
04/28/2019 09:55:35 am,21.1750,0.23594,0.01918,1.97580
04/28/2019 09:55:35 am,21.2000,0.23746,0.07277,1.31013
04/28/2019 09:55:35 am,21.2250,0.24021,0.09567,0.10284
04/28/2019 09:55:35 am,21.2500,0.24299,0.07820,-1.12629
04/28/2019 09:55:35 am,21.2750,0.24476,0.02917,-1.86644
04/28/2019 09:55:35 am,21.3000,0.24463,-0.02967,-1.84098
04/28/2019 09:55:35 am,21.3250,0.24294,-0.07642,-1.08806
04/28/2019 09:55:35 am,21.3500,0.24036,-0.09235,0.09059
04/28/2019 09:55:35 am,21.3750,0.23757,-0.07136,1.24387
04/28/2019 09:55:35 am,21.4000,0.23615,-0.02115,1.89991
04/28/2019 09:55:35 am,21.4250,0.23645,0.03895,1.77490
04/28/2019 09:55:35 am,21.4500,0.23831,0.08232,0.90614
04/28/2019 09:55:35 am,21.4750,0.24125,0.09141,-0.34406
04/28/2019 09:55:35 am,21.5000,0.24369,0.06232,-1.44638
04/28/2019 09:55:35 am,21.5250,0.24478,0.00735,-1.95071
04/28/2019 09:55:35 am,21.5500,0.24413,-0.05057,-1.64889
04/28/2019 09:55:35 am,21.5750,0.24191,-0.08831,-0.65476
04/28/2019 09:55:35 am,21.6000,0.23897,-0.08936,0.62222
04/28/2019 09:55:35 am,21.6250,0.23669,-0.05208,1.63564
04/28/2019 09:55:35 am,21.6500,0.23595,0.00653,1.94845
04/28/2019 09:55:35 am,21.6750,0.23712,0.06115,1.44451
04/28/2019 09:55:35 am,21.7000,0.23952,0.08968,0.40290
04/28/2019 09:55:35 am,21.7250,0.24229,0.08145,
04/28/2019 09:55:35 am,21.7500,0.24423,0.04667,
04/28/2019 09:55:35 am,21.7750,0.24463,,
