Run #1,Run #1,Run #1,Run #1,Run #1
Date and Time,Time (s),Position (m),Velocity (m/s),Acceleration (m/s²)
04/14/2019 11:02:20 am,0.000,0.2348205,,
04/14/2019 11:02:20 am,0.025,0.2396817,0.16,
04/14/2019 11:02:20 am,0.050,0.2428397,0.06,-4.01
04/14/2019 11:02:20 am,0.075,0.2438313,-0.04,-3.43
04/14/2019 11:02:20 am,0.100,0.2400408,-0.12,-2.43
04/14/2019 11:02:20 am,0.125,0.2364604,-0.17,-1.06
04/14/2019 11:02:20 am,0.150,0.2316371,-0.17,0.37
04/14/2019 11:02:20 am,0.175,0.2269588,-0.15,1.69
04/14/2019 11:02:20 am,0.200,0.2234593,-0.09,2.69
04/14/2019 11:02:20 am,0.225,0.2221929,0.00,3.08
04/14/2019 11:02:20 am,0.250,0.2233387,0.08,2.67
04/14/2019 11:02:20 am,0.275,0.2267501,0.14,1.55
04/14/2019 11:02:20 am,0.300,0.2312151,0.17,0.03
04/14/2019 11:02:20 am,0.325,0.2358944,0.14,-1.49
04/14/2019 11:02:20 am,0.350,0.2392185,0.08,-2.60
04/14/2019 11:02:20 am,0.375,0.2404897,0.00,-3.00
04/14/2019 11:02:20 am,0.400,0.2393430,-0.08,-2.61
04/14/2019 11:02:20 am,0.425,0.2361068,-0.14,-1.52
04/14/2019 11:02:20 am,0.450,0.2316324,-0.16,-0.02
04/14/2019 11:02:20 am,0.475,0.2271263,-0.14,1.49
04/14/2019 11:02:20 am,0.500,0.2237989,-0.08,2.58
04/14/2019 11:02:20 am,0.525,0.2227088,1.85E-4,2.95
04/14/2019 11:02:20 am,0.550,0.2238589,0.08,2.54
04/14/2019 11:02:20 am,0.575,0.2270939,0.14,1.44
04/14/2019 11:02:20 am,0.600,0.2315682,0.16,-0.04
04/14/2019 11:02:20 am,0.625,0.2358991,0.14,-1.51
04/14/2019 11:02:20 am,0.650,0.2390513,0.08,-2.55
04/14/2019 11:02:20 am,0.675,0.2401504,0.00,-2.89
04/14/2019 11:02:20 am,0.700,0.2388268,-0.08,-2.46
04/14/2019 11:02:20 am,0.725,0.2355858,-0.14,-1.38
04/14/2019 11:02:20 am,0.750,0.2312836,-0.16,0.08
04/14/2019 11:02:20 am,0.775,0.2269497,-0.13,1.52
04/14/2019 11:02:20 am,0.800,0.2237944,-0.07,2.55
04/14/2019 11:02:20 am,0.825,0.2228763,0.01,2.89
04/14/2019 11:02:20 am,0.850,0.2242028,0.08,2.43
04/14/2019 11:02:20 am,0.875,0.2274377,0.14,1.32
04/14/2019 11:02:20 am,0.900,0.2319167,0.16,-0.15
04/14/2019 11:02:20 am,0.925,0.2360757,0.13,-1.57
04/14/2019 11:02:20 am,0.950,0.2390561,0.07,-2.55
04/14/2019 11:02:20 am,0.975,0.2399832,-0.01,-2.81
04/14/2019 11:02:21 am,1.000,0.2384826,-0.08,-2.32
04/14/2019 11:02:21 am,1.025,0.2352369,-0.14,-1.25
04/14/2019 11:02:21 am,1.050,0.2311069,-0.15,0.14
04/14/2019 11:02:21 am,1.075,0.2269452,-0.13,1.50
04/14/2019 11:02:21 am,1.100,0.2239664,-0.07,2.50
04/14/2019 11:02:21 am,1.125,0.2230483,0.01,2.83
04/14/2019 11:02:21 am,1.150,0.2243703,0.09,2.38
04/14/2019 11:02:21 am,1.175,0.2277861,0.14,1.25
04/14/2019 11:02:21 am,1.200,0.2320886,0.15,-0.22
04/14/2019 11:02:21 am,1.225,0.2362524,0.13,-1.61
04/14/2019 11:02:21 am,1.250,0.2390609,0.07,-2.53
04/14/2019 11:02:21 am,1.275,0.2398112,-0.01,-2.75
04/14/2019 11:02:21 am,1.300,0.2383106,-0.09,-2.24
04/14/2019 11:02:21 am,1.325,0.2350648,-0.14,-1.15
04/14/2019 11:02:21 am,1.350,0.2309302,-0.15,0.23
04/14/2019 11:02:21 am,1.375,0.2269406,-0.12,1.54
04/14/2019 11:02:21 am,1.400,0.2241339,-0.06,2.45
04/14/2019 11:02:21 am,1.425,0.2233878,0.01,2.68
04/14/2019 11:02:21 am,1.450,0.2248950,0.08,2.18
04/14/2019 11:02:21 am,1.475,0.2279626,0.13,1.11
04/14/2019 11:02:21 am,1.500,0.2320979,0.14,-0.23
04/14/2019 11:02:21 am,1.525,0.2359132,0.12,-1.50
04/14/2019 11:02:21 am,1.550,0.2385449,0.06,-2.36
04/14/2019 11:02:21 am,1.575,0.2392903,-0.01,-2.60
04/14/2019 11:02:21 am,1.600,0.2379617,-0.08,-2.15
04/14/2019 11:02:21 am,1.625,0.2348927,-0.13,-1.11
04/14/2019 11:02:21 am,1.650,0.2307489,-0.14,0.23
04/14/2019 11:02:21 am,1.675,0.2271081,-0.12,1.48
04/14/2019 11:02:21 am,1.700,0.2244780,-0.06,2.32
04/14/2019 11:02:21 am,1.725,0.2237362,0.01,2.54
04/14/2019 11:02:21 am,1.750,0.2250670,0.08,2.07
04/14/2019 11:02:21 am,1.775,0.2281436,0.12,1.07
04/14/2019 11:02:21 am,1.800,0.2319306,0.14,-0.20
04/14/2019 11:02:21 am,1.825,0.2355693,0.11,-1.41
04/14/2019 11:02:21 am,1.850,0.2382009,0.06,-2.27
04/14/2019 11:02:21 am,1.875,0.2389462,-0.01,-2.51
04/14/2019 11:02:21 am,1.900,0.2376175,-0.08,-2.05
04/14/2019 11:02:21 am,1.925,0.2345392,-0.12,-1.02
04/14/2019 11:02:21 am,1.950,0.2307443,-0.13,0.24
04/14/2019 11:02:21 am,1.975,0.2272756,-0.11,1.41
04/14/2019 11:02:22 am,2.000,0.2248220,-0.06,2.20
04/14/2019 11:02:22 am,2.025,0.2240801,0.01,2.43
04/14/2019 11:02:22 am,2.050,0.2254154,0.08,2.00
04/14/2019 11:02:22 am,2.075,0.2283155,0.12,1.03
04/14/2019 11:02:22 am,2.100,0.2321072,0.13,-0.22
04/14/2019 11:02:22 am,2.125,0.2355740,0.11,-1.41
04/14/2019 11:02:22 am,2.150,0.2380290,0.06,-2.22
04/14/2019 11:02:22 am,2.175,0.2387790,-0.01,-2.42
04/14/2019 11:02:22 am,2.200,0.2372687,-0.08,-1.95
04/14/2019 11:02:22 am,2.225,0.2343624,-0.12,-0.95
04/14/2019 11:02:22 am,2.250,0.2307443,-0.13,0.28
04/14/2019 11:02:22 am,2.275,0.2272711,-0.10,1.41
04/14/2019 11:02:22 am,2.300,0.2249895,-0.05,2.16
04/14/2019 11:02:22 am,2.325,0.2244241,0.01,2.32
04/14/2019 11:02:22 am,2.350,0.2257592,0.08,1.86
04/14/2019 11:02:22 am,2.375,0.2286685,0.12,0.93
04/14/2019 11:02:22 am,2.400,0.2321118,0.13,-0.23
04/14/2019 11:02:22 am,2.425,0.2354021,0.10,-1.33
04/14/2019 11:02:22 am,2.450,0.2378617,0.05,-2.10
04/14/2019 11:02:22 am,2.475,0.2384301,-0.01,-2.29
04/14/2019 11:02:22 am,2.500,0.2370919,-0.07,-1.85
04/14/2019 11:02:22 am,2.525,0.2343577,-0.11,-0.93
04/14/2019 11:02:22 am,2.550,0.2309117,-0.12,0.23
04/14/2019 11:02:22 am,2.575,0.2276152,-0.10,1.33
04/14/2019 11:02:22 am,2.600,0.2253335,-0.05,2.07
04/14/2019 11:02:22 am,2.625,0.2247680,0.01,2.24
04/14/2019 11:02:22 am,2.650,0.2261076,0.07,1.79
04/14/2019 11:02:22 am,2.675,0.2288450,0.11,0.88
04/14/2019 11:02:22 am,2.700,0.2321118,0.12,-0.25
04/14/2019 11:02:22 am,2.725,0.2354115,0.10,-1.33
04/14/2019 11:02:22 am,2.750,0.2375177,0.05,-2.06
04/14/2019 11:02:22 am,2.775,0.2380909,-0.02,-2.20
04/14/2019 11:02:22 am,2.800,0.2365757,-0.07,-1.71
04/14/2019 11:02:22 am,2.825,0.2338369,-0.11,-0.77
04/14/2019 11:02:22 am,2.850,0.2305584,-0.12,0.32
04/14/2019 11:02:22 am,2.875,0.2276106,-0.09,1.30
04/14/2019 11:02:22 am,2.900,0.2255010,-0.05,1.95
04/14/2019 11:02:22 am,2.925,0.2251165,0.01,2.08
04/14/2019 11:02:22 am,2.950,0.2262796,0.07,1.65
04/14/2019 11:02:22 am,2.975,0.2290216,0.11,0.77
04/14/2019 11:02:23 am,3.000,0.2321211,0.11,-0.30
04/14/2019 11:02:23 am,3.025,0.2350723,0.09,-1.26
04/14/2019 11:02:23 am,3.050,0.2370065,0.04,-1.88
04/14/2019 11:02:23 am,3.075,0.2373932,-0.01,-2.01
04/14/2019 11:02:23 am,3.100,0.2362269,-0.07,-1.61
04/14/2019 11:02:23 am,3.125,0.2336601,-0.10,-0.77
04/14/2019 11:02:23 am,3.150,0.2305584,-0.11,0.29
04/14/2019 11:02:23 am,3.175,0.2276061,-0.09,1.26
04/14/2019 11:02:23 am,3.200,0.2256685,-0.04,1.87
04/14/2019 11:02:23 am,3.225,0.2254604,0.02,1.96
04/14/2019 11:02:23 am,3.250,0.2266325,0.07,1.54
04/14/2019 11:02:23 am,3.275,0.2290216,0.10,0.73
04/14/2019 11:02:23 am,3.300,0.2321257,0.11,-0.28
04/14/2019 11:02:23 am,3.325,0.2349003,0.08,-1.22
04/14/2019 11:02:23 am,3.350,0.2368393,0.04,-1.83
04/14/2019 11:02:23 am,3.375,0.2370492,-0.02,-1.93
04/14/2019 11:02:23 am,3.400,0.2358780,-0.07,-1.51
04/14/2019 11:02:23 am,3.425,0.2334881,-0.10,-0.68
04/14/2019 11:02:23 am,3.450,0.2303771,-0.10,0.31
04/14/2019 11:02:23 am,3.475,0.2277736,-0.08,1.19
04/14/2019 11:02:23 am,3.500,0.2260170,-0.04,1.76
04/14/2019 11:02:23 am,3.525,0.2256324,0.01,1.87
04/14/2019 11:02:23 am,3.550,0.2268045,0.06,1.47
04/14/2019 11:02:23 am,3.575,0.2291981,0.10,0.68
04/14/2019 11:02:23 am,3.600,0.2321304,0.10,-0.30
04/14/2019 11:02:23 am,3.625,0.2347331,0.08,-1.19
04/14/2019 11:02:23 am,3.650,0.2364953,0.04,-1.75
04/14/2019 11:02:23 am,3.675,0.2367051,-0.02,-1.82
04/14/2019 11:02:23 am,3.700,0.2355339,-0.06,-1.38
04/14/2019 11:02:23 am,3.725,0.2331346,-0.09,-0.58
04/14/2019 11:02:23 am,3.750,0.2303725,-0.10,0.35
04/14/2019 11:02:23 am,3.775,0.2279410,-0.07,1.16
04/14/2019 11:02:23 am,3.800,0.2263565,-0.03,1.65
04/14/2019 11:02:23 am,3.825,0.2261483,0.02,1.71
04/14/2019 11:02:23 am,3.850,0.2273249,0.06,1.32
04/14/2019 11:02:23 am,3.875,0.2295511,0.09,0.58
04/14/2019 11:02:23 am,3.900,0.2321304,0.09,-0.31
04/14/2019 11:02:23 am,3.925,0.2347424,0.07,-1.11
04/14/2019 11:02:23 am,3.950,0.2361513,0.03,-1.61
04/14/2019 11:02:23 am,3.975,0.2363564,-0.02,-1.68
04/14/2019 11:02:24 am,4.000,0.2353572,-0.06,-1.31
04/14/2019 11:02:24 am,4.025,0.2331346,-0.09,-0.58
04/14/2019 11:02:24 am,4.050,0.2303679,-0.09,0.31
04/14/2019 11:02:24 am,4.075,0.2281131,-0.07,1.10
04/14/2019 11:02:24 am,4.100,0.2265285,-0.03,1.59
04/14/2019 11:02:24 am,4.125,0.2263203,0.02,1.65
04/14/2019 11:02:24 am,4.150,0.2275014,0.06,1.27
04/14/2019 11:02:24 am,4.175,0.2295511,0.09,0.56
04/14/2019 11:02:24 am,4.200,0.2321350,0.09,-0.32
04/14/2019 11:02:24 am,4.225,0.2345705,0.07,-1.10
04/14/2019 11:02:24 am,4.250,0.2359840,0.03,-1.57
04/14/2019 11:02:24 am,4.275,0.2360123,-0.02,-1.60
04/14/2019 11:02:24 am,4.300,0.2350131,-0.06,-1.20
04/14/2019 11:02:24 am,4.325,0.2327812,-0.08,-0.50
04/14/2019 11:02:24 am,4.350,0.2303679,-0.09,0.33
04/14/2019 11:02:24 am,4.375,0.2281085,-0.07,1.07
04/14/2019 11:02:24 am,4.400,0.2266960,-0.03,1.51
04/14/2019 11:02:24 am,4.425,0.2266688,0.02,1.54
04/14/2019 11:02:24 am,4.450,0.2276734,0.06,1.17
04/14/2019 11:02:24 am,4.475,0.2297277,0.08,0.50
04/14/2019 11:02:24 am,4.500,0.2321396,0.08,-0.32
04/14/2019 11:02:24 am,4.525,0.2344032,0.06,-1.04
04/14/2019 11:02:24 am,4.550,0.2356353,0.03,-1.47
04/14/2019 11:02:24 am,4.575,0.2358450,-0.02,-1.50
04/14/2019 11:02:24 am,4.600,0.2346596,-0.06,-1.13
04/14/2019 11:02:24 am,4.625,0.2327812,-0.08,-0.46
04/14/2019 11:02:24 am,4.650,0.2303633,-0.08,0.32
04/14/2019 11:02:24 am,4.675,0.2282760,-0.06,1.01
04/14/2019 11:02:24 am,4.700,0.2270445,-0.03,1.44
04/14/2019 11:02:24 am,4.725,0.2268362,0.02,1.48
04/14/2019 11:02:24 am,4.750,0.2280218,0.06,1.11
04/14/2019 11:02:24 am,4.775,0.2298996,0.08,0.44
04/14/2019 11:02:24 am,4.800,0.2323162,0.08,-0.35
04/14/2019 11:02:24 am,4.825,0.2344079,0.06,-1.03
04/14/2019 11:02:24 am,4.850,0.2354633,0.02,-1.41
04/14/2019 11:02:24 am,4.875,0.2356730,-0.02,-1.42
04/14/2019 11:02:24 am,4.900,0.2344876,-0.05,-1.04
04/14/2019 11:02:24 am,4.925,0.2326045,-0.08,-0.40
04/14/2019 11:02:24 am,4.950,0.2303587,-0.08,0.33
04/14/2019 11:02:24 am,4.975,0.2284480,-0.06,0.98
04/14/2019 11:02:25 am,5.000,0.2272120,-0.02,1.36
04/14/2019 11:02:25 am,5.025,0.2271847,0.02,1.39
04/14/2019 11:02:25 am,5.050,0.2281938,0.05,1.03
04/14/2019 11:02:25 am,5.075,0.2300762,0.07,0.39
04/14/2019 11:02:25 am,5.100,0.2323209,0.08,-0.36
04/14/2019 11:02:25 am,5.125,0.2342359,0.05,-1.00
04/14/2019 11:02:25 am,5.150,0.2352960,0.02,-1.35
04/14/2019 11:02:25 am,5.175,0.2353289,-0.02,-1.32
04/14/2019 11:02:25 am,5.200,0.2341388,-0.05,-0.95
04/14/2019 11:02:25 am,5.225,0.2324278,-0.07,-0.35
04/14/2019 11:02:25 am,5.250,0.2303587,-0.07,0.35
04/14/2019 11:02:25 am,5.275,0.2284434,-0.05,0.96
04/14/2019 11:02:25 am,5.300,0.2273795,-0.02,1.30
04/14/2019 11:02:25 am,5.325,0.2275287,0.02,1.27
04/14/2019 11:02:25 am,5.350,0.2285423,0.05,0.90
04/14/2019 11:02:25 am,5.375,0.2302527,0.07,0.31
04/14/2019 11:02:25 am,5.400,0.2323255,0.07,-0.36
04/14/2019 11:02:25 am,5.425,0.2340686,0.05,-0.92
04/14/2019 11:02:25 am,5.450,0.2349520,0.02,-1.23
04/14/2019 11:02:25 am,5.475,0.2349802,-0.02,-1.20
04/14/2019 11:02:25 am,5.500,0.2339668,-0.05,-0.86
04/14/2019 11:02:25 am,5.525,0.2322511,-0.07,-0.29
04/14/2019 11:02:25 am,5.550,0.2303495,-0.06,0.35
04/14/2019 11:02:25 am,5.575,0.2287875,-0.05,0.89
04/14/2019 11:02:25 am,5.600,0.2277234,-0.02,1.19
04/14/2019 11:02:25 am,5.625,0.2278727,0.02,1.16
04/14/2019 11:02:25 am,5.650,0.2288908,0.05,0.82
04/14/2019 11:02:25 am,5.675,0.2304293,0.06,0.28
04/14/2019 11:02:25 am,5.700,0.2323302,0.06,-0.33
04/14/2019 11:02:25 am,5.725,0.2338966,0.05,-0.86
04/14/2019 11:02:25 am,5.750,0.2347800,0.02,-1.16
04/14/2019 11:02:25 am,5.775,0.2348082,-0.02,-1.15
04/14/2019 11:02:25 am,5.800,0.2337948,-0.05,-0.80
04/14/2019 11:02:25 am,5.825,0.2320744,-0.06,-0.24
04/14/2019 11:02:25 am,5.850,0.2303495,-0.06,0.37
04/14/2019 11:02:25 am,5.875,0.2287783,-0.04,0.86
04/14/2019 11:02:25 am,5.900,0.2280720,-0.01,1.11
04/14/2019 11:02:25 am,5.925,0.2280446,0.02,1.07
04/14/2019 11:02:25 am,5.950,0.2290628,0.05,0.75
04/14/2019 11:02:25 am,5.975,0.2306059,0.06,0.23
04/14/2019 11:02:26 am,6.000,0.2323348,0.06,-0.34
04/14/2019 11:02:26 am,6.025,0.2337246,0.04,-0.81
04/14/2019 11:02:26 am,6.050,0.2346127,0.01,-1.07
04/14/2019 11:02:26 am,6.075,0.2344594,-0.02,-1.05
04/14/2019 11:02:26 am,6.100,0.2336181,-0.04,-0.74
04/14/2019 11:02:26 am,6.125,0.2320744,-0.06,-0.22
04/14/2019 11:02:26 am,6.150,0.2303449,-0.06,0.35
04/14/2019 11:02:26 am,6.175,0.2289503,-0.04,0.81
04/14/2019 11:02:26 am,6.200,0.2282394,-0.01,1.03
04/14/2019 11:02:26 am,6.225,0.2283932,0.02,0.99
04/14/2019 11:02:26 am,6.250,0.2292393,0.04,0.70
04/14/2019 11:02:26 am,6.275,0.2306059,0.06,0.23
04/14/2019 11:02:26 am,6.300,0.2323348,0.06,-0.32
04/14/2019 11:02:26 am,6.325,0.2337293,0.04,-0.79
04/14/2019 11:02:26 am,6.350,0.2344407,0.01,-1.02
04/14/2019 11:02:26 am,6.375,0.2342874,-0.02,-0.96
04/14/2019 11:02:26 am,6.400,0.2334414,-0.04,-0.67
04/14/2019 11:02:26 am,6.425,0.2320698,-0.05,-0.21
04/14/2019 11:02:26 am,6.450,0.2305169,-0.05,0.31
04/14/2019 11:02:26 am,6.475,0.2291223,-0.04,0.76
04/14/2019 11:02:26 am,6.500,0.2284114,-0.01,1.00
04/14/2019 11:02:26 am,6.525,0.2285651,0.02,0.95
04/14/2019 11:02:26 am,6.550,0.2294113,0.04,0.65
04/14/2019 11:02:26 am,6.575,0.2307825,0.05,0.18
04/14/2019 11:02:26 am,6.600,0.2323395,0.05,-0.33
04/14/2019 11:02:26 am,6.625,0.2335573,0.04,-0.74
04/14/2019 11:02:26 am,6.650,0.2342687,0.01,-0.96
04/14/2019 11:02:26 am,6.675,0.2341154,-0.02,-0.90
04/14/2019 11:02:26 am,6.700,0.2332693,-0.04,-0.61
04/14/2019 11:02:26 am,6.725,0.2318931,-0.05,-0.17
04/14/2019 11:02:26 am,6.750,0.2305123,-0.05,0.31
04/14/2019 11:02:26 am,6.775,0.2292943,-0.03,0.71
04/14/2019 11:02:26 am,6.800,0.2285834,-0.01,0.92
04/14/2019 11:02:26 am,6.825,0.2287371,0.02,0.88
04/14/2019 11:02:26 am,6.850,0.2295879,0.04,0.60
04/14/2019 11:02:26 am,6.875,0.2307825,0.05,0.17
04/14/2019 11:02:26 am,6.900,0.2323441,0.05,-0.31
04/14/2019 11:02:26 am,6.925,0.2333853,0.03,-0.70
04/14/2019 11:02:26 am,6.950,0.2340967,0.01,-0.90
04/14/2019 11:02:26 am,6.975,0.2339434,-0.02,-0.84
04/14/2019 11:02:27 am,7.000,0.2330926,-0.04,-0.55
04/14/2019 11:02:27 am,7.025,0.2318931,-0.05,-0.13
04/14/2019 11:02:27 am,7.050,0.2305077,-0.04,0.30
04/14/2019 11:02:27 am,7.075,0.2294618,-0.03,0.65
04/14/2019 11:02:27 am,7.100,0.2289320,-0.01,0.83
04/14/2019 11:02:27 am,7.125,0.2289091,0.02,0.79
04/14/2019 11:02:27 am,7.150,0.2297598,0.04,0.53
04/14/2019 11:02:27 am,7.175,0.2309637,0.04,0.13
04/14/2019 11:02:27 am,7.200,0.2321721,0.04,-0.30
04/14/2019 11:02:27 am,7.225,0.2332180,0.03,-0.63
04/14/2019 11:02:27 am,7.250,0.2337527,0.01,-0.80
04/14/2019 11:02:27 am,7.275,0.2335947,-0.02,-0.75
04/14/2019 11:02:27 am,7.300,0.2329206,-0.03,-0.49
04/14/2019 11:02:27 am,7.325,0.2317164,-0.04,-0.10
04/14/2019 11:02:27 am,7.350,0.2305031,-0.04,0.30
04/14/2019 11:02:27 am,7.375,0.2296338,-0.03,0.60
04/14/2019 11:02:27 am,7.400,0.2290994,-0.01,0.74
04/14/2019 11:02:27 am,7.425,0.2292577,0.01,0.70
04/14/2019 11:02:27 am,7.450,0.2299364,0.03,0.48
04/14/2019 11:02:27 am,7.475,0.2309637,0.04,0.13
04/14/2019 11:02:27 am,7.500,0.2321721,0.04,-0.28
04/14/2019 11:02:27 am,7.525,0.2332227,0.03,-0.61
04/14/2019 11:02:27 am,7.550,0.2335807,0.01,-0.74
04/14/2019 11:02:27 am,7.575,0.2334227,-0.02,-0.66
04/14/2019 11:02:27 am,7.600,0.2327439,-0.03,-0.42
04/14/2019 11:02:27 am,7.625,0.2317118,-0.04,-0.09
04/14/2019 11:02:27 am,7.650,0.2306751,-0.04,0.25
04/14/2019 11:02:27 am,7.675,0.2298058,-0.02,0.55
04/14/2019 11:02:27 am,7.700,0.2292714,-0.01,0.70
04/14/2019 11:02:27 am,7.725,0.2294296,0.01,0.66
04/14/2019 11:02:27 am,7.750,0.2301084,0.03,0.43
04/14/2019 11:02:27 am,7.775,0.2311403,0.04,0.08
04/14/2019 11:02:27 am,7.800,0.2321768,0.03,-0.28
04/14/2019 11:02:27 am,7.825,0.2330507,0.02,-0.56
04/14/2019 11:02:27 am,7.850,0.2334087,0.00,-0.67
04/14/2019 11:02:27 am,7.875,0.2332507,-0.01,-0.59
04/14/2019 11:02:27 am,7.900,0.2325673,-0.03,-0.38
04/14/2019 11:02:27 am,7.925,0.2317118,-0.03,-0.08
04/14/2019 11:02:27 am,7.950,0.2306705,-0.03,0.24
04/14/2019 11:02:27 am,7.975,0.2299778,-0.02,0.50
04/14/2019 11:02:28 am,8.000,0.2294434,-0.01,0.64
04/14/2019 11:02:28 am,8.025,0.2296016,0.01,0.59
04/14/2019 11:02:28 am,8.050,0.2302850,0.03,0.37
04/14/2019 11:02:28 am,8.075,0.2311449,0.03,0.06
04/14/2019 11:02:28 am,8.100,0.2320048,0.03,-0.25
04/14/2019 11:02:28 am,8.125,0.2328833,0.02,-0.48
04/14/2019 11:02:28 am,8.150,0.2330600,0.00,-0.57
04/14/2019 11:02:28 am,8.175,0.2330786,-0.01,-0.52
04/14/2019 11:02:28 am,8.200,0.2323906,-0.02,-0.33
04/14/2019 11:02:28 am,8.225,0.2317072,-0.03,-0.07
04/14/2019 11:02:28 am,8.250,0.2308425,-0.03,0.21
04/14/2019 11:02:28 am,8.275,0.2301452,-0.02,0.43
04/14/2019 11:02:28 am,8.300,0.2297874,0.00,0.54
04/14/2019 11:02:28 am,8.325,0.2299502,0.01,0.49
04/14/2019 11:02:28 am,8.350,0.2304616,0.02,0.30
04/14/2019 11:02:28 am,8.375,0.2311449,0.03,0.05
04/14/2019 11:02:28 am,8.400,0.2320141,0.03,-0.21
04/14/2019 11:02:28 am,8.425,0.2325347,0.02,-0.41
04/14/2019 11:02:28 am,8.450,0.2328927,0.00,-0.50
04/14/2019 11:02:28 am,8.475,0.2327300,-0.01,-0.44
04/14/2019 11:02:28 am,8.500,0.2322186,-0.02,-0.26
04/14/2019 11:02:28 am,8.525,0.2315305,-0.03,-0.01
04/14/2019 11:02:28 am,8.550,0.2308379,-0.02,0.22
04/14/2019 11:02:28 am,8.575,0.2303126,-0.01,0.37
04/14/2019 11:02:28 am,8.600,0.2301314,0.00,0.41
04/14/2019 11:02:28 am,8.625,0.2302988,0.01,0.35
04/14/2019 11:02:28 am,8.650,0.2306382,0.02,0.23
04/14/2019 11:02:28 am,8.675,0.2311495,0.02,0.05
04/14/2019 11:02:28 am,8.700,0.2318421,0.02,-0.16
04/14/2019 11:02:28 am,8.725,0.2323674,0.01,-0.33
04/14/2019 11:02:28 am,8.750,0.2325487,0.00,-0.39
04/14/2019 11:02:28 am,8.775,0.2323813,-0.01,-0.33
04/14/2019 11:02:28 am,8.800,0.2320419,-0.02,-0.20
04/14/2019 11:02:28 am,8.825,0.2315259,-0.02,-0.04
04/14/2019 11:02:28 am,8.850,0.2310099,-0.02,0.14
04/14/2019 11:02:28 am,8.875,0.2304846,-0.01,0.28
04/14/2019 11:02:28 am,8.900,0.2303034,0.00,0.34
04/14/2019 11:02:28 am,8.925,0.2304754,0.01,0.30
04/14/2019 11:02:28 am,8.950,0.2306382,0.01,0.20
04/14/2019 11:02:28 am,8.975,0.2311541,0.02,0.04
04/14/2019 11:02:29 am,9.000,0.2316747,0.02,-0.12
04/14/2019 11:02:29 am,9.025,0.2320234,0.01,-0.24
04/14/2019 11:02:29 am,9.050,0.2322000,0.00,-0.30
04/14/2019 11:02:29 am,9.075,0.2322093,-0.01,-0.28
04/14/2019 11:02:29 am,9.100,0.2318653,-0.01,-0.19
04/14/2019 11:02:29 am,9.125,0.2315259,-0.02,-0.04
04/14/2019 11:02:29 am,9.150,0.2310052,-0.02,0.12
04/14/2019 11:02:29 am,9.175,0.2306566,-0.01,0.24
04/14/2019 11:02:29 am,9.200,0.2304754,0.00,0.28
04/14/2019 11:02:29 am,9.225,0.2306474,0.01,0.24
04/14/2019 11:02:29 am,9.250,0.2308148,0.01,0.15
04/14/2019 11:02:29 am,9.275,0.2311541,0.01,0.02
04/14/2019 11:02:29 am,9.300,0.2316794,0.01,-0.12
04/14/2019 11:02:29 am,9.325,0.2318514,0.01,-0.21
04/14/2019 11:02:29 am,9.350,0.2320326,1.55E-4,-0.23
04/14/2019 11:02:29 am,9.375,0.2318606,-0.01,-0.17
04/14/2019 11:02:29 am,9.400,0.2316933,-0.01,-0.08
04/14/2019 11:02:29 am,9.425,0.2313446,-0.01,0.01
04/14/2019 11:02:29 am,9.450,0.2311726,-0.01,0.09
04/14/2019 11:02:29 am,9.475,0.2310006,0.00,0.14
04/14/2019 11:02:29 am,9.500,0.2308194,-1.23E-4,0.17
04/14/2019 11:02:29 am,9.525,0.2309914,0.00,0.15
04/14/2019 11:02:29 am,9.550,0.2311634,0.01,0.09
04/14/2019 11:02:29 am,9.575,0.2313307,0.01,0.00
04/14/2019 11:02:29 am,9.600,0.2316794,0.01,-0.08
04/14/2019 11:02:29 am,9.625,0.2318560,0.00,-0.14
04/14/2019 11:02:29 am,9.650,0.2318560,9.27E-5,-0.15
04/14/2019 11:02:29 am,9.675,0.2318606,0.00,-0.12
04/14/2019 11:02:29 am,9.700,0.2316886,-0.01,-0.07
04/14/2019 11:02:29 am,9.725,0.2315166,-0.01,-0.02
04/14/2019 11:02:29 am,9.750,0.2313446,-0.01,0.04
04/14/2019 11:02:29 am,9.775,0.2311726,0.00,0.10
04/14/2019 11:02:29 am,9.800,0.2309914,0.00,0.12
04/14/2019 11:02:29 am,9.825,0.2311680,0.00,0.11
04/14/2019 11:02:29 am,9.850,0.2311634,0.00,0.07
04/14/2019 11:02:29 am,9.875,0.2313354,0.01,0.02
04/14/2019 11:02:29 am,9.900,0.2315074,0.01,-0.04
04/14/2019 11:02:29 am,9.925,0.2316840,0.00,-0.09
04/14/2019 11:02:29 am,9.950,0.2316840,6.18E-5,-0.10
04/14/2019 11:02:29 am,9.975,0.2316886,0.00,-0.07
04/14/2019 11:02:30 am,10.000,0.2315120,0.00,-0.02
04/14/2019 11:02:30 am,10.025,0.2315166,0.00,0.01
04/14/2019 11:02:30 am,10.050,0.2313400,0.00,0.04
04/14/2019 11:02:30 am,10.075,0.2313400,0.00,0.05
04/14/2019 11:02:30 am,10.100,0.2313400,-3.08E-5,0.05
04/14/2019 11:02:30 am,10.125,0.2313400,0.00,0.04
04/14/2019 11:02:30 am,10.150,0.2313354,0.00,0.02
04/14/2019 11:02:30 am,10.175,0.2315120,0.00,-0.01
04/14/2019 11:02:30 am,10.200,0.2315120,0.00,-0.03
04/14/2019 11:02:30 am,10.225,0.2315120,0.00,-0.02
04/14/2019 11:02:30 am,10.250,0.2315120,0.00,-0.01
04/14/2019 11:02:30 am,10.275,0.2315120,0.00,0.00
04/14/2019 11:02:30 am,10.300,0.2315120,0.00,0.00
04/14/2019 11:02:30 am,10.325,0.2315120,0.00,0.00
04/14/2019 11:02:30 am,10.350,0.2315120,0.00,0.00
04/14/2019 11:02:30 am,10.375,0.2315120,0.00,0.00
04/14/2019 11:02:30 am,10.400,0.2315120,0.00,0.00
04/14/2019 11:02:30 am,10.425,0.2315120,0.00,0.00
04/14/2019 11:02:30 am,10.450,0.2315120,0.00,0.00
04/14/2019 11:02:30 am,10.475,0.2315120,0.00,0.00
04/14/2019 11:02:30 am,10.500,0.2315120,0.00,0.00
04/14/2019 11:02:30 am,10.525,0.2315120,0.00,0.00
04/14/2019 11:02:30 am,10.550,0.2315120,0.00,0.00
04/14/2019 11:02:30 am,10.575,0.2315120,0.00,0.00
04/14/2019 11:02:30 am,10.600,0.2315120,0.00,0.00
04/14/2019 11:02:30 am,10.625,0.2315120,0.00,0.00
04/14/2019 11:02:30 am,10.650,0.2315120,0.00,0.00
04/14/2019 11:02:30 am,10.675,0.2315120,0.00,0.00
04/14/2019 11:02:30 am,10.700,0.2315120,0.00,2.06E-4
04/14/2019 11:02:30 am,10.725,0.2315120,0.00,-0.01
04/14/2019 11:02:30 am,10.750,0.2315120,3.09E-5,-0.02
04/14/2019 11:02:30 am,10.775,0.2315120,0.00,-0.03
04/14/2019 11:02:30 am,10.800,0.2315166,0.00,-0.02
04/14/2019 11:02:30 am,10.825,0.2313400,0.00,0.01
04/14/2019 11:02:30 am,10.850,0.2313400,0.00,0.03
04/14/2019 11:02:30 am,10.875,0.2313400,0.00,0.02
04/14/2019 11:02:30 am,10.900,0.2313400,0.00,0.01
04/14/2019 11:02:30 am,10.925,0.2313400,0.00,0.00
04/14/2019 11:02:30 am,10.950,0.2313400,0.00,0.00
04/14/2019 11:02:30 am,10.975,0.2313400,0.00,0.00
04/14/2019 11:02:31 am,11.000,0.2313400,0.00,0.00
04/14/2019 11:02:31 am,11.025,0.2313400,0.00,0.00
04/14/2019 11:02:31 am,11.050,0.2313400,0.00,0.00
04/14/2019 11:02:31 am,11.075,0.2313400,0.00,0.00
04/14/2019 11:02:31 am,11.100,0.2313400,0.00,0.00
04/14/2019 11:02:31 am,11.125,0.2313400,0.00,0.00
04/14/2019 11:02:31 am,11.150,0.2313400,0.00,0.00
04/14/2019 11:02:31 am,11.175,0.2313400,0.00,0.00
04/14/2019 11:02:31 am,11.200,0.2313400,0.00,0.00
04/14/2019 11:02:31 am,11.225,0.2313400,0.00,0.00
04/14/2019 11:02:31 am,11.250,0.2313400,0.00,0.00
04/14/2019 11:02:31 am,11.275,0.2313400,0.00,0.00
04/14/2019 11:02:31 am,11.300,0.2313400,0.00,0.00
04/14/2019 11:02:31 am,11.325,0.2313400,0.00,0.00
04/14/2019 11:02:31 am,11.350,0.2313400,0.00,0.00
04/14/2019 11:02:31 am,11.375,0.2313400,0.00,0.00
04/14/2019 11:02:31 am,11.400,0.2313400,0.00,0.00
04/14/2019 11:02:31 am,11.425,0.2313400,0.00,0.00
04/14/2019 11:02:31 am,11.450,0.2313400,0.00,0.00
04/14/2019 11:02:31 am,11.475,0.2313400,0.00,0.00
04/14/2019 11:02:31 am,11.500,0.2313400,0.00,0.00
04/14/2019 11:02:31 am,11.525,0.2313400,0.00,0.00
04/14/2019 11:02:31 am,11.550,0.2313400,0.00,0.00
04/14/2019 11:02:31 am,11.575,0.2313400,0.00,0.00
04/14/2019 11:02:31 am,11.600,0.2313400,0.00,0.00
04/14/2019 11:02:31 am,11.625,0.2313400,0.00,0.00
04/14/2019 11:02:31 am,11.650,0.2313400,0.00,0.00
04/14/2019 11:02:31 am,11.675,0.2313400,0.00,0.00
04/14/2019 11:02:31 am,11.700,0.2313400,0.00,0.00
04/14/2019 11:02:31 am,11.725,0.2313400,0.00,0.00
04/14/2019 11:02:31 am,11.750,0.2313400,0.00,0.00
04/14/2019 11:02:31 am,11.775,0.2313400,0.00,0.00
04/14/2019 11:02:31 am,11.800,0.2313400,0.00,0.00
04/14/2019 11:02:31 am,11.825,0.2313400,0.00,0.00
04/14/2019 11:02:31 am,11.850,0.2313400,0.00,0.00
04/14/2019 11:02:31 am,11.875,0.2313400,0.00,0.00
04/14/2019 11:02:31 am,11.900,0.2313400,0.00,0.00
04/14/2019 11:02:31 am,11.925,0.2313400,0.00,0.00
04/14/2019 11:02:31 am,11.950,0.2313400,0.00,-2.06E-4
04/14/2019 11:02:31 am,11.975,0.2313400,0.00,0.01
04/14/2019 11:02:32 am,12.000,0.2313400,-3.08E-5,0.02
04/14/2019 11:02:32 am,12.025,0.2313400,0.00,0.03
04/14/2019 11:02:32 am,12.050,0.2313354,0.00,0.02
04/14/2019 11:02:32 am,12.075,0.2315120,0.00,-0.01
04/14/2019 11:02:32 am,12.100,0.2315120,0.00,-0.03
04/14/2019 11:02:32 am,12.125,0.2315120,0.00,-0.02
04/14/2019 11:02:32 am,12.150,0.2315120,0.00,-0.01
04/14/2019 11:02:32 am,12.175,0.2315120,0.00,0.00
04/14/2019 11:02:32 am,12.200,0.2315120,0.00,0.00
04/14/2019 11:02:32 am,12.225,0.2315120,0.00,0.00
04/14/2019 11:02:32 am,12.250,0.2315120,0.00,0.00
04/14/2019 11:02:32 am,12.275,0.2315120,0.00,0.00
04/14/2019 11:02:32 am,12.300,0.2315120,0.00,0.00
04/14/2019 11:02:32 am,12.325,0.2315120,0.00,0.00
04/14/2019 11:02:32 am,12.350,0.2315120,0.00,0.00
04/14/2019 11:02:32 am,12.375,0.2315120,0.00,0.00
04/14/2019 11:02:32 am,12.400,0.2315120,0.00,0.00
04/14/2019 11:02:32 am,12.425,0.2315120,0.00,0.00
04/14/2019 11:02:32 am,12.450,0.2315120,0.00,0.00
04/14/2019 11:02:32 am,12.475,0.2315120,0.00,0.00
04/14/2019 11:02:32 am,12.500,0.2315120,0.00,0.00
04/14/2019 11:02:32 am,12.525,0.2315120,0.00,0.00
04/14/2019 11:02:32 am,12.550,0.2315120,0.00,0.00
04/14/2019 11:02:32 am,12.575,0.2315120,0.00,0.00
04/14/2019 11:02:32 am,12.600,0.2315120,0.00,0.00
04/14/2019 11:02:32 am,12.625,0.2315120,0.00,0.00
04/14/2019 11:02:32 am,12.650,0.2315120,0.00,0.00
04/14/2019 11:02:32 am,12.675,0.2315120,0.00,0.00
04/14/2019 11:02:32 am,12.700,0.2315120,0.00,0.00
04/14/2019 11:02:32 am,12.725,0.2315120,0.00,0.00
04/14/2019 11:02:32 am,12.750,0.2315120,0.00,2.06E-4
04/14/2019 11:02:32 am,12.775,0.2315120,0.00,-0.01
04/14/2019 11:02:32 am,12.800,0.2315120,3.09E-5,-0.02
04/14/2019 11:02:32 am,12.825,0.2315120,0.00,-0.03
04/14/2019 11:02:32 am,12.850,0.2315166,0.00,-0.02
04/14/2019 11:02:32 am,12.875,0.2313400,0.00,0.01
04/14/2019 11:02:32 am,12.900,0.2313400,0.00,0.03
04/14/2019 11:02:32 am,12.925,0.2313400,0.00,0.02
04/14/2019 11:02:32 am,12.950,0.2313400,0.00,0.01
04/14/2019 11:02:32 am,12.975,0.2313400,0.00,0.00
04/14/2019 11:02:33 am,13.000,0.2313400,0.00,0.00
04/14/2019 11:02:33 am,13.025,0.2313400,0.00,0.00
04/14/2019 11:02:33 am,13.050,0.2313400,0.00,0.00
04/14/2019 11:02:33 am,13.075,0.2313400,0.00,-2.06E-4
04/14/2019 11:02:33 am,13.100,0.2313400,0.00,0.01
04/14/2019 11:02:33 am,13.125,0.2313400,-3.08E-5,0.02
04/14/2019 11:02:33 am,13.150,0.2313400,0.00,0.01
04/14/2019 11:02:33 am,13.175,0.2313354,0.00,-0.01
04/14/2019 11:02:33 am,13.200,0.2315166,3.08E-5,-0.03
04/14/2019 11:02:33 am,13.225,0.2313400,0.00,-0.02
04/14/2019 11:02:33 am,13.250,0.2313400,0.00,0.01
04/14/2019 11:02:33 am,13.275,0.2313400,0.00,0.02
04/14/2019 11:02:33 am,13.300,0.2313400,0.00,0.01
04/14/2019 11:02:33 am,13.325,0.2313400,0.00,0.01
04/14/2019 11:02:33 am,13.350,0.2313400,-3.08E-5,0.02
04/14/2019 11:02:33 am,13.375,0.2313400,0.00,0.03
04/14/2019 11:02:33 am,13.400,0.2313354,0.00,0.02
04/14/2019 11:02:33 am,13.425,0.2315120,0.00,-0.01
04/14/2019 11:02:33 am,13.450,0.2315120,0.00,-0.03
04/14/2019 11:02:33 am,13.475,0.2315120,0.00,-0.02
04/14/2019 11:02:33 am,13.500,0.2315120,0.00,-0.01
04/14/2019 11:02:33 am,13.525,0.2315120,0.00,0.00
04/14/2019 11:02:33 am,13.550,0.2315120,0.00,0.00
04/14/2019 11:02:33 am,13.575,0.2315120,0.00,0.00
04/14/2019 11:02:33 am,13.600,0.2315120,0.00,0.00
04/14/2019 11:02:33 am,13.625,0.2315120,0.00,0.00
04/14/2019 11:02:33 am,13.650,0.2315120,0.00,0.00
04/14/2019 11:02:33 am,13.675,0.2315120,0.00,0.00
04/14/2019 11:02:33 am,13.700,0.2315120,0.00,0.00
04/14/2019 11:02:33 am,13.725,0.2315120,0.00,0.00
04/14/2019 11:02:33 am,13.750,0.2315120,0.00,0.00
04/14/2019 11:02:33 am,13.775,0.2315120,0.00,0.00
04/14/2019 11:02:33 am,13.800,0.2315120,0.00,0.00
04/14/2019 11:02:33 am,13.825,0.2315120,0.00,0.00
04/14/2019 11:02:33 am,13.850,0.2315120,0.00,0.00
04/14/2019 11:02:33 am,13.875,0.2315120,0.00,0.00
04/14/2019 11:02:33 am,13.900,0.2315120,0.00,0.00
04/14/2019 11:02:33 am,13.925,0.2315120,0.00,0.00
04/14/2019 11:02:33 am,13.950,0.2315120,0.00,0.00
04/14/2019 11:02:33 am,13.975,0.2315120,0.00,0.00
04/14/2019 11:02:34 am,14.000,0.2315120,0.00,0.00
04/14/2019 11:02:34 am,14.025,0.2315120,0.00,0.00
04/14/2019 11:02:34 am,14.050,0.2315120,0.00,0.00
04/14/2019 11:02:34 am,14.075,0.2315120,0.00,0.00
04/14/2019 11:02:34 am,14.100,0.2315120,0.00,0.00
04/14/2019 11:02:34 am,14.125,0.2315120,0.00,0.00
04/14/2019 11:02:34 am,14.150,0.2315120,0.00,0.00
04/14/2019 11:02:34 am,14.175,0.2315120,0.00,0.00
04/14/2019 11:02:34 am,14.200,0.2315120,0.00,0.00
04/14/2019 11:02:34 am,14.225,0.2315120,0.00,0.00
04/14/2019 11:02:34 am,14.250,0.2315120,0.00,0.00
04/14/2019 11:02:34 am,14.275,0.2315120,0.00,0.00
04/14/2019 11:02:34 am,14.300,0.2315120,0.00,0.00
04/14/2019 11:02:34 am,14.325,0.2315120,0.00,0.00
04/14/2019 11:02:34 am,14.350,0.2315120,0.00,0.00
04/14/2019 11:02:34 am,14.375,0.2315120,0.00,0.00
04/14/2019 11:02:34 am,14.400,0.2315120,0.00,0.00
04/14/2019 11:02:34 am,14.425,0.2315120,0.00,0.00
04/14/2019 11:02:34 am,14.450,0.2315120,0.00,0.00
04/14/2019 11:02:34 am,14.475,0.2315120,0.00,0.00
04/14/2019 11:02:34 am,14.500,0.2315120,0.00,0.00
04/14/2019 11:02:34 am,14.525,0.2315120,0.00,0.00
04/14/2019 11:02:34 am,14.550,0.2315120,0.00,0.00
04/14/2019 11:02:34 am,14.575,0.2315120,0.00,0.00
04/14/2019 11:02:34 am,14.600,0.2315120,0.00,0.00
04/14/2019 11:02:34 am,14.625,0.2315120,0.00,0.00
04/14/2019 11:02:34 am,14.650,0.2315120,0.00,0.00
04/14/2019 11:02:34 am,14.675,0.2315120,0.00,0.00
04/14/2019 11:02:34 am,14.700,0.2315120,0.00,0.00
04/14/2019 11:02:34 am,14.725,0.2315120,0.00,0.00
04/14/2019 11:02:34 am,14.750,0.2315120,0.00,0.00
04/14/2019 11:02:34 am,14.775,0.2315120,0.00,0.00
04/14/2019 11:02:34 am,14.800,0.2315120,0.00,0.00
04/14/2019 11:02:34 am,14.825,0.2315120,0.00,0.00
04/14/2019 11:02:34 am,14.850,0.2315120,0.00,0.00
04/14/2019 11:02:34 am,14.875,0.2315120,0.00,0.00
04/14/2019 11:02:34 am,14.900,0.2315120,0.00,0.00
04/14/2019 11:02:34 am,14.925,0.2315120,0.00,0.00
04/14/2019 11:02:34 am,14.950,0.2315120,0.00,0.00
04/14/2019 11:02:34 am,14.975,0.2315120,0.00,0.00
04/14/2019 11:02:35 am,15.000,0.2315120,0.00,0.00
04/14/2019 11:02:35 am,15.025,0.2315120,0.00,-2.06E-4
04/14/2019 11:02:35 am,15.050,0.2315120,0.00,0.01
04/14/2019 11:02:35 am,15.075,0.2315120,-3.09E-5,0.02
04/14/2019 11:02:35 am,15.100,0.2315120,0.00,0.03
04/14/2019 11:02:35 am,15.125,0.2315074,0.00,0.02
04/14/2019 11:02:35 am,15.150,0.2316840,0.00,-0.01
04/14/2019 11:02:35 am,15.175,0.2316840,0.00,-0.03
04/14/2019 11:02:35 am,15.200,0.2316840,0.00,-0.02
04/14/2019 11:02:35 am,15.225,0.2316840,0.00,-0.01
04/14/2019 11:02:35 am,15.250,0.2316840,0.00,0.00
04/14/2019 11:02:35 am,15.275,0.2316840,0.00,0.00
04/14/2019 11:02:35 am,15.300,0.2316840,0.00,0.00
04/14/2019 11:02:35 am,15.325,0.2316840,0.00,0.00
04/14/2019 11:02:35 am,15.350,0.2316840,0.00,0.00
04/14/2019 11:02:35 am,15.375,0.2316840,0.00,0.00
04/14/2019 11:02:35 am,15.400,0.2316840,0.00,0.00
04/14/2019 11:02:35 am,15.425,0.2316840,0.00,2.06E-4
04/14/2019 11:02:35 am,15.450,0.2316840,0.00,-0.01
04/14/2019 11:02:35 am,15.475,0.2316840,3.09E-5,-0.02
04/14/2019 11:02:35 am,15.500,0.2316840,0.00,-0.02
04/14/2019 11:02:35 am,15.525,0.2316886,0.00,-0.01
04/14/2019 11:02:35 am,15.550,0.2315074,0.00,-6.44E-7
04/14/2019 11:02:35 am,15.575,0.2316886,0.00,-2.06E-4
04/14/2019 11:02:35 am,15.600,0.2315120,0.00,0.01
04/14/2019 11:02:35 am,15.625,0.2315120,0.00,0.02
04/14/2019 11:02:35 am,15.650,0.2315120,0.00,0.02
04/14/2019 11:02:35 am,15.675,0.2315120,0.00,0.01
04/14/2019 11:02:35 am,15.700,0.2315120,0.00,0.00
04/14/2019 11:02:35 am,15.725,0.2315120,0.00,0.00
04/14/2019 11:02:35 am,15.750,0.2315120,0.00,-2.06E-4
04/14/2019 11:02:35 am,15.775,0.2315120,0.00,0.01
04/14/2019 11:02:35 am,15.800,0.2315120,-3.09E-5,0.02
04/14/2019 11:02:35 am,15.825,0.2315120,0.00,0.03
04/14/2019 11:02:35 am,15.850,0.2315074,0.00,0.02
04/14/2019 11:02:35 am,15.875,0.2316840,0.00,-0.01
04/14/2019 11:02:35 am,15.900,0.2316840,0.00,-0.03
04/14/2019 11:02:35 am,15.925,0.2316840,0.00,-0.02
04/14/2019 11:02:35 am,15.950,0.2316840,0.00,-0.01
04/14/2019 11:02:35 am,15.975,0.2316840,0.00,0.00
04/14/2019 11:02:36 am,16.000,0.2316840,0.00,0.00
04/14/2019 11:02:36 am,16.025,0.2316840,0.00,0.00
04/14/2019 11:02:36 am,16.050,0.2316840,0.00,0.00
04/14/2019 11:02:36 am,16.075,0.2316840,0.00,0.00
04/14/2019 11:02:36 am,16.100,0.2316840,0.00,0.00
04/14/2019 11:02:36 am,16.125,0.2316840,0.00,0.00
04/14/2019 11:02:36 am,16.150,0.2316840,0.00,0.00
04/14/2019 11:02:36 am,16.175,0.2316840,0.00,0.00
04/14/2019 11:02:36 am,16.200,0.2316840,0.00,0.00
04/14/2019 11:02:36 am,16.225,0.2316840,0.00,0.00
04/14/2019 11:02:36 am,16.250,0.2316840,0.00,0.00
04/14/2019 11:02:36 am,16.275,0.2316840,0.00,0.00
04/14/2019 11:02:36 am,16.300,0.2316840,0.00,0.00
04/14/2019 11:02:36 am,16.325,0.2316840,0.00,0.00
04/14/2019 11:02:36 am,16.350,0.2316840,0.00,0.00
04/14/2019 11:02:36 am,16.375,0.2316840,0.00,0.00
04/14/2019 11:02:36 am,16.400,0.2316840,0.00,0.00
04/14/2019 11:02:36 am,16.425,0.2316840,0.00,0.00
04/14/2019 11:02:36 am,16.450,0.2316840,0.00,0.00
04/14/2019 11:02:36 am,16.475,0.2316840,0.00,0.00
04/14/2019 11:02:36 am,16.500,0.2316840,0.00,0.00
04/14/2019 11:02:36 am,16.525,0.2316840,0.00,0.00
04/14/2019 11:02:36 am,16.550,0.2316840,0.00,0.00
04/14/2019 11:02:36 am,16.575,0.2316840,0.00,0.00
04/14/2019 11:02:36 am,16.600,0.2316840,0.00,0.00
04/14/2019 11:02:36 am,16.625,0.2316840,0.00,0.00
04/14/2019 11:02:36 am,16.650,0.2316840,0.00,0.00
04/14/2019 11:02:36 am,16.675,0.2316840,0.00,0.00
04/14/2019 11:02:36 am,16.700,0.2316840,0.00,0.00
04/14/2019 11:02:36 am,16.725,0.2316840,0.00,0.00
04/14/2019 11:02:36 am,16.750,0.2316840,0.00,0.00
04/14/2019 11:02:36 am,16.775,0.2316840,0.00,0.00
04/14/2019 11:02:36 am,16.800,0.2316840,0.00,0.00
04/14/2019 11:02:36 am,16.825,0.2316840,0.00,0.00
04/14/2019 11:02:36 am,16.850,0.2316840,0.00,0.00
04/14/2019 11:02:36 am,16.875,0.2316840,0.00,0.00
04/14/2019 11:02:36 am,16.900,0.2316840,0.00,0.00
04/14/2019 11:02:36 am,16.925,0.2316840,0.00,0.00
04/14/2019 11:02:36 am,16.950,0.2316840,0.00,0.00
04/14/2019 11:02:36 am,16.975,0.2316840,0.00,2.06E-4
04/14/2019 11:02:37 am,17.000,0.2316840,0.00,-0.01
04/14/2019 11:02:37 am,17.025,0.2316840,3.09E-5,-0.02
04/14/2019 11:02:37 am,17.050,0.2316840,0.00,-0.03
04/14/2019 11:02:37 am,17.075,0.2316886,0.00,-0.02
04/14/2019 11:02:37 am,17.100,0.2315120,0.00,0.01
04/14/2019 11:02:37 am,17.125,0.2315120,0.00,0.03
04/14/2019 11:02:37 am,17.150,0.2315120,0.00,0.02
04/14/2019 11:02:37 am,17.175,0.2315120,0.00,0.01
04/14/2019 11:02:37 am,17.200,0.2315120,0.00,0.00
04/14/2019 11:02:37 am,17.225,0.2315120,0.00,0.00
04/14/2019 11:02:37 am,17.250,0.2315120,0.00,0.00
04/14/2019 11:02:37 am,17.275,0.2315120,0.00,0.00
04/14/2019 11:02:37 am,17.300,0.2315120,0.00,0.00
04/14/2019 11:02:37 am,17.325,0.2315120,0.00,0.00
04/14/2019 11:02:37 am,17.350,0.2315120,0.00,0.00
04/14/2019 11:02:37 am,17.375,0.2315120,0.00,0.00
04/14/2019 11:02:37 am,17.400,0.2315120,0.00,0.00
04/14/2019 11:02:37 am,17.425,0.2315120,0.00,0.00
04/14/2019 11:02:37 am,17.450,0.2315120,0.00,0.00
04/14/2019 11:02:37 am,17.475,0.2315120,0.00,0.00
04/14/2019 11:02:37 am,17.500,0.2315120,0.00,0.00
04/14/2019 11:02:37 am,17.525,0.2315120,0.00,0.00
04/14/2019 11:02:37 am,17.550,0.2315120,0.00,0.00
04/14/2019 11:02:37 am,17.575,0.2315120,0.00,0.00
04/14/2019 11:02:37 am,17.600,0.2315120,0.00,0.00
04/14/2019 11:02:37 am,17.625,0.2315120,0.00,0.00
04/14/2019 11:02:37 am,17.650,0.2315120,0.00,0.00
04/14/2019 11:02:37 am,17.675,0.2315120,0.00,0.00
04/14/2019 11:02:37 am,17.700,0.2315120,0.00,0.00
04/14/2019 11:02:37 am,17.725,0.2315120,0.00,0.00
04/14/2019 11:02:37 am,17.750,0.2315120,0.00,0.00
04/14/2019 11:02:37 am,17.775,0.2315120,0.00,0.00
04/14/2019 11:02:37 am,17.800,0.2315120,0.00,0.00
04/14/2019 11:02:37 am,17.825,0.2315120,0.00,0.00
04/14/2019 11:02:37 am,17.850,0.2315120,0.00,0.00
04/14/2019 11:02:37 am,17.875,0.2315120,0.00,0.00
04/14/2019 11:02:37 am,17.900,0.2315120,0.00,0.00
04/14/2019 11:02:37 am,17.925,0.2315120,0.00,0.00
04/14/2019 11:02:37 am,17.950,0.2315120,0.00,0.00
04/14/2019 11:02:37 am,17.975,0.2315120,0.00,0.00
04/14/2019 11:02:38 am,18.000,0.2315120,0.00,0.00
04/14/2019 11:02:38 am,18.025,0.2315120,0.00,0.00
04/14/2019 11:02:38 am,18.050,0.2315120,0.00,0.00
04/14/2019 11:02:38 am,18.075,0.2315120,0.00,0.00
04/14/2019 11:02:38 am,18.100,0.2315120,0.00,
04/14/2019 11:02:38 am,18.125,0.2315120,0.00,
04/14/2019 11:02:38 am,18.150,0.2315120,,
