Run #1,Run #1,Run #1,Run #1,Run #1
Date and Time,Time (s),Position (m),Velocity (m/s),Acceleration (m/s²)
04/28/2019 11:31:55 am,0.0000,0.17682,,
04/28/2019 11:31:55 am,0.0250,0.17637,0.09560,
04/28/2019 11:31:55 am,0.0500,0.18160,0.09749,-0.00639
04/28/2019 11:31:55 am,0.0750,0.18297,0.09528,0.03582
04/28/2019 11:31:55 am,0.1000,0.18484,0.08777,0.34360
04/28/2019 11:31:55 am,0.1250,0.18742,0.11069,0.70722
04/28/2019 11:31:55 am,0.1500,0.19032,0.13362,0.86115
04/28/2019 11:31:55 am,0.1750,0.19409,0.15551,0.61356
04/28/2019 11:31:55 am,0.2000,0.19821,0.17212,0.16891
04/28/2019 11:31:55 am,0.2250,0.20285,0.16422,-0.21307
04/28/2019 11:31:55 am,0.2500,0.20738,0.15025,-0.26389
04/28/2019 11:31:55 am,0.2750,0.20956,0.14542,-0.08288
04/28/2019 11:31:55 am,0.3000,0.21404,0.15133,-0.10602
04/28/2019 11:31:55 am,0.3250,0.21800,0.15070,-0.43220
04/28/2019 11:31:55 am,0.3500,0.22163,0.12906,-0.85557
04/28/2019 11:31:55 am,0.3750,0.22457,0.10286,-1.14964
04/28/2019 11:31:55 am,0.4000,0.22683,0.07084,-1.29689
04/28/2019 11:31:55 am,0.4250,0.22823,0.03648,-1.37566
04/28/2019 11:31:55 am,0.4500,0.22860,9.09392E-4,-1.37764
04/28/2019 11:31:55 am,0.4750,0.22828,-0.03356,-1.31785
04/28/2019 11:31:55 am,0.5000,0.22692,-0.06577,-1.21895
04/28/2019 11:31:55 am,0.5250,0.22488,-0.09452,-1.11266
04/28/2019 11:31:55 am,0.5500,0.22214,-0.12097,-0.98647
04/28/2019 11:31:55 am,0.5750,0.21889,-0.14525,-0.70701
04/28/2019 11:31:55 am,0.6000,0.21476,-0.16300,-0.27600
04/28/2019 11:31:55 am,0.6250,0.21046,-0.15854,0.05322
04/28/2019 11:31:55 am,0.6500,0.20611,-0.14909,0.05759
04/28/2019 11:31:55 am,0.6750,0.20376,-0.15119,-0.11655
04/28/2019 11:31:55 am,0.7000,0.19910,-0.16172,-0.03199
04/28/2019 11:31:55 am,0.7250,0.19479,-0.16339,0.37263
04/28/2019 11:31:55 am,0.7500,0.19082,-0.14168,0.82077
04/28/2019 11:31:55 am,0.7750,0.18753,-0.11533,1.07668
04/28/2019 11:31:55 am,0.8000,0.18511,-0.08666,1.17608
04/28/2019 11:31:55 am,0.8250,0.18320,-0.05691,1.26802
04/28/2019 11:31:55 am,0.8500,0.18215,-0.02369,1.33812
04/28/2019 11:31:55 am,0.8750,0.18196,0.01190,1.33176
04/28/2019 11:31:55 am,0.9000,0.18280,0.04525,1.24752
04/28/2019 11:31:55 am,0.9250,0.18434,0.07392,1.15506
04/28/2019 11:31:55 am,0.9500,0.18656,0.10142,1.08698
04/28/2019 11:31:55 am,0.9750,0.18929,0.12899,0.98472
04/28/2019 11:31:56 am,1.0000,0.19306,0.15322,0.67544
04/28/2019 11:31:56 am,1.0250,0.19718,0.16982,0.19175
04/28/2019 11:31:56 am,1.0500,0.20165,0.16190,-0.19052
04/28/2019 11:31:56 am,1.0750,0.20617,0.14907,-0.22606
04/28/2019 11:31:56 am,1.1000,0.20836,0.14539,-0.02982
04/28/2019 11:31:56 am,1.1250,0.21284,0.15242,-0.03752
04/28/2019 11:31:56 am,1.1500,0.21680,0.15408,-0.35567
04/28/2019 11:31:56 am,1.1750,0.22060,0.13476,-0.78645
04/28/2019 11:31:56 am,1.2000,0.22371,0.10971,-1.09593
04/28/2019 11:31:56 am,1.2250,0.22614,0.07883,-1.25077
04/28/2019 11:31:56 am,1.2500,0.22771,0.04562,-1.33674
04/28/2019 11:31:56 am,1.2750,0.22842,0.01123,-1.36145
04/28/2019 11:31:56 am,1.3000,0.22827,-0.02320,-1.33263
04/28/2019 11:31:56 am,1.3250,0.22726,-0.05656,-1.24964
04/28/2019 11:31:56 am,1.3500,0.22539,-0.08648,-1.13556
04/28/2019 11:31:56 am,1.3750,0.22282,-0.11294,-1.00883
04/28/2019 11:31:56 am,1.4000,0.21974,-0.13716,-0.75253
04/28/2019 11:31:56 am,1.4250,0.21597,-0.15721,-0.33760
04/28/2019 11:31:56 am,1.4500,0.21167,-0.15509,0.00690
04/28/2019 11:31:56 am,1.4750,0.20731,-0.14565,0.02767
04/28/2019 11:31:56 am,1.5000,0.20513,-0.14769,-0.17638
04/28/2019 11:31:56 am,1.5250,0.20066,-0.16046,-0.15393
04/28/2019 11:31:56 am,1.5500,0.19617,-0.16673,0.22618
04/28/2019 11:31:56 am,1.5750,0.19220,-0.14969,0.71959
04/28/2019 11:31:56 am,1.6000,0.18857,-0.12454,1.05306
04/28/2019 11:31:56 am,1.6250,0.18580,-0.09472,1.18443
04/28/2019 11:31:56 am,1.6500,0.18389,-0.06374,1.24585
04/28/2019 11:31:56 am,1.6750,0.18267,-0.03282,1.28439
04/28/2019 11:31:56 am,1.7000,0.18214,4.37286E-4,1.29283
04/28/2019 11:31:56 am,1.7250,0.18263,0.03376,1.24730
04/28/2019 11:31:56 am,1.7500,0.18400,0.06361,1.17044
04/28/2019 11:31:56 am,1.7750,0.18588,0.09111,1.10198
04/28/2019 11:31:56 am,1.8000,0.18844,0.11865,1.01224
04/28/2019 11:31:56 am,1.8250,0.19186,0.14401,0.83300
04/28/2019 11:31:56 am,1.8500,0.19581,0.16254,0.47626
04/28/2019 11:31:56 am,1.8750,0.20010,0.17217,0.02247
04/28/2019 11:31:56 am,1.9000,0.20458,0.16193,-0.29769
04/28/2019 11:31:56 am,1.9250,0.20892,0.14799,-0.31658
04/28/2019 11:31:56 am,1.9500,0.21128,0.14207,-0.16633
04/28/2019 11:31:56 am,1.9750,0.21560,0.14454,-0.21331
04/28/2019 11:31:57 am,2.0000,0.21921,0.14043,-0.52460
04/28/2019 11:31:57 am,2.0250,0.22267,0.11764,-0.91732
04/28/2019 11:31:57 am,2.0500,0.22527,0.09029,-1.18836
04/28/2019 11:31:57 am,2.0750,0.22718,0.05708,-1.32056
04/28/2019 11:31:57 am,2.1000,0.22824,0.02272,-1.37641
04/28/2019 11:31:57 am,2.1250,0.22826,-0.01288,-1.35526
04/28/2019 11:31:57 am,2.1500,0.22760,-0.04621,-1.28013
04/28/2019 11:31:57 am,2.1750,0.22589,-0.07727,-1.16608
04/28/2019 11:31:57 am,2.2000,0.22368,-0.10491,-1.03903
04/28/2019 11:31:57 am,2.2250,0.22059,-0.12910,-0.79732
04/28/2019 11:31:57 am,2.2500,0.21717,-0.15024,-0.42885
04/28/2019 11:31:57 am,2.2750,0.21304,-0.15154,-0.10878
04/28/2019 11:31:57 am,2.3000,0.20869,-0.14679,-0.05033
04/28/2019 11:31:57 am,2.3250,0.20634,-0.14886,-0.19196
04/28/2019 11:31:57 am,2.3500,0.20186,-0.16046,-0.16042
04/28/2019 11:31:57 am,2.3750,0.19755,-0.16666,0.16597
04/28/2019 11:31:57 am,2.4000,0.19341,-0.15306,0.61247
04/28/2019 11:31:57 am,2.4250,0.18978,-0.13137,0.94513
04/28/2019 11:31:57 am,2.4500,0.18666,-0.10388,1.11481
04/28/2019 11:31:57 am,2.4750,0.18459,-0.07407,1.21468
04/28/2019 11:31:57 am,2.5000,0.18302,-0.04314,1.28400
04/28/2019 11:31:57 am,2.5250,0.18232,-0.00991,1.31554
04/28/2019 11:31:57 am,2.5500,0.18247,0.02456,1.28561
04/28/2019 11:31:57 am,2.5750,0.18366,0.05556,1.20888
04/28/2019 11:31:57 am,2.6000,0.18536,0.08423,1.13259
04/28/2019 11:31:57 am,2.6250,0.18775,0.11175,1.04247
04/28/2019 11:31:57 am,2.6500,0.19101,0.13826,0.87847
04/28/2019 11:31:57 am,2.6750,0.19478,0.15791,0.53751
04/28/2019 11:31:57 am,2.7000,0.19908,0.16985,0.07605
04/28/2019 11:31:57 am,2.7250,0.20337,0.16079,-0.25191
04/28/2019 11:31:57 am,2.7500,0.20789,0.14678,-0.27113
04/28/2019 11:31:57 am,2.7750,0.21008,0.14319,-0.10544
04/28/2019 11:31:57 am,2.8000,0.21439,0.14678,-0.14442
04/28/2019 11:31:57 am,2.8250,0.21836,0.14498,-0.46353
04/28/2019 11:31:57 am,2.8500,0.22163,0.12333,-0.85599
04/28/2019 11:31:57 am,2.8750,0.22458,0.09710,-1.13461
04/28/2019 11:31:57 am,2.9000,0.22666,0.06625,-1.27402
04/28/2019 11:31:57 am,2.9250,0.22789,0.03187,-1.35258
04/28/2019 11:31:57 am,2.9500,0.22826,-0.00253,-1.36239
04/28/2019 11:31:57 am,2.9750,0.22776,-0.03700,-1.30298
04/28/2019 11:31:58 am,3.0000,0.22641,-0.06924,-1.18916
04/28/2019 11:31:58 am,3.0250,0.22419,-0.09687,-1.05391
04/28/2019 11:31:58 am,3.0500,0.22145,-0.12103,-0.82734
04/28/2019 11:31:58 am,3.0750,0.21820,-0.14329,-0.48222
04/28/2019 11:31:58 am,3.1000,0.21425,-0.14692,-0.17001
04/28/2019 11:31:58 am,3.1250,0.20989,-0.14332,-0.11120
04/28/2019 11:31:58 am,3.1500,0.20771,-0.14651,-0.26796
04/28/2019 11:31:58 am,3.1750,0.20323,-0.16038,-0.25995
04/28/2019 11:31:58 am,3.2000,0.19893,-0.17005,0.06573
04/28/2019 11:31:58 am,3.2250,0.19462,-0.15877,0.54287
04/28/2019 11:31:58 am,3.2500,0.19082,-0.13826,0.90671
04/28/2019 11:31:58 am,3.2750,0.18753,-0.11074,1.08444
04/28/2019 11:31:58 am,3.3000,0.18528,-0.08207,1.17653
04/28/2019 11:31:58 am,3.3250,0.18355,-0.05229,1.24521
04/28/2019 11:31:58 am,3.3500,0.18249,-0.02023,1.30734
04/28/2019 11:31:58 am,3.3750,0.18247,0.01419,1.30864
04/28/2019 11:31:58 am,3.4000,0.18332,0.04754,1.23256
04/28/2019 11:31:58 am,3.4250,0.18485,0.07624,1.12516
04/28/2019 11:31:58 am,3.4500,0.18725,0.10261,1.02603
04/28/2019 11:31:58 am,3.4750,0.18998,0.12789,0.91530
04/28/2019 11:31:58 am,3.5000,0.19358,0.14979,0.63643
04/28/2019 11:31:58 am,3.5250,0.19770,0.16636,0.19145
04/28/2019 11:31:58 am,3.5500,0.20199,0.15961,-0.17487
04/28/2019 11:31:58 am,3.5750,0.20652,0.14678,-0.22552
04/28/2019 11:31:58 am,3.6000,0.20870,0.14313,-0.05256
04/28/2019 11:31:58 am,3.6250,0.21301,0.14901,-0.06827
04/28/2019 11:31:58 am,3.6500,0.21697,0.14950,-0.37917
04/28/2019 11:31:58 am,3.6750,0.22060,0.13018,-0.78706
04/28/2019 11:31:58 am,3.7000,0.22354,0.10509,-1.07324
04/28/2019 11:31:58 am,3.7250,0.22597,0.07536,-1.22004
04/28/2019 11:31:58 am,3.7500,0.22737,0.04333,-1.31345
04/28/2019 11:31:58 am,3.7750,0.22808,0.00893,-1.35363
04/28/2019 11:31:58 am,3.8000,0.22793,-0.02550,-1.33285
04/28/2019 11:31:58 am,3.8250,0.22675,-0.05886,-1.24259
04/28/2019 11:31:58 am,3.8500,0.22487,-0.08881,-1.10556
04/28/2019 11:31:58 am,3.8750,0.22231,-0.11415,-0.95509
04/28/2019 11:31:58 am,3.9000,0.21905,-0.13604,-0.70564
04/28/2019 11:31:58 am,3.9250,0.21545,-0.15489,-0.32949
04/28/2019 11:31:58 am,3.9500,0.21133,-0.15392,-0.00145
04/28/2019 11:31:58 am,3.9750,0.20680,-0.14570,0.04985
04/28/2019 11:31:59 am,4.0000,0.20461,-0.14545,-0.12250
04/28/2019 11:31:59 am,4.0250,0.20031,-0.15587,-0.11475
04/28/2019 11:31:59 am,4.0500,0.19600,-0.16212,0.22656
04/28/2019 11:31:59 am,4.0750,0.19203,-0.14625,0.70410
04/28/2019 11:31:59 am,4.1000,0.18857,-0.12109,1.04520
04/28/2019 11:31:59 am,4.1250,0.18580,-0.09128,1.18456
04/28/2019 11:31:59 am,4.1500,0.18407,-0.06030,1.23833
04/28/2019 11:31:59 am,4.1750,0.18284,-0.02935,1.26907
04/28/2019 11:31:59 am,4.2000,0.18248,0.00273,1.27736
04/28/2019 11:31:59 am,4.2250,0.18298,0.03605,1.23947
04/28/2019 11:31:59 am,4.2500,0.18434,0.06590,1.17041
04/28/2019 11:31:59 am,4.2750,0.18639,0.09340,1.10214
04/28/2019 11:31:59 am,4.3000,0.18895,0.12094,1.00495
04/28/2019 11:31:59 am,4.3250,0.19238,0.14633,0.81064
04/28/2019 11:31:59 am,4.3500,0.19650,0.16371,0.43083
04/28/2019 11:31:59 am,4.3750,0.20080,0.17222,-0.03859
04/28/2019 11:31:59 am,4.4000,0.20509,0.15967,-0.35895
04/28/2019 11:31:59 am,4.4250,0.20962,0.14458,-0.37042
04/28/2019 11:31:59 am,4.4500,0.21163,0.13751,-0.20472
04/28/2019 11:31:59 am,4.4750,0.21595,0.13882,-0.24405
04/28/2019 11:31:59 am,4.5000,0.21939,0.13473,-0.54794
04/28/2019 11:31:59 am,4.5250,0.22268,0.11076,-0.92560
04/28/2019 11:31:59 am,4.5500,0.22510,0.08338,-1.17393
04/28/2019 11:31:59 am,4.5750,0.22685,0.05132,-1.27516
04/28/2019 11:31:59 am,4.6000,0.22773,0.01808,-1.31531
04/28/2019 11:31:59 am,4.6250,0.22775,-0.01521,-1.29372
04/28/2019 11:31:59 am,4.6500,0.22691,-0.04739,-1.23346
04/28/2019 11:31:59 am,4.6750,0.22538,-0.07728,-1.15283
04/28/2019 11:31:59 am,4.7000,0.22299,-0.10488,-0.94245
04/28/2019 11:31:59 am,4.7250,0.22008,-0.13064,-0.58173
04/28/2019 11:31:59 am,4.7500,0.21648,-0.13539,-0.26874
04/28/2019 11:31:59 am,4.7750,0.21229,-0.13403,-0.24049
04/28/2019 11:31:59 am,4.8000,0.21047,-0.14180,-0.42887
04/28/2019 11:31:59 am,4.8250,0.20599,-0.16030,-0.41335
04/28/2019 11:31:59 am,4.8500,0.20151,-0.17344,-0.07950
04/28/2019 11:31:59 am,4.8750,0.19720,-0.16439,0.38196
04/28/2019 11:31:59 am,4.9000,0.19324,-0.14964,0.75255
04/28/2019 11:31:59 am,4.9250,0.18961,-0.12681,0.98385
04/28/2019 11:31:59 am,4.9500,0.18666,-0.09814,1.13073
04/28/2019 11:31:59 am,4.9750,0.18476,-0.06831,1.19968
04/28/2019 11:32:00 am,5.0000,0.18337,-0.03853,1.25321
04/28/2019 11:32:00 am,5.0250,0.18266,-0.00647,1.29240
04/28/2019 11:32:00 am,5.0500,0.18298,0.02800,1.27046
04/28/2019 11:32:00 am,5.0750,0.18417,0.05902,1.18627
04/28/2019 11:32:00 am,5.1000,0.18605,0.08655,1.09437
04/28/2019 11:32:00 am,5.1250,0.18844,0.11292,1.00412
04/28/2019 11:32:00 am,5.1500,0.19170,0.13825,0.84815
04/28/2019 11:32:00 am,5.1750,0.19547,0.15793,0.49972
04/28/2019 11:32:00 am,5.2000,0.19976,0.16876,0.02279
04/28/2019 11:32:00 am,5.2250,0.20406,0.15738,-0.31336
04/28/2019 11:32:00 am,5.2500,0.20841,0.14223,-0.31752
04/28/2019 11:32:00 am,5.2750,0.21042,0.13746,-0.12873
04/28/2019 11:32:00 am,5.3000,0.21474,0.14105,-0.15245
04/28/2019 11:32:00 am,5.3250,0.21836,0.13925,-0.45611
04/28/2019 11:32:00 am,5.3500,0.22164,0.11757,-0.84095
04/28/2019 11:32:00 am,5.3750,0.22441,0.09252,-1.11174
04/28/2019 11:32:00 am,5.4000,0.22632,0.06164,-1.25115
04/28/2019 11:32:00 am,5.4250,0.22755,0.02842,-1.33009
04/28/2019 11:32:00 am,5.4500,0.22774,-0.00600,-1.32460
04/28/2019 11:32:00 am,5.4750,0.22725,-0.03936,-1.24947
04/28/2019 11:32:00 am,5.5000,0.22572,-0.06927,-1.13483
04/28/2019 11:32:00 am,5.5250,0.22367,-0.09573,-1.03034
04/28/2019 11:32:00 am,5.5500,0.22093,-0.11986,-0.82767
04/28/2019 11:32:00 am,5.5750,0.21768,-0.14332,-0.46765
04/28/2019 11:32:00 am,5.6000,0.21373,-0.14583,-0.12430
04/28/2019 11:32:00 am,5.6250,0.20937,-0.13991,-0.05708
04/28/2019 11:32:00 am,5.6500,0.20736,-0.14192,-0.23696
04/28/2019 11:32:00 am,5.6750,0.20306,-0.15579,-0.24463
04/28/2019 11:32:00 am,5.7000,0.19876,-0.16548,0.08119
04/28/2019 11:32:00 am,5.7250,0.19461,-0.15304,0.55084
04/28/2019 11:32:00 am,5.7500,0.19099,-0.13250,0.89921
04/28/2019 11:32:00 am,5.7750,0.18787,-0.10615,1.06909
04/28/2019 11:32:00 am,5.8000,0.18562,-0.07749,1.16150
04/28/2019 11:32:00 am,5.8250,0.18406,-0.04768,1.21540
04/28/2019 11:32:00 am,5.8500,0.18318,-0.01674,1.23901
04/28/2019 11:32:00 am,5.8750,0.18316,0.01541,1.21642
04/28/2019 11:32:00 am,5.9000,0.18401,0.04527,1.16246
04/28/2019 11:32:00 am,5.9250,0.18554,0.07277,1.11638
04/28/2019 11:32:00 am,5.9500,0.18759,0.10027,1.07208
04/28/2019 11:32:00 am,5.9750,0.19050,0.12787,0.95455
04/28/2019 11:32:01 am,6.0000,0.19409,0.15098,0.62968
04/28/2019 11:32:01 am,6.0250,0.19822,0.16524,0.14563
04/28/2019 11:32:01 am,6.0500,0.20251,0.15735,-0.22103
04/28/2019 11:32:01 am,6.0750,0.20686,0.14335,-0.25605
04/28/2019 11:32:01 am,6.1000,0.20905,0.13972,-0.08311
04/28/2019 11:32:01 am,6.1250,0.21318,0.14446,-0.09923
04/28/2019 11:32:01 am,6.1500,0.21715,0.14377,-0.39545
04/28/2019 11:32:01 am,6.1750,0.22043,0.12442,-0.76475
04/28/2019 11:32:01 am,6.2000,0.22337,0.10045,-1.02723
04/28/2019 11:32:01 am,6.2250,0.22563,0.07307,-1.18127
04/28/2019 11:32:01 am,6.2500,0.22702,0.04103,-1.29801
04/28/2019 11:32:01 am,6.2750,0.22774,0.00664,-1.34661
04/28/2019 11:32:01 am,6.3000,0.22742,-0.02783,-1.30288
04/28/2019 11:32:01 am,6.3250,0.22623,-0.06007,-1.18906
04/28/2019 11:32:01 am,6.3500,0.22436,-0.08769,-1.05385
04/28/2019 11:32:01 am,6.3750,0.22179,-0.11185,-0.82712
04/28/2019 11:32:01 am,6.4000,0.21870,-0.13412,-0.48929
04/28/2019 11:32:01 am,6.4250,0.21510,-0.13771,-0.19984
04/28/2019 11:32:01 am,6.4500,0.21092,-0.13523,-0.17183
04/28/2019 11:32:01 am,6.4750,0.20891,-0.14072,-0.35214
04/28/2019 11:32:01 am,6.5000,0.20461,-0.15688,-0.34421
04/28/2019 11:32:01 am,6.5250,0.20031,-0.16888,-0.01837
04/28/2019 11:32:01 am,6.5500,0.19599,-0.15870,0.45084
04/28/2019 11:32:01 am,6.5750,0.19220,-0.14166,0.82171
04/28/2019 11:32:01 am,6.6000,0.18892,-0.11648,1.03753
04/28/2019 11:32:01 am,6.6250,0.18614,-0.08784,1.17670
04/28/2019 11:32:01 am,6.6500,0.18458,-0.05689,1.23844
04/28/2019 11:32:01 am,6.6750,0.18336,-0.02474,1.26205
04/28/2019 11:32:01 am,6.7000,0.18317,0.00619,1.23961
04/28/2019 11:32:01 am,6.7250,0.18384,0.03839,1.17833
04/28/2019 11:32:01 am,6.7500,0.18502,0.06592,1.10930
04/28/2019 11:32:01 am,6.7750,0.18726,0.09227,1.04106
04/28/2019 11:32:01 am,6.8000,0.18964,0.11870,0.94607
04/28/2019 11:32:01 am,6.8250,0.19307,0.14177,0.65950
04/28/2019 11:32:01 am,6.8500,0.19702,0.15834,0.20632
04/28/2019 11:32:01 am,6.8750,0.20114,0.15156,-0.14505
04/28/2019 11:32:01 am,6.9000,0.20531,0.13985,-0.16476
04/28/2019 11:32:01 am,6.9250,0.20750,0.13849,0.02398
04/28/2019 11:32:01 am,6.9500,0.21163,0.14669,5.68945E-4
04/28/2019 11:32:01 am,6.9750,0.21560,0.14832,-0.31856
04/28/2019 11:32:02 am,7.0000,0.21923,0.13011,-0.71131
04/28/2019 11:32:02 am,7.0250,0.22216,0.10729,-0.97391
04/28/2019 11:32:02 am,7.0500,0.22459,0.08103,-1.11986
04/28/2019 11:32:02 am,7.0750,0.22633,0.05132,-1.24381
04/28/2019 11:32:02 am,7.1000,0.22721,0.01810,-1.31532
04/28/2019 11:32:02 am,7.1250,0.22723,-0.01636,-1.29471
04/28/2019 11:32:02 am,7.1500,0.22640,-0.04859,-1.19621
04/28/2019 11:32:02 am,7.1750,0.22469,-0.07619,-1.07387
04/28/2019 11:32:02 am,7.2000,0.22247,-0.10150,-0.96188
04/28/2019 11:32:02 am,7.2250,0.21974,-0.12454,-0.74369
04/28/2019 11:32:02 am,7.2500,0.21613,-0.14453,-0.37523
04/28/2019 11:32:02 am,7.2750,0.21235,-0.14471,-0.05482
04/28/2019 11:32:02 am,7.3000,0.20817,-0.13761,-0.01133
04/28/2019 11:32:02 am,7.3250,0.20598,-0.13968,-0.18358
04/28/2019 11:32:02 am,7.3500,0.20185,-0.15126,-0.18320
04/28/2019 11:32:02 am,7.3750,0.19772,-0.15860,0.13500
04/28/2019 11:32:02 am,7.4000,0.19375,-0.14617,0.59659
04/28/2019 11:32:02 am,7.4250,0.19030,-0.12452,0.95269
04/28/2019 11:32:02 am,7.4500,0.18735,-0.09585,1.12320
04/28/2019 11:32:02 am,7.4750,0.18544,-0.06602,1.18518
04/28/2019 11:32:02 am,7.5000,0.18423,-0.03619,1.20034
04/28/2019 11:32:02 am,7.5250,0.18352,-0.00640,1.20816
04/28/2019 11:32:02 am,7.5500,0.18385,0.02458,1.19324
04/28/2019 11:32:02 am,7.5750,0.18486,0.05443,1.14762
04/28/2019 11:32:02 am,7.6000,0.18657,0.08196,1.07931
04/28/2019 11:32:02 am,7.6250,0.18896,0.10836,0.98124
04/28/2019 11:32:02 am,7.6500,0.19204,0.13255,0.82474
04/28/2019 11:32:02 am,7.6750,0.19564,0.15103,0.49924
04/28/2019 11:32:02 am,7.7000,0.19977,0.16301,0.04573
04/28/2019 11:32:02 am,7.7250,0.20389,0.15279,-0.29010
04/28/2019 11:32:02 am,7.7500,0.20825,0.13765,-0.30972
04/28/2019 11:32:02 am,7.7750,0.21008,0.13288,-0.12875
04/28/2019 11:32:02 am,7.8000,0.21422,0.13647,-0.15248
04/28/2019 11:32:02 am,7.8250,0.21785,0.13466,-0.45656
04/28/2019 11:32:02 am,7.8500,0.22095,0.11299,-0.82632
04/28/2019 11:32:02 am,7.8750,0.22355,0.08787,-1.07397
04/28/2019 11:32:02 am,7.9000,0.22546,0.05931,-1.19768
04/28/2019 11:32:02 am,7.9250,0.22651,0.02724,-1.27621
04/28/2019 11:32:02 am,7.9500,0.22689,-0.00604,-1.28617
04/28/2019 11:32:02 am,7.9750,0.22622,-0.03821,-1.21885
04/28/2019 11:32:03 am,8.0000,0.22486,-0.06816,-1.10459
04/28/2019 11:32:03 am,8.0250,0.22281,-0.09346,-0.98480
04/28/2019 11:32:03 am,8.0500,0.22007,-0.11648,-0.76623
04/28/2019 11:32:03 am,8.0750,0.21699,-0.13761,-0.41348
04/28/2019 11:32:03 am,8.1000,0.21321,-0.13894,-0.09309
04/28/2019 11:32:03 am,8.1250,0.20903,-0.13302,-0.04924
04/28/2019 11:32:03 am,8.1500,0.20719,-0.13504,-0.23679
04/28/2019 11:32:03 am,8.1750,0.20306,-0.14891,-0.25177
04/28/2019 11:32:03 am,8.2000,0.19892,-0.15857,0.05126
04/28/2019 11:32:03 am,8.2250,0.19495,-0.14725,0.48963
04/28/2019 11:32:03 am,8.2500,0.19150,-0.12901,0.83697
04/28/2019 11:32:03 am,8.2750,0.18839,-0.10503,1.05273
04/28/2019 11:32:03 am,8.3000,0.18614,-0.07525,1.19219
04/28/2019 11:32:03 am,8.3250,0.18457,-0.04310,1.23946
04/28/2019 11:32:03 am,8.3500,0.18404,-0.01211,1.20908
04/28/2019 11:32:03 am,8.3750,0.18402,0.01775,1.15510
04/28/2019 11:32:03 am,8.4000,0.18487,0.04526,1.10881
04/28/2019 11:32:03 am,8.4250,0.18640,0.07279,1.07107
04/28/2019 11:32:03 am,8.4500,0.18845,0.09917,1.00405
04/28/2019 11:32:03 am,8.4750,0.19136,0.12451,0.85530
04/28/2019 11:32:03 am,8.5000,0.19479,0.14416,0.52974
04/28/2019 11:32:03 am,8.5250,0.19874,0.15610,0.07605
04/28/2019 11:32:03 am,8.5500,0.20269,0.14704,-0.25248
04/28/2019 11:32:03 am,8.5750,0.20687,0.13304,-0.24956
04/28/2019 11:32:03 am,8.6000,0.20871,0.12935,-0.03043
04/28/2019 11:32:03 am,8.6250,0.21267,0.13635,-0.01503
04/28/2019 11:32:03 am,8.6500,0.21629,0.13916,-0.31795
04/28/2019 11:32:03 am,8.6750,0.21975,0.12098,-0.73350
04/28/2019 11:32:03 am,8.7000,0.22251,0.09704,-1.02770
04/28/2019 11:32:03 am,8.7250,0.22460,0.06845,-1.16703
04/28/2019 11:32:03 am,8.7500,0.22599,0.03753,-1.24532
04/28/2019 11:32:03 am,8.7750,0.22653,0.00543,-1.26252
04/28/2019 11:32:03 am,8.8000,0.22621,-0.02674,-1.21815
04/28/2019 11:32:03 am,8.8250,0.22520,-0.05666,-1.12724
04/28/2019 11:32:03 am,8.8500,0.22332,-0.08311,-1.01534
04/28/2019 11:32:03 am,8.8750,0.22092,-0.10729,-0.79665
04/28/2019 11:32:03 am,8.9000,0.21802,-0.12841,-0.45100
04/28/2019 11:32:03 am,8.9250,0.21441,-0.13085,-0.16118
04/28/2019 11:32:03 am,8.9500,0.21057,-0.12720,-0.14866
04/28/2019 11:32:03 am,8.9750,0.20874,-0.13268,-0.33682
04/28/2019 11:32:04 am,9.0000,0.20461,-0.14888,-0.32891
04/28/2019 11:32:04 am,9.0250,0.20047,-0.15970,-0.00241
04/28/2019 11:32:04 am,9.0500,0.19651,-0.14952,0.43652
04/28/2019 11:32:04 am,9.0750,0.19288,-0.13240,0.76097
04/28/2019 11:32:04 am,9.1000,0.18977,-0.11069,0.95316
04/28/2019 11:32:04 am,9.1250,0.18735,-0.08438,1.09982
04/28/2019 11:32:04 am,9.1500,0.18543,-0.05457,1.17788
04/28/2019 11:32:04 am,9.1750,0.18456,-0.02355,1.17063
04/28/2019 11:32:04 am,9.2000,0.18437,0.00516,1.13146
04/28/2019 11:32:04 am,9.2250,0.18488,0.03148,1.12322
04/28/2019 11:32:04 am,9.2500,0.18589,0.06011,1.13214
04/28/2019 11:32:04 am,9.2750,0.18776,0.08998,1.07337
04/28/2019 11:32:04 am,9.3000,0.19050,0.11649,0.89892
04/28/2019 11:32:04 am,9.3250,0.19376,0.13611,0.66437
04/28/2019 11:32:04 am,9.3500,0.19737,0.14882,0.33752
04/28/2019 11:32:04 am,9.3750,0.20132,0.15730,-0.05490
04/28/2019 11:32:04 am,9.4000,0.20527,0.14592,-0.32880
04/28/2019 11:32:04 am,9.4250,0.20945,0.13077,-0.32463
04/28/2019 11:32:04 am,9.4500,0.21112,0.12603,-0.15855
04/28/2019 11:32:04 am,9.4750,0.21509,0.12850,-0.21342
04/28/2019 11:32:04 am,9.5000,0.21854,0.12441,-0.52592
04/28/2019 11:32:04 am,9.5250,0.22131,0.10038,-0.87320
04/28/2019 11:32:04 am,9.5500,0.22356,0.07526,-1.08250
04/28/2019 11:32:04 am,9.5750,0.22513,0.04667,-1.17547
04/28/2019 11:32:04 am,9.6000,0.22601,0.01575,-1.23126
04/28/2019 11:32:04 am,9.6250,0.22585,-0.01642,-1.21020
04/28/2019 11:32:04 am,9.6500,0.22519,-0.04633,-1.12695
04/28/2019 11:32:04 am,9.6750,0.22348,-0.07278,-1.02009
04/28/2019 11:32:04 am,9.7000,0.22143,-0.09694,-0.91592
04/28/2019 11:32:04 am,9.7250,0.21870,-0.11883,-0.69753
04/28/2019 11:32:04 am,9.7500,0.21544,-0.13767,-0.33655
04/28/2019 11:32:04 am,9.7750,0.21165,-0.13668,-0.03129
04/28/2019 11:32:04 am,9.8000,0.20783,-0.12958,-0.01096
04/28/2019 11:32:04 am,9.8250,0.20581,-0.13162,-0.19887
04/28/2019 11:32:04 am,9.8500,0.20185,-0.14437,-0.19852
04/28/2019 11:32:04 am,9.8750,0.19789,-0.15171,0.12000
04/28/2019 11:32:04 am,9.9000,0.19409,-0.13926,0.56630
04/28/2019 11:32:04 am,9.9250,0.19081,-0.11873,0.90658
04/28/2019 11:32:04 am,9.9500,0.18804,-0.09241,1.08457
04/28/2019 11:32:04 am,9.9750,0.18613,-0.06258,1.16251
04/28/2019 11:32:05 am,10.0000,0.18491,-0.03273,1.16291
04/28/2019 11:32:05 am,10.0250,0.18455,-0.00403,1.13188
04/28/2019 11:32:05 am,10.0500,0.18471,0.02348,1.10851
04/28/2019 11:32:05 am,10.0750,0.18573,0.05099,1.09349
04/28/2019 11:32:05 am,10.1000,0.18726,0.07852,1.05662
04/28/2019 11:32:05 am,10.1250,0.18965,0.10495,0.95124
04/28/2019 11:32:05 am,10.1500,0.19256,0.12802,0.77112
04/28/2019 11:32:05 am,10.1750,0.19617,0.14418,0.45255
04/28/2019 11:32:05 am,10.2000,0.19994,0.15496,0.03760
04/28/2019 11:32:05 am,10.2250,0.20389,0.14589,-0.27443
04/28/2019 11:32:05 am,10.2500,0.20807,0.13195,-0.30938
04/28/2019 11:32:05 am,10.2750,0.20992,0.12603,-0.14465
04/28/2019 11:32:05 am,10.3000,0.21371,0.12842,-0.14583
04/28/2019 11:32:05 am,10.3250,0.21716,0.12773,-0.41115
04/28/2019 11:32:05 am,10.3500,0.22009,0.10837,-0.76527
04/28/2019 11:32:05 am,10.3750,0.22270,0.08440,-1.01331
04/28/2019 11:32:05 am,10.4000,0.22443,0.05695,-1.12168
04/28/2019 11:32:05 am,10.4250,0.22548,0.02715,-1.18408
04/28/2019 11:32:05 am,10.4500,0.22585,-0.00263,-1.20869
04/28/2019 11:32:05 am,10.4750,0.22535,-0.03363,-1.17997
04/28/2019 11:32:05 am,10.5000,0.22417,-0.06357,-1.08963
04/28/2019 11:32:05 am,10.5250,0.22212,-0.08890,-0.95473
04/28/2019 11:32:05 am,10.5500,0.21955,-0.11080,-0.71246
04/28/2019 11:32:05 am,10.5750,0.21664,-0.12961,-0.36641
04/28/2019 11:32:05 am,10.6000,0.21303,-0.12973,-0.09193
04/28/2019 11:32:05 am,10.6250,0.20919,-0.12493,-0.09493
04/28/2019 11:32:05 am,10.6500,0.20753,-0.12927,-0.29090
04/28/2019 11:32:05 am,10.6750,0.20340,-0.14432,-0.28278
04/28/2019 11:32:05 am,10.7000,0.19944,-0.15398,0.03591
04/28/2019 11:32:05 am,10.7250,0.19564,-0.14263,0.47446
04/28/2019 11:32:05 am,10.7500,0.19219,-0.12557,0.81447
04/28/2019 11:32:05 am,10.7750,0.18925,-0.10157,1.00762
04/28/2019 11:32:05 am,10.8000,0.18699,-0.07288,1.10872
04/28/2019 11:32:05 am,10.8250,0.18560,-0.04417,1.12413
04/28/2019 11:32:05 am,10.8500,0.18490,-0.01665,1.12336
04/28/2019 11:32:05 am,10.8750,0.18471,0.01082,1.14634
04/28/2019 11:32:05 am,10.9000,0.18539,0.04063,1.15505
04/28/2019 11:32:05 am,10.9250,0.18674,0.07050,1.10303
04/28/2019 11:32:05 am,10.9500,0.18897,0.09693,0.97401
04/28/2019 11:32:05 am,10.9750,0.19171,0.11997,0.80079
04/28/2019 11:32:06 am,11.0000,0.19496,0.13726,0.52091
04/28/2019 11:32:06 am,11.0250,0.19874,0.15029,0.12212
04/28/2019 11:32:06 am,11.0500,0.20252,0.14475,-0.21283
04/28/2019 11:32:06 am,11.0750,0.20669,0.13080,-0.27159
04/28/2019 11:32:06 am,11.1000,0.20872,0.12482,-0.09232
04/28/2019 11:32:06 am,11.1250,0.21216,0.12948,-0.04673
04/28/2019 11:32:06 am,11.1500,0.21578,0.13222,-0.30327
04/28/2019 11:32:06 am,11.1750,0.21906,0.11639,-0.69557
04/28/2019 11:32:06 am,11.2000,0.22165,0.09242,-0.98212
04/28/2019 11:32:06 am,11.2250,0.22374,0.06495,-1.11376
04/28/2019 11:32:06 am,11.2500,0.22496,0.03635,-1.18420
04/28/2019 11:32:06 am,11.2750,0.22550,0.00539,-1.20136
04/28/2019 11:32:06 am,11.3000,0.22535,-0.02566,-1.15696
04/28/2019 11:32:06 am,11.3250,0.22416,-0.05325,-1.06544
04/28/2019 11:32:06 am,11.3500,0.22245,-0.07855,-0.97626
04/28/2019 11:32:06 am,11.3750,0.22041,-0.10153,-0.78874
04/28/2019 11:32:06 am,11.4000,0.21732,-0.12382,-0.45114
04/28/2019 11:32:06 am,11.4250,0.21406,-0.12629,-0.15371
04/28/2019 11:32:06 am,11.4500,0.21023,-0.12146,-0.13299
04/28/2019 11:32:06 am,11.4750,0.20856,-0.12695,-0.33627
04/28/2019 11:32:06 am,11.5000,0.20460,-0.14311,-0.35151
04/28/2019 11:32:06 am,11.5250,0.20064,-0.15508,-0.04067
04/28/2019 11:32:06 am,11.5500,0.19667,-0.14605,0.39789
04/28/2019 11:32:06 am,11.5750,0.19323,-0.13011,0.73764
04/28/2019 11:32:06 am,11.6000,0.19011,-0.10840,0.94564
04/28/2019 11:32:06 am,11.6250,0.18769,-0.08208,1.08499
04/28/2019 11:32:06 am,11.6500,0.18595,-0.05223,1.13964
04/28/2019 11:32:06 am,11.6750,0.18508,-0.02353,1.13191
04/28/2019 11:32:06 am,11.7000,0.18489,0.00399,1.11584
04/28/2019 11:32:06 am,11.7250,0.18522,0.03148,1.12372
04/28/2019 11:32:06 am,11.7500,0.18641,0.06014,1.10972
04/28/2019 11:32:06 am,11.7750,0.18828,0.08889,1.02720
04/28/2019 11:32:06 am,11.8000,0.19085,0.11305,0.86770
04/28/2019 11:32:06 am,11.8250,0.19411,0.13265,0.66406
04/28/2019 11:32:06 am,11.8500,0.19754,0.14653,0.35336
04/28/2019 11:32:06 am,11.8750,0.20149,0.15501,-0.06181
04/28/2019 11:32:06 am,11.9000,0.20545,0.14369,-0.36701
04/28/2019 11:32:06 am,11.9250,0.20945,0.12622,-0.36359
04/28/2019 11:32:06 am,11.9500,0.21113,0.12027,-0.16733
04/28/2019 11:32:06 am,11.9750,0.21474,0.12389,-0.17561
04/28/2019 11:32:07 am,12.0000,0.21820,0.12091,-0.47228
04/28/2019 11:32:07 am,12.0250,0.22097,0.09923,-0.82700
04/28/2019 11:32:07 am,12.0500,0.22304,0.07409,-1.05177
04/28/2019 11:32:07 am,12.0750,0.22479,0.04667,-1.15275
04/28/2019 11:32:07 am,12.1000,0.22549,0.01571,-1.20068
04/28/2019 11:32:07 am,12.1250,0.22551,-0.01531,-1.17940
04/28/2019 11:32:07 am,12.1500,0.22467,-0.04404,-1.10359
04/28/2019 11:32:07 am,12.1750,0.22331,-0.07049,-1.01486
04/28/2019 11:32:07 am,12.2000,0.22109,-0.09464,-0.81151
04/28/2019 11:32:07 am,12.2250,0.21852,-0.11693,-0.48100
04/28/2019 11:32:07 am,12.2500,0.21526,-0.11932,-0.21414
04/28/2019 11:32:07 am,12.2750,0.21160,-0.11796,-0.22477
04/28/2019 11:32:07 am,12.3000,0.21011,-0.12574,-0.42867
04/28/2019 11:32:07 am,12.3250,0.20598,-0.14423,-0.42064
04/28/2019 11:32:07 am,12.3500,0.20202,-0.15735,-0.10179
04/28/2019 11:32:07 am,12.3750,0.19806,-0.14944,0.32934
04/28/2019 11:32:07 am,12.4000,0.19443,-0.13580,0.65349
04/28/2019 11:32:07 am,12.4250,0.19115,-0.11638,0.86086
04/28/2019 11:32:07 am,12.4500,0.18856,-0.09238,1.03052
04/28/2019 11:32:07 am,12.4750,0.18647,-0.06373,1.13141
04/28/2019 11:32:07 am,12.5000,0.18525,-0.03388,1.15493
04/28/2019 11:32:07 am,12.5250,0.18490,-0.00518,1.13920
04/28/2019 11:32:07 am,12.5500,0.18505,0.02231,1.13146
04/28/2019 11:32:07 am,12.5750,0.18589,0.05097,1.11710
04/28/2019 11:32:07 am,12.6000,0.18760,0.07969,1.04983
04/28/2019 11:32:07 am,12.6250,0.19000,0.10500,0.90576
04/28/2019 11:32:07 am,12.6500,0.19291,0.12575,0.70987
04/28/2019 11:32:07 am,12.6750,0.19634,0.14077,0.39875
04/28/2019 11:32:07 am,12.7000,0.20012,0.15040,-0.00151
04/28/2019 11:32:07 am,12.7250,0.20390,0.14016,-0.27572
04/28/2019 11:32:07 am,12.7500,0.20791,0.12613,-0.25625
04/28/2019 11:32:07 am,12.7750,0.20958,0.12368,-0.07495
04/28/2019 11:32:07 am,12.8000,0.21336,0.12845,-0.11438
04/28/2019 11:32:07 am,12.8250,0.21699,0.12661,-0.41924
04/28/2019 11:32:07 am,12.8500,0.21975,0.10605,-0.75841
04/28/2019 11:32:07 am,12.8750,0.22218,0.08319,-0.97489
04/28/2019 11:32:07 am,12.9000,0.22409,0.05810,-1.09053
04/28/2019 11:32:07 am,12.9250,0.22514,0.02833,-1.17645
04/28/2019 11:32:07 am,12.9500,0.22551,-0.00266,-1.20144
04/28/2019 11:32:07 am,12.9750,0.22501,-0.03251,-1.15682
04/28/2019 11:32:08 am,13.0000,0.22382,-0.06128,-1.07353
04/28/2019 11:32:08 am,13.0250,0.22195,-0.08658,-0.96962
04/28/2019 11:32:08 am,13.0500,0.21937,-0.10962,-0.74342
04/28/2019 11:32:08 am,13.0750,0.21647,-0.12961,-0.38265
04/28/2019 11:32:08 am,13.1000,0.21286,-0.12976,-0.06973
04/28/2019 11:32:08 am,13.1250,0.20902,-0.12384,-0.04121
04/28/2019 11:32:08 am,13.1500,0.20736,-0.12585,-0.24392
04/28/2019 11:32:08 am,13.1750,0.20339,-0.13970,-0.28169
04/28/2019 11:32:08 am,13.2000,0.19961,-0.15049,-0.00963
04/28/2019 11:32:08 am,13.2250,0.19581,-0.14146,0.41306
04/28/2019 11:32:08 am,13.2500,0.19236,-0.12554,0.76039
04/28/2019 11:32:08 am,13.2750,0.18942,-0.10269,0.97619
04/28/2019 11:32:08 am,13.3000,0.18717,-0.07520,1.11554
04/28/2019 11:32:08 am,13.3250,0.18560,-0.04537,1.17016
04/28/2019 11:32:08 am,13.3500,0.18490,-0.01553,1.16274
04/28/2019 11:32:08 am,13.3750,0.18489,0.01316,1.13188
04/28/2019 11:32:08 am,13.4000,0.18556,0.04068,1.10140
04/28/2019 11:32:08 am,13.4250,0.18692,0.06821,1.05635
04/28/2019 11:32:08 am,13.4500,0.18897,0.09464,0.96588
04/28/2019 11:32:08 am,13.4750,0.19171,0.11765,0.81425
04/28/2019 11:32:08 am,13.5000,0.19497,0.13611,0.61098
04/28/2019 11:32:08 am,13.5250,0.19857,0.14887,0.28447
04/28/2019 11:32:08 am,13.5500,0.20252,0.15507,-0.12342
04/28/2019 11:32:08 am,13.5750,0.20648,0.14137,-0.40534
04/28/2019 11:32:08 am,13.6000,0.21031,0.12510,-0.39377
04/28/2019 11:32:08 am,13.6250,0.21198,0.11804,-0.21301
04/28/2019 11:32:08 am,13.6500,0.21579,0.11933,-0.22965
04/28/2019 11:32:08 am,13.6750,0.21871,0.11518,-0.50300
04/28/2019 11:32:08 am,13.7000,0.22148,0.09351,-0.84975
04/28/2019 11:32:08 am,13.7250,0.22356,0.06841,-1.08241
04/28/2019 11:32:08 am,13.7500,0.22496,0.03864,-1.18379
04/28/2019 11:32:08 am,13.7750,0.22550,0.00769,-1.21662
04/28/2019 11:32:08 am,13.8000,0.22535,-0.02334,-1.17223
04/28/2019 11:32:08 am,13.8250,0.22433,-0.05210,-1.08092
04/28/2019 11:32:08 am,13.8500,0.22263,-0.07740,-0.98186
04/28/2019 11:32:08 am,13.8750,0.22040,-0.10038,-0.87804
04/28/2019 11:32:08 am,13.9000,0.21767,-0.12233,-0.64433
04/28/2019 11:32:08 am,13.9250,0.21423,-0.13888,-0.26749
04/28/2019 11:32:08 am,13.9500,0.21044,-0.13556,0.03050
04/28/2019 11:32:08 am,13.9750,0.20679,-0.12728,0.02732
04/28/2019 11:32:09 am,14.0000,0.20477,-0.12935,-0.16113
04/28/2019 11:32:09 am,14.0250,0.20081,-0.14098,-0.13764
04/28/2019 11:32:09 am,14.0500,0.19702,-0.14602,0.19671
04/28/2019 11:32:09 am,14.0750,0.19340,-0.13126,0.63582
04/28/2019 11:32:09 am,14.1000,0.19029,-0.10957,0.94562
04/28/2019 11:32:09 am,14.1250,0.18786,-0.08206,1.08501
04/28/2019 11:32:09 am,14.1500,0.18612,-0.05338,1.13949
04/28/2019 11:32:09 am,14.1750,0.18525,-0.02470,1.13956
04/28/2019 11:32:09 am,14.2000,0.18489,0.00399,1.12416
04/28/2019 11:32:09 am,14.2250,0.18539,0.03151,1.10113
04/28/2019 11:32:09 am,14.2500,0.18658,0.05904,1.07102
04/28/2019 11:32:09 am,14.2750,0.18828,0.08542,1.01126
04/28/2019 11:32:09 am,14.3000,0.19085,0.11073,0.88357
04/28/2019 11:32:09 am,14.3250,0.19393,0.13150,0.65746
04/28/2019 11:32:09 am,14.3500,0.19754,0.14549,0.29908
04/28/2019 11:32:09 am,14.3750,0.20132,0.14928,-0.08713
04/28/2019 11:32:09 am,14.4000,0.20529,0.13782,-0.29202
04/28/2019 11:32:09 am,14.4250,0.20858,0.12611,-0.22453
04/28/2019 11:32:09 am,14.4500,0.21096,0.12486,-0.08871
04/28/2019 11:32:09 am,14.4750,0.21457,0.12856,-0.18998
04/28/2019 11:32:09 am,14.5000,0.21803,0.12206,-0.52595
04/28/2019 11:32:09 am,14.5250,0.22079,0.10041,-0.87342
04/28/2019 11:32:09 am,14.5500,0.22304,0.07411,-1.07530
04/28/2019 11:32:09 am,14.5750,0.22461,0.04549,-1.15334
04/28/2019 11:32:09 am,14.6000,0.22532,0.01568,-1.17754
04/28/2019 11:32:09 am,14.6250,0.22534,-0.01416,-1.16351
04/28/2019 11:32:09 am,14.6500,0.22467,-0.04286,-1.11123
04/28/2019 11:32:09 am,14.6750,0.22314,-0.07049,-1.02026
04/28/2019 11:32:09 am,14.7000,0.22109,-0.09467,-0.90845
04/28/2019 11:32:09 am,14.7250,0.21835,-0.11539,-0.68200
04/28/2019 11:32:09 am,14.7500,0.21526,-0.13423,-0.32868
04/28/2019 11:32:09 am,14.7750,0.21166,-0.13323,-0.03128
04/28/2019 11:32:09 am,14.8000,0.20765,-0.12613,-0.01079
04/28/2019 11:32:09 am,14.8250,0.20598,-0.12818,-0.20653
04/28/2019 11:32:09 am,14.8500,0.20202,-0.14090,-0.20618
04/28/2019 11:32:09 am,14.8750,0.19806,-0.14944,0.11266
04/28/2019 11:32:09 am,14.9000,0.19443,-0.13580,0.54400
04/28/2019 11:32:09 am,14.9250,0.19115,-0.11638,0.85355
04/28/2019 11:32:09 am,14.9500,0.18856,-0.09236,1.00759
04/28/2019 11:32:09 am,14.9750,0.18647,-0.06485,1.10782
04/28/2019 11:32:10 am,15.0000,0.18526,-0.03619,1.16192
04/28/2019 11:32:10 am,15.0250,0.18472,-0.00638,1.17759
04/28/2019 11:32:10 am,15.0500,0.18488,0.02346,1.16269
04/28/2019 11:32:10 am,15.0750,0.18589,0.05214,1.11725
04/28/2019 11:32:10 am,15.1000,0.18760,0.07969,1.04167
04/28/2019 11:32:10 am,15.1250,0.18982,0.10498,0.92069
04/28/2019 11:32:10 am,15.1500,0.19291,0.12687,0.74059
04/28/2019 11:32:10 am,15.1750,0.19634,0.14306,0.42220
04/28/2019 11:32:10 am,15.2000,0.20012,0.15269,-7.77061E-4
04/28/2019 11:32:10 am,15.2250,0.20407,0.14248,-0.30592
04/28/2019 11:32:10 am,15.2500,0.20808,0.12733,-0.30248
04/28/2019 11:32:10 am,15.2750,0.20975,0.12254,-0.10644
04/28/2019 11:32:10 am,15.3000,0.21354,0.12727,-0.10729
04/28/2019 11:32:10 am,15.3250,0.21699,0.12658,-0.38807
04/28/2019 11:32:10 am,15.3500,0.21993,0.10720,-0.74979
04/28/2019 11:32:10 am,15.3750,0.22235,0.08440,-1.00508
04/28/2019 11:32:10 am,15.4000,0.22426,0.05698,-1.13699
04/28/2019 11:32:10 am,15.4250,0.22532,0.02603,-1.20038
04/28/2019 11:32:10 am,15.4500,0.22551,-0.00499,-1.18655
04/28/2019 11:32:10 am,15.4750,0.22501,-0.03369,-1.12605
04/28/2019 11:32:10 am,15.5000,0.22382,-0.06128,-1.05039
04/28/2019 11:32:10 am,15.5250,0.22195,-0.08658,-0.95432
04/28/2019 11:32:10 am,15.5500,0.21937,-0.10965,-0.72794
04/28/2019 11:32:10 am,15.5750,0.21647,-0.12846,-0.37407
04/28/2019 11:32:10 am,15.6000,0.21285,-0.12859,-0.09921
04/28/2019 11:32:10 am,15.6250,0.20920,-0.12376,-0.11785
04/28/2019 11:32:10 am,15.6500,0.20736,-0.12924,-0.31438
04/28/2019 11:32:10 am,15.6750,0.20340,-0.14549,-0.28350
04/28/2019 11:32:10 am,15.7000,0.19926,-0.15401,0.06665
04/28/2019 11:32:10 am,15.7250,0.19547,-0.14151,0.49859
04/28/2019 11:32:10 am,15.7500,0.19219,-0.12322,0.78458
04/28/2019 11:32:10 am,15.7750,0.18925,-0.10149,0.94564
04/28/2019 11:32:10 am,15.8000,0.18700,-0.07634,1.08411
04/28/2019 11:32:10 am,15.8250,0.18543,-0.04654,1.17730
04/28/2019 11:32:10 am,15.8500,0.18455,-0.01555,1.19347
04/28/2019 11:32:10 am,15.8750,0.18471,0.01431,1.15497
04/28/2019 11:32:10 am,15.9000,0.18539,0.04182,1.11650
04/28/2019 11:32:10 am,15.9250,0.18675,0.06933,1.07909
04/28/2019 11:32:10 am,15.9500,0.18879,0.09691,0.99677
04/28/2019 11:32:10 am,15.9750,0.19171,0.12109,0.83186
04/28/2019 11:32:11 am,16.0000,0.19496,0.13958,0.52888
04/28/2019 11:32:11 am,16.0250,0.19874,0.15144,0.11447
04/28/2019 11:32:11 am,16.0500,0.20269,0.14589,-0.22045
04/28/2019 11:32:11 am,16.0750,0.20669,0.13195,-0.27885
04/28/2019 11:32:11 am,16.1000,0.20890,0.12600,-0.11524
04/28/2019 11:32:11 am,16.1250,0.21233,0.12950,-0.07043
04/28/2019 11:32:11 am,16.1500,0.21595,0.13105,-0.29658
04/28/2019 11:32:11 am,16.1750,0.21906,0.11633,-0.64949
04/28/2019 11:32:11 am,16.2000,0.22183,0.09468,-0.94272
04/28/2019 11:32:11 am,16.2250,0.22391,0.06845,-1.12062
04/28/2019 11:32:11 am,16.2500,0.22531,0.03753,-1.22261
04/28/2019 11:32:11 am,16.2750,0.22585,0.00540,-1.23253
04/28/2019 11:32:11 am,16.3000,0.22552,-0.02566,-1.16460
04/28/2019 11:32:11 am,16.3250,0.22450,-0.05325,-1.07289
04/28/2019 11:32:11 am,16.3500,0.22280,-0.07852,-0.99157
04/28/2019 11:32:11 am,16.3750,0.22058,-0.10268,-0.80424
04/28/2019 11:32:11 am,16.4000,0.21767,-0.12496,-0.45900
04/28/2019 11:32:11 am,16.4250,0.21423,-0.12744,-0.15354
04/28/2019 11:32:11 am,16.4500,0.21040,-0.12261,-0.14046
04/28/2019 11:32:11 am,16.4750,0.20873,-0.12807,-0.35157
04/28/2019 11:32:11 am,16.5000,0.20478,-0.14541,-0.36700
04/28/2019 11:32:11 am,16.5250,0.20064,-0.15737,-0.04834
04/28/2019 11:32:11 am,16.5500,0.19667,-0.14835,0.39042
04/28/2019 11:32:11 am,16.5750,0.19323,-0.13238,0.72220
04/28/2019 11:32:11 am,16.6000,0.18994,-0.11184,0.93751
04/28/2019 11:32:11 am,16.6250,0.18752,-0.08555,1.09980
04/28/2019 11:32:11 am,16.6500,0.18561,-0.05455,1.17789
04/28/2019 11:32:11 am,16.6750,0.18473,-0.02470,1.17048
04/28/2019 11:32:11 am,16.7000,0.18455,0.00399,1.13928
04/28/2019 11:32:11 am,16.7250,0.18487,0.03148,1.12406
04/28/2019 11:32:11 am,16.7500,0.18606,0.06016,1.09426
04/28/2019 11:32:11 am,16.7750,0.18794,0.08774,1.01904
04/28/2019 11:32:11 am,16.8000,0.19051,0.11188,0.88246
04/28/2019 11:32:11 am,16.8250,0.19359,0.13262,0.70224
04/28/2019 11:32:11 am,16.8500,0.19719,0.14765,0.39170
04/28/2019 11:32:11 am,16.8750,0.20115,0.15730,-0.03129
04/28/2019 11:32:11 am,16.9000,0.20510,0.14595,-0.33627
04/28/2019 11:32:11 am,16.9250,0.20928,0.12963,-0.34028
04/28/2019 11:32:11 am,16.9500,0.21095,0.12488,-0.15912
04/28/2019 11:32:11 am,16.9750,0.21474,0.12733,-0.19070
04/28/2019 11:32:12 am,17.0000,0.21837,0.12438,-0.49538
04/28/2019 11:32:12 am,17.0250,0.22096,0.10153,-0.84245
04/28/2019 11:32:12 am,17.0500,0.22339,0.07638,-1.05958
04/28/2019 11:32:12 am,17.0750,0.22495,0.04896,-1.15233
04/28/2019 11:32:12 am,17.1000,0.22584,0.01801,-1.21515
04/28/2019 11:32:12 am,17.1250,0.22585,-0.01295,-1.22487
04/28/2019 11:32:12 am,17.1500,0.22519,-0.04398,-1.16536
04/28/2019 11:32:12 am,17.1750,0.22366,-0.07278,-1.05165
04/28/2019 11:32:12 am,17.2000,0.22143,-0.09697,-0.90887
04/28/2019 11:32:12 am,17.2250,0.21869,-0.11771,-0.66655
04/28/2019 11:32:12 am,17.2500,0.21561,-0.13538,-0.32049
04/28/2019 11:32:12 am,17.2750,0.21183,-0.13435,-0.04602
04/28/2019 11:32:12 am,17.3000,0.20799,-0.12840,-0.04921
04/28/2019 11:32:12 am,17.3250,0.20615,-0.13159,-0.23767
04/28/2019 11:32:12 am,17.3500,0.20202,-0.14552,-0.21421
04/28/2019 11:32:12 am,17.3750,0.19806,-0.15289,0.12014
04/28/2019 11:32:12 am,17.4000,0.19426,-0.13924,0.55916
04/28/2019 11:32:12 am,17.4250,0.19098,-0.11985,0.87618
04/28/2019 11:32:12 am,17.4500,0.18821,-0.09468,1.04601
04/28/2019 11:32:12 am,17.4750,0.18613,-0.06602,1.13909
04/28/2019 11:32:12 am,17.5000,0.18491,-0.03617,1.16244
04/28/2019 11:32:12 am,17.5250,0.18438,-0.00750,1.15451
04/28/2019 11:32:12 am,17.5500,0.18454,0.02117,1.14675
04/28/2019 11:32:12 am,17.5750,0.18538,0.04982,1.13204
04/28/2019 11:32:12 am,17.6000,0.18709,0.07852,1.07970
04/28/2019 11:32:12 am,17.6250,0.18930,0.10495,0.96651
04/28/2019 11:32:12 am,17.6500,0.19239,0.12799,0.78658
04/28/2019 11:32:12 am,17.6750,0.19582,0.14533,0.46090
04/28/2019 11:32:12 am,17.7000,0.19977,0.15613,0.01482
04/28/2019 11:32:12 am,17.7250,0.20372,0.14595,-0.30593
04/28/2019 11:32:12 am,17.7500,0.20791,0.12960,-0.30265
04/28/2019 11:32:12 am,17.7750,0.20958,0.12597,-0.09859
04/28/2019 11:32:12 am,17.8000,0.21336,0.13071,-0.10691
04/28/2019 11:32:12 am,17.8250,0.21717,0.13005,-0.40355
04/28/2019 11:32:12 am,17.8500,0.21992,0.10949,-0.75780
04/28/2019 11:32:12 am,17.8750,0.22252,0.08666,-0.99739
04/28/2019 11:32:12 am,17.9000,0.22443,0.06042,-1.12852
04/28/2019 11:32:12 am,17.9250,0.22566,0.02950,-1.22250
04/28/2019 11:32:12 am,17.9500,0.22585,-0.00263,-1.24005
04/28/2019 11:32:12 am,17.9750,0.22553,-0.03366,-1.18036
04/28/2019 11:32:13 am,18.0000,0.22417,-0.06242,-1.07394
04/28/2019 11:32:13 am,18.0250,0.22229,-0.08776,-0.95415
04/28/2019 11:32:13 am,18.0500,0.21972,-0.10962,-0.73522
04/28/2019 11:32:13 am,18.0750,0.21681,-0.12958,-0.39721
04/28/2019 11:32:13 am,18.1000,0.21320,-0.13088,-0.11526
04/28/2019 11:32:13 am,18.1250,0.20937,-0.12608,-0.10276
04/28/2019 11:32:13 am,18.1500,0.20753,-0.13042,-0.29090
04/28/2019 11:32:13 am,18.1750,0.20357,-0.14546,-0.28278
04/28/2019 11:32:13 am,18.2000,0.19944,-0.15513,0.03624
04/28/2019 11:32:13 am,18.2250,0.19564,-0.14378,0.45967
04/28/2019 11:32:13 am,18.2500,0.19219,-0.12666,0.77609
04/28/2019 11:32:13 am,18.2750,0.18925,-0.10498,0.97589
04/28/2019 11:32:13 am,18.3000,0.18683,-0.07752,1.13050
04/28/2019 11:32:13 am,18.3250,0.18526,-0.04654,1.20091
04/28/2019 11:32:13 am,18.3500,0.18456,-0.01553,1.18601
04/28/2019 11:32:13 am,18.3750,0.18454,0.01317,1.13970
04/28/2019 11:32:13 am,18.4000,0.18521,0.04068,1.10122
04/28/2019 11:32:13 am,18.4250,0.18658,0.06821,1.06364
04/28/2019 11:32:13 am,18.4500,0.18862,0.09461,0.98844
04/28/2019 11:32:13 am,18.4750,0.19136,0.11877,0.85445
04/28/2019 11:32:13 am,18.5000,0.19462,0.13838,0.56743
04/28/2019 11:32:13 am,18.5250,0.19840,0.15261,0.13752
04/28/2019 11:32:13 am,18.5500,0.20235,0.14589,-0.20576
04/28/2019 11:32:13 am,18.5750,0.20653,0.13189,-0.24119
04/28/2019 11:32:13 am,18.6000,0.20837,0.12824,-0.05316
04/28/2019 11:32:13 am,18.6250,0.21215,0.13409,-0.04600
04/28/2019 11:32:13 am,18.6500,0.21595,0.13572,-0.33423
04/28/2019 11:32:13 am,18.6750,0.21906,0.11751,-0.71138
04/28/2019 11:32:13 am,18.7000,0.22183,0.09468,-0.97443
04/28/2019 11:32:13 am,18.7250,0.22391,0.06842,-1.10571
04/28/2019 11:32:13 am,18.7500,0.22531,0.03864,-1.19143
04/28/2019 11:32:13 am,18.7750,0.22584,0.00769,-1.22368
04/28/2019 11:32:13 am,18.8000,0.22569,-0.02330,-1.20223
04/28/2019 11:32:13 am,18.8250,0.22468,-0.05319,-1.13465
04/28/2019 11:32:13 am,18.8500,0.22297,-0.08081,-1.03099
04/28/2019 11:32:13 am,18.8750,0.22058,-0.10500,-0.79720
04/28/2019 11:32:13 am,18.9000,0.21767,-0.12614,-0.42822
04/28/2019 11:32:13 am,18.9250,0.21423,-0.12744,-0.13021
04/28/2019 11:32:13 am,18.9500,0.21040,-0.12261,-0.13244
04/28/2019 11:32:13 am,18.9750,0.20873,-0.12807,-0.35904
04/28/2019 11:32:14 am,19.0000,0.20478,-0.14538,-0.38229
04/28/2019 11:32:14 am,19.0250,0.20064,-0.15852,-0.06398
04/28/2019 11:32:14 am,19.0500,0.19668,-0.14949,0.38991
04/28/2019 11:32:14 am,19.0750,0.19305,-0.13355,0.74514
04/28/2019 11:32:14 am,19.1000,0.18994,-0.11187,0.96080
04/28/2019 11:32:14 am,19.1250,0.18735,-0.08438,1.10796
04/28/2019 11:32:14 am,19.1500,0.18561,-0.05455,1.16277
04/28/2019 11:32:14 am,19.1750,0.18474,-0.02468,1.14738
04/28/2019 11:32:14 am,19.2000,0.18437,0.00285,1.12383
04/28/2019 11:32:14 am,19.2250,0.18488,0.03034,1.11609
04/28/2019 11:32:14 am,19.2500,0.18589,0.05902,1.10175
04/28/2019 11:32:14 am,19.2750,0.18777,0.08657,1.03432
04/28/2019 11:32:14 am,19.3000,0.19034,0.11188,0.89791
04/28/2019 11:32:14 am,19.3250,0.19342,0.13263,0.71004
04/28/2019 11:32:14 am,19.3500,0.19702,0.14765,0.39169
04/28/2019 11:32:14 am,19.3750,0.20098,0.15730,-0.03111
04/28/2019 11:32:14 am,19.4000,0.20493,0.14595,-0.34392
04/28/2019 11:32:14 am,19.4250,0.20911,0.12965,-0.34851
04/28/2019 11:32:14 am,19.4500,0.21078,0.12371,-0.14461
04/28/2019 11:32:14 am,19.4750,0.21457,0.12727,-0.14483
04/28/2019 11:32:14 am,19.5000,0.21802,0.12664,-0.44836
04/28/2019 11:32:14 am,19.5250,0.22096,0.10500,-0.84149
04/28/2019 11:32:14 am,19.5500,0.22339,0.07873,-1.09799
04/28/2019 11:32:14 am,19.5750,0.22495,0.04896,-1.18388
04/28/2019 11:32:14 am,19.6000,0.22584,0.01798,-1.20808
04/28/2019 11:32:14 am,19.6250,0.22585,-0.01184,-1.19388
04/28/2019 11:32:14 am,19.6500,0.22518,-0.04169,-1.14926
04/28/2019 11:32:14 am,19.6750,0.22383,-0.07046,-1.06654
04/28/2019 11:32:14 am,19.7000,0.22161,-0.09579,-0.93965
04/28/2019 11:32:14 am,19.7250,0.21886,-0.11771,-0.68990
04/28/2019 11:32:14 am,19.7500,0.21578,-0.13538,-0.32834
04/28/2019 11:32:14 am,19.7750,0.21200,-0.13435,-0.04602
04/28/2019 11:32:14 am,19.8000,0.20817,-0.12840,-0.04920
04/28/2019 11:32:14 am,19.8250,0.20633,-0.13159,-0.23767
04/28/2019 11:32:14 am,19.8500,0.20219,-0.14552,-0.21421
04/28/2019 11:32:14 am,19.8750,0.19823,-0.15289,0.12013
04/28/2019 11:32:14 am,19.9000,0.19443,-0.13924,0.55916
04/28/2019 11:32:14 am,19.9250,0.19115,-0.11985,0.87618
04/28/2019 11:32:14 am,19.9500,0.18839,-0.09468,1.04601
04/28/2019 11:32:14 am,19.9750,0.18630,-0.06602,1.13925
04/28/2019 11:32:15 am,20.0000,0.18508,-0.03617,1.15513
04/28/2019 11:32:15 am,20.0250,0.18455,-0.00747,1.13192
04/28/2019 11:32:15 am,20.0500,0.18471,0.02004,1.10838
04/28/2019 11:32:15 am,20.0750,0.18555,0.04755,1.10082
04/28/2019 11:32:15 am,20.1000,0.18709,0.07506,1.07922
04/28/2019 11:32:15 am,20.1250,0.18931,0.10263,0.98945
04/28/2019 11:32:15 am,20.1500,0.19222,0.12685,0.80984
04/28/2019 11:32:15 am,20.1750,0.19582,0.14418,0.46834
04/28/2019 11:32:15 am,20.2000,0.19960,0.15498,0.02955
04/28/2019 11:32:15 am,20.2250,0.20355,0.14475,-0.26810
04/28/2019 11:32:15 am,20.2500,0.20773,0.13072,-0.24899
04/28/2019 11:32:15 am,20.2750,0.20940,0.12824,-0.05201
04/28/2019 11:32:15 am,20.3000,0.21336,0.13415,-0.09086
04/28/2019 11:32:15 am,20.3250,0.21716,0.13351,-0.41844
04/28/2019 11:32:15 am,20.3500,0.22009,0.11181,-0.78854
04/28/2019 11:32:15 am,20.3750,0.22269,0.08781,-1.02068
04/28/2019 11:32:15 am,20.4000,0.22460,0.06157,-1.13634
04/28/2019 11:32:15 am,20.4250,0.22583,0.03065,-1.22248
04/28/2019 11:32:15 am,20.4500,0.22619,-0.00148,-1.24005
04/28/2019 11:32:15 am,20.4750,0.22570,-0.03251,-1.18016
04/28/2019 11:32:15 am,20.5000,0.22451,-0.06128,-1.08119
04/28/2019 11:32:15 am,20.5250,0.22263,-0.08658,-0.97690
04/28/2019 11:32:15 am,20.5500,0.22006,-0.10959,-0.76601
04/28/2019 11:32:15 am,20.5750,0.21716,-0.13073,-0.42056
04/28/2019 11:32:15 am,20.6000,0.21355,-0.13203,-0.12312
04/28/2019 11:32:15 am,20.6250,0.20954,-0.12723,-0.10259
04/28/2019 11:32:15 am,20.6500,0.20788,-0.13156,-0.29837
04/28/2019 11:32:15 am,20.6750,0.20375,-0.14658,-0.29808
04/28/2019 11:32:15 am,20.7000,0.19961,-0.15743,0.02043
04/28/2019 11:32:15 am,20.7250,0.19582,-0.14608,0.46663
04/28/2019 11:32:15 am,20.7500,0.19219,-0.12901,0.81433
04/28/2019 11:32:15 am,20.7750,0.18925,-0.10501,1.01497
04/28/2019 11:32:15 am,20.8000,0.18682,-0.07635,1.13152
04/28/2019 11:32:15 am,20.8250,0.18543,-0.04649,1.15506
04/28/2019 11:32:15 am,20.8500,0.18456,-0.01779,1.13933
04/28/2019 11:32:15 am,20.8750,0.18454,0.00970,1.13124
04/28/2019 11:32:15 am,20.9000,0.18504,0.03836,1.13164
04/28/2019 11:32:15 am,20.9250,0.18640,0.06704,1.10219
04/28/2019 11:32:15 am,20.9500,0.18845,0.09461,1.01170
04/28/2019 11:32:15 am,20.9750,0.19119,0.11878,0.86207
04/28/2019 11:32:16 am,21.0000,0.19445,0.13838,0.57470
04/28/2019 11:32:16 am,21.0250,0.19822,0.15258,0.16025
04/28/2019 11:32:16 am,21.0500,0.20217,0.14701,-0.17483
04/28/2019 11:32:16 am,21.0750,0.20635,0.13418,-0.22536
04/28/2019 11:32:16 am,21.1000,0.20837,0.13056,-0.06082
04/28/2019 11:32:16 am,21.1250,0.21215,0.13523,-0.05402
04/28/2019 11:32:16 am,21.1500,0.21595,0.13684,-0.32676
04/28/2019 11:32:16 am,21.1750,0.21905,0.11980,-0.69590
04/28/2019 11:32:16 am,21.2000,0.22200,0.09698,-0.96659
04/28/2019 11:32:16 am,21.2250,0.22408,0.07071,-1.10549
04/28/2019 11:32:16 am,21.2500,0.22547,0.04094,-1.19864
04/28/2019 11:32:16 am,21.2750,0.22618,0.01001,-1.24660
04/28/2019 11:32:16 am,21.3000,0.22604,-0.02213,-1.22575
04/28/2019 11:32:16 am,21.3250,0.22502,-0.05322,-1.13524
04/28/2019 11:32:16 am,21.3500,0.22332,-0.07969,-1.00618
04/28/2019 11:32:16 am,21.3750,0.22092,-0.10271,-0.84807
04/28/2019 11:32:16 am,21.4000,0.21818,-0.12356,-0.58971
04/28/2019 11:32:16 am,21.4250,0.21475,-0.13656,-0.25762
04/28/2019 11:32:16 am,21.4500,0.21095,-0.13430,-0.05249
04/28/2019 11:32:16 am,21.4750,0.20767,-0.13061,-0.10415
04/28/2019 11:32:16 am,21.5000,0.20512,-0.13738,-0.23201
04/28/2019 11:32:16 am,21.5250,0.20099,-0.14910,-0.12295
04/28/2019 11:32:16 am,21.5500,0.19702,-0.15062,0.23566
04/28/2019 11:32:16 am,21.5750,0.19340,-0.13582,0.64373
04/28/2019 11:32:16 am,21.6000,0.19012,-0.11531,0.94483
04/28/2019 11:32:16 am,21.6250,0.18752,-0.08784,1.12293
04/28/2019 11:32:16 am,21.6500,0.18561,-0.05687,1.19370
04/28/2019 11:32:16 am,21.6750,0.18474,-0.02582,1.16319
04/28/2019 11:32:16 am,21.7000,0.18437,0.00172,1.11604
04/28/2019 11:32:16 am,21.7250,0.18488,0.02804,1.11527
04/28/2019 11:32:16 am,21.7500,0.18572,0.05667,1.13946
04/28/2019 11:32:16 am,21.7750,0.18760,0.08652,1.09596
04/28/2019 11:32:16 am,21.8000,0.19016,0.11417,0.93712
04/28/2019 11:32:16 am,21.8250,0.19342,0.13494,0.70290
04/28/2019 11:32:16 am,21.8500,0.19702,0.14882,0.36077
04/28/2019 11:32:16 am,21.8750,0.20098,0.15730,-0.04692
04/28/2019 11:32:16 am,21.9000,0.20493,0.14592,-0.33625
04/28/2019 11:32:16 am,21.9250,0.20911,0.13080,-0.34030
04/28/2019 11:32:16 am,21.9500,0.21078,0.12488,-0.15972
04/28/2019 11:32:16 am,21.9750,0.21475,0.12730,-0.15326
04/28/2019 11:32:17 am,22.0000,0.21802,0.12547,
04/28/2019 11:32:17 am,22.0250,0.22096,0.10723,
04/28/2019 11:32:17 am,22.0500,0.22338,,
